
**** SCALARS ****
run,repetition,Module,rcvdPk:count,rcvdPk:sum(packetBytes)
avgStream-4-20180107-13:54:00-8054,4,SmallCompany.server1.udpApp[0],143200,143200000
avgStream-4-20180107-13:54:00-8054,4,SmallCompany.server2.udpApp[0],143200,143200000
avgStream-3-20180107-13:54:00-8053,3,SmallCompany.server1.udpApp[0],143200,143200000
avgStream-3-20180107-13:54:00-8053,3,SmallCompany.server2.udpApp[0],143200,143200000
avgStream-7-20180107-13:54:58-8204,7,SmallCompany.server1.udpApp[0],143200,143200000
avgStream-7-20180107-13:54:58-8204,7,SmallCompany.server2.udpApp[0],143200,143200000
avgStream-1-20180107-13:53:59-8047,1,SmallCompany.server1.udpApp[0],143200,143200000
avgStream-1-20180107-13:53:59-8047,1,SmallCompany.server2.udpApp[0],143200,143200000
avgStream-8-20180107-13:55:08-8218,8,SmallCompany.server1.udpApp[0],143200,143200000
avgStream-8-20180107-13:55:08-8218,8,SmallCompany.server2.udpApp[0],143200,143200000
avgStream-2-20180107-13:54:00-8049,2,SmallCompany.server1.udpApp[0],143200,143200000
avgStream-2-20180107-13:54:00-8049,2,SmallCompany.server2.udpApp[0],143200,143200000
avgStream-5-20180107-13:54:00-8106,5,SmallCompany.server1.udpApp[0],143200,143200000
avgStream-5-20180107-13:54:00-8106,5,SmallCompany.server2.udpApp[0],143200,143200000
avgStream-0-20180107-13:53:59-8046,0,SmallCompany.server1.udpApp[0],143200,143200000
avgStream-0-20180107-13:53:59-8046,0,SmallCompany.server2.udpApp[0],143200,143200000
avgStream-6-20180107-13:54:53-8192,6,SmallCompany.server1.udpApp[0],143200,143200000
avgStream-6-20180107-13:54:53-8192,6,SmallCompany.server2.udpApp[0],143200,143200000
avgStream-9-20180107-13:55:10-8230,9,SmallCompany.server1.udpApp[0],143200,143200000
avgStream-9-20180107-13:55:10-8230,9,SmallCompany.server2.udpApp[0],143200,143200000

**** HISTOGRAMS ****
run,repetition,module,name,count,sumweights,mean,stddev,min,max,rowtype,data...
avgStream-4-20180107-13:54:00-8054,4,SmallCompany.server1.udpApp[0],endToEndDelay:histogram,143200,,0.0052797526729466,3.4354511187443e-05,0.00525882,0.005358557092,bins,-Inf,0.005208951454,0.0052156005934667,0.0052222497329333,0.0052288988724,0.0052355480118667,0.0052421971513333,0.0052488462908,0.0052554954302667,0.0052621445697333,0.0052687937092,0.0052754428486667,0.0052820919881333,0.0052887411276,0.0052953902670667,0.0053020394065333,0.005308688546,0.0053153376854667,0.0053219868249333,0.0053286359644,0.0053352851038667,0.0053419342433333,0.0053485833828,0.0053552325222667,0.0053618816617333,0.0053685308012,0.0053751799406667,0.0053818290801333,0.0053884782196,0.0053951273590667,0.0054017764985333,0.005408425638
avgStream-4-20180107-13:54:00-8054,4,SmallCompany.server1.udpApp[0],endToEndDelay:histogram,,,,,,,,counters,0,0,0,0,0,0,0,0,100240,0,0,0,7160,0,0,0,0,0,14320,7160,0,7160,0,7160,0,0,0,0,0,0,0,0
avgStream-4-20180107-13:54:00-8054,4,SmallCompany.server2.udpApp[0],endToEndDelay:histogram,143200,,0.0042001099329978,3.1159851925619e-05,0.00417602,0.004255821744,bins,-Inf,0.004136119128,0.0041414392442667,0.0041467593605333,0.0041520794768,0.0041573995930667,0.0041627197093333,0.0041680398256,0.0041733599418667,0.0041786800581333,0.0041840001744,0.0041893202906667,0.0041946404069333,0.0041999605232,0.0042052806394667,0.0042106007557333,0.004215920872,0.0042212409882667,0.0042265611045333,0.0042318812208,0.0042372013370667,0.0042425214533333,0.0042478415696,0.0042531616858667,0.0042584818021333,0.0042638019184,0.0042691220346667,0.0042744421509333,0.0042797622672,0.0042850823834667,0.0042904024997333,0.004295722616
avgStream-4-20180107-13:54:00-8054,4,SmallCompany.server2.udpApp[0],endToEndDelay:histogram,,,,,,,,counters,0,0,0,0,0,0,0,0,85920,0,0,0,0,7160,0,0,0,7160,0,0,21480,14320,0,7160,0,0,0,0,0,0,0,0
avgStream-3-20180107-13:54:00-8053,3,SmallCompany.server1.udpApp[0],endToEndDelay:histogram,143200,,0.005285366845896,4.012141100578e-05,0.00525882,0.005399145783,bins,-Inf,0.0051886571085,0.0051980121607,0.0052073672129,0.0052167222651,0.0052260773173,0.0052354323695,0.0052447874217,0.0052541424739,0.0052634975261,0.0052728525783,0.0052822076305,0.0052915626827,0.0053009177349,0.0053102727871,0.0053196278393,0.0053289828915,0.0053383379437,0.0053476929959,0.0053570480481,0.0053664031003,0.0053757581525,0.0053851132047,0.0053944682569,0.0054038233091,0.0054131783613,0.0054225334135,0.0054318884657,0.0054412435179,0.0054505985701,0.0054599536223,0.0054693086745
avgStream-3-20180107-13:54:00-8053,3,SmallCompany.server1.udpApp[0],endToEndDelay:histogram,,,,,,,,counters,0,0,0,0,0,0,0,0,85920,0,14320,0,7160,0,0,7160,14320,0,7160,0,0,0,0,7160,0,0,0,0,0,0,0,0
avgStream-3-20180107-13:54:00-8053,3,SmallCompany.server2.udpApp[0],endToEndDelay:histogram,143200,,0.0042208345288993,4.6199671906853e-05,0.00417602,0.004301704634,bins,-Inf,0.004113177683,0.0041215566586,0.0041299356342,0.0041383146098,0.0041466935854,0.004155072561,0.0041634515366,0.0041718305122,0.0041802094878,0.0041885884634,0.004196967439,0.0042053464146,0.0042137253902,0.0042221043658,0.0042304833414,0.004238862317,0.0042472412926,0.0042556202682,0.0042639992438,0.0042723782194,0.004280757195,0.0042891361706,0.0042975151462,0.0043058941218,0.0043142730974,0.004322652073,0.0043310310486,0.0043394100242,0.0043477889998,0.0043561679754,0.004364546951
avgStream-3-20180107-13:54:00-8053,3,SmallCompany.server2.udpApp[0],endToEndDelay:histogram,,,,,,,,counters,0,0,0,0,0,0,0,0,64440,0,7160,0,0,0,7160,7160,0,14320,7160,0,14320,14320,0,7160,0,0,0,0,0,0,0,0
avgStream-7-20180107-13:54:58-8204,7,SmallCompany.server1.udpApp[0],endToEndDelay:histogram,143200,,0.00529254188985,4.1495852556598e-05,0.00525882,0.005407793678,bins,-Inf,0.005184333161,0.0051942647395333,0.0052041963180667,0.0052141278966,0.0052240594751333,0.0052339910536667,0.0052439226322,0.0052538542107333,0.0052637857892667,0.0052737173678,0.0052836489463333,0.0052935805248667,0.0053035121034,0.0053134436819333,0.0053233752604667,0.005333306839,0.0053432384175333,0.0053531699960667,0.0053631015746,0.0053730331531333,0.0053829647316667,0.0053928963102,0.0054028278887333,0.0054127594672667,0.0054226910458,0.0054326226243333,0.0054425542028667,0.0054524857814,0.0054624173599333,0.0054723489384667,0.005482280517
avgStream-7-20180107-13:54:58-8204,7,SmallCompany.server1.udpApp[0],endToEndDelay:histogram,,,,,,,,counters,0,0,0,0,0,0,0,0,64440,7160,7160,7160,7160,7160,14320,7160,0,7160,7160,0,0,0,0,7160,0,0,0,0,0,0,0,0
avgStream-7-20180107-13:54:58-8204,7,SmallCompany.server2.udpApp[0],endToEndDelay:histogram,143200,,0.0042210645666998,5.7327755093845e-05,0.00417602,0.004353225639,bins,-Inf,0.0040874171805,0.0040992308897667,0.0041110445990333,0.0041228583083,0.0041346720175667,0.0041464857268333,0.0041582994361,0.0041701131453667,0.0041819268546333,0.0041937405639,0.0042055542731667,0.0042173679824333,0.0042291816917,0.0042409954009667,0.0042528091102333,0.0042646228195,0.0042764365287667,0.0042882502380333,0.0043000639473,0.0043118776565667,0.0043236913658333,0.0043355050751,0.0043473187843667,0.0043591324936333,0.0043709462029,0.0043827599121667,0.0043945736214333,0.0044063873307,0.0044182010399667,0.0044300147492333,0.0044418284585
avgStream-7-20180107-13:54:58-8204,7,SmallCompany.server2.udpApp[0],endToEndDelay:histogram,,,,,,,,counters,0,0,0,0,0,0,0,0,71600,14320,0,0,0,7160,0,14320,7160,0,14320,0,7160,0,0,7160,0,0,0,0,0,0,0,0
avgStream-1-20180107-13:53:59-8047,1,SmallCompany.server1.udpApp[0],endToEndDelay:histogram,143200,,0.0052705075173975,1.9808422513872e-05,0.00525882,0.005323744938,bins,-Inf,0.005226357531,0.0052306858602,0.0052350141894,0.0052393425186,0.0052436708478,0.005247999177,0.0052523275062,0.0052566558354,0.0052609841646,0.0052653124938,0.005269640823,0.0052739691522,0.0052782974814,0.0052826258106,0.0052869541398,0.005291282469,0.0052956107982,0.0052999391274,0.0053042674566,0.0053085957858,0.005312924115,0.0053172524442,0.0053215807734,0.0053259091026,0.0053302374318,0.005334565761,0.0053388940902,0.0053432224194,0.0053475507486,0.0053518790778,0.005356207407
avgStream-1-20180107-13:53:59-8047,1,SmallCompany.server1.udpApp[0],endToEndDelay:histogram,,,,,,,,counters,0,0,0,0,0,0,0,0,93080,7160,0,7160,0,0,7160,0,7160,7160,0,0,7160,0,0,7160,0,0,0,0,0,0,0,0
avgStream-1-20180107-13:53:59-8047,1,SmallCompany.server2.udpApp[0],endToEndDelay:histogram,143200,,0.0042006377585484,4.4810394811555e-05,0.00417602,0.004343769808,bins,-Inf,0.004092145096,0.0041033284165333,0.0041145117370667,0.0041256950576,0.0041368783781333,0.0041480616986667,0.0041592450192,0.0041704283397333,0.0041816116602667,0.0041927949808,0.0042039783013333,0.0042151616218667,0.0042263449424,0.0042375282629333,0.0042487115834667,0.004259894904,0.0042710782245333,0.0042822615450667,0.0042934448656,0.0043046281861333,0.0043158115066667,0.0043269948272,0.0043381781477333,0.0043493614682667,0.0043605447888,0.0043717281093333,0.0043829114298667,0.0043940947504,0.0044052780709333,0.0044164613914667,0.004427644712
avgStream-1-20180107-13:53:59-8047,1,SmallCompany.server2.udpApp[0],endToEndDelay:histogram,,,,,,,,counters,0,0,0,0,0,0,0,0,93080,0,7160,7160,14320,0,7160,0,0,0,0,7160,0,0,0,7160,0,0,0,0,0,0,0,0
avgStream-8-20180107-13:55:08-8218,8,SmallCompany.server1.udpApp[0],endToEndDelay:histogram,143200,,0.0052726299170943,2.8250817361487e-05,0.00525882,0.005348400606,bins,-Inf,0.005214029697,0.0052200017374,0.0052259737778,0.0052319458182,0.0052379178586,0.005243889899,0.0052498619394,0.0052558339798,0.0052618060202,0.0052677780606,0.005273750101,0.0052797221414,0.0052856941818,0.0052916662222,0.0052976382626,0.005303610303,0.0053095823434,0.0053155543838,0.0053215264242,0.0053274984646,0.005333470505,0.0053394425454,0.0053454145858,0.0053513866262,0.0053573586666,0.005363330707,0.0053693027474,0.0053752747878,0.0053812468282,0.0053872188686,0.005393190909
avgStream-8-20180107-13:55:08-8218,8,SmallCompany.server1.udpApp[0],endToEndDelay:histogram,,,,,,,,counters,0,0,0,0,0,0,0,0,114560,0,0,0,0,0,0,0,0,7160,7160,0,7160,0,0,7160,0,0,0,0,0,0,0,0
avgStream-8-20180107-13:55:08-8218,8,SmallCompany.server2.udpApp[0],endToEndDelay:histogram,143200,,0.0041957643685989,2.6349458304923e-05,0.00417602,0.004273607352,bins,-Inf,0.004127226324,0.0041337321474667,0.0041402379709333,0.0041467437944,0.0041532496178667,0.0041597554413333,0.0041662612648,0.0041727670882667,0.0041792729117333,0.0041857787352,0.0041922845586667,0.0041987903821333,0.0042052962056,0.0042118020290667,0.0042183078525333,0.004224813676,0.0042313194994667,0.0042378253229333,0.0042443311464,0.0042508369698667,0.0042573427933333,0.0042638486168,0.0042703544402667,0.0042768602637333,0.0042833660872,0.0042898719106667,0.0042963777341333,0.0043028835576,0.0043093893810667,0.0043158952045333,0.004322401028
avgStream-8-20180107-13:55:08-8218,8,SmallCompany.server2.udpApp[0],endToEndDelay:histogram,,,,,,,,counters,0,0,0,0,0,0,0,0,78760,0,0,0,21480,14320,7160,0,7160,7160,0,0,0,0,0,7160,0,0,0,0,0,0,0,0
avgStream-2-20180107-13:54:00-8049,2,SmallCompany.server1.udpApp[0],endToEndDelay:histogram,143200,,0.0052904646464492,4.5817671173841e-05,0.00525882,0.005392584403,bins,-Inf,0.0051919377985,0.0052008554253667,0.0052097730522333,0.0052186906791,0.0052276083059667,0.0052365259328333,0.0052454435597,0.0052543611865667,0.0052632788134333,0.0052721964403,0.0052811140671667,0.0052900316940333,0.0052989493209,0.0053078669477667,0.0053167845746333,0.0053257022015,0.0053346198283667,0.0053435374552333,0.0053524550821,0.0053613727089667,0.0053702903358333,0.0053792079627,0.0053881255895667,0.0053970432164333,0.0054059608433,0.0054148784701667,0.0054237960970333,0.0054327137239,0.0054416313507667,0.0054505489776333,0.0054594666045
avgStream-2-20180107-13:54:00-8049,2,SmallCompany.server1.udpApp[0],endToEndDelay:histogram,,,,,,,,counters,0,0,0,0,0,0,0,0,78760,7160,0,7160,7160,0,14320,0,7160,0,0,0,0,0,14320,7160,0,0,0,0,0,0,0,0
avgStream-2-20180107-13:54:00-8049,2,SmallCompany.server2.udpApp[0],endToEndDelay:histogram,143200,,0.0042142700880497,6.1943362049068e-05,0.00417602,0.004397083014,bins,-Inf,0.004065488493,0.0040802260272667,0.0040949635615333,0.0041097010958,0.0041244386300667,0.0041391761643333,0.0041539136986,0.0041686512328667,0.0041833887671333,0.0041981263014,0.0042128638356667,0.0042276013699333,0.0042423389042,0.0042570764384667,0.0042718139727333,0.004286551507,0.0043012890412667,0.0043160265755333,0.0043307641098,0.0043455016440667,0.0043602391783333,0.0043749767126,0.0043897142468667,0.0044044517811333,0.0044191893154,0.0044339268496667,0.0044486643839333,0.0044634019182,0.0044781394524667,0.0044928769867333,0.004507614521
avgStream-2-20180107-13:54:00-8049,2,SmallCompany.server2.udpApp[0],endToEndDelay:histogram,,,,,,,,counters,0,0,0,0,0,0,0,0,93080,0,7160,0,7160,0,0,14320,14320,0,0,0,0,0,0,7160,0,0,0,0,0,0,0,0
avgStream-5-20180107-13:54:00-8106,5,SmallCompany.server1.udpApp[0],endToEndDelay:histogram,143200,,0.0052936870176499,4.5385019668388e-05,0.00525882,0.005414994014,bins,-Inf,0.005180732993,0.0051911445939333,0.0052015561948667,0.0052119677958,0.0052223793967333,0.0052327909976667,0.0052432025986,0.0052536141995333,0.0052640258004667,0.0052744374014,0.0052848490023333,0.0052952606032667,0.0053056722042,0.0053160838051333,0.0053264954060667,0.005336907007,0.0053473186079333,0.0053577302088667,0.0053681418098,0.0053785534107333,0.0053889650116667,0.0053993766126,0.0054097882135333,0.0054201998144667,0.0054306114154,0.0054410230163333,0.0054514346172667,0.0054618462182,0.0054722578191333,0.0054826694200667,0.005493081021
avgStream-5-20180107-13:54:00-8106,5,SmallCompany.server1.udpApp[0],endToEndDelay:histogram,,,,,,,,counters,0,0,0,0,0,0,0,0,64440,14320,0,7160,14320,7160,7160,7160,0,0,0,14320,0,0,0,7160,0,0,0,0,0,0,0,0
avgStream-5-20180107-13:54:00-8106,5,SmallCompany.server2.udpApp[0],endToEndDelay:histogram,143200,,0.0041943499849003,2.9775720024708e-05,0.00417602,0.004289413399,bins,-Inf,0.0041193233005,0.0041268828604333,0.0041344424203667,0.0041420019803,0.0041495615402333,0.0041571211001667,0.0041646806601,0.0041722402200333,0.0041797997799667,0.0041873593399,0.0041949188998333,0.0042024784597667,0.0042100380197,0.0042175975796333,0.0042251571395667,0.0042327166995,0.0042402762594333,0.0042478358193667,0.0042553953793,0.0042629549392333,0.0042705144991667,0.0042780740591,0.0042856336190333,0.0042931931789667,0.0043007527389,0.0043083122988333,0.0043158718587667,0.0043234314187,0.0043309909786333,0.0043385505385667,0.0043461100985
avgStream-5-20180107-13:54:00-8106,5,SmallCompany.server2.udpApp[0],endToEndDelay:histogram,,,,,,,,counters,0,0,0,0,0,0,0,0,85920,7160,0,7160,21480,0,0,7160,0,7160,0,0,0,0,0,7160,0,0,0,0,0,0,0,0
avgStream-0-20180107-13:53:59-8046,0,SmallCompany.server1.udpApp[0],endToEndDelay:histogram,143200,,0.0052965372584977,6.6973698497082e-05,0.00525882,0.005511769463,bins,-Inf,0.0051323452685,0.0051492085660333,0.0051660718635667,0.0051829351611,0.0051997984586333,0.0052166617561667,0.0052335250537,0.0052503883512333,0.0052672516487667,0.0052841149463,0.0053009782438333,0.0053178415413667,0.0053347048389,0.0053515681364333,0.0053684314339667,0.0053852947315,0.0054021580290333,0.0054190213265667,0.0054358846241,0.0054527479216333,0.0054696112191667,0.0054864745167,0.0055033378142333,0.0055202011117667,0.0055370644093,0.0055539277068333,0.0055707910043667,0.0055876543019,0.0056045175994333,0.0056213808969667,0.0056382441945
avgStream-0-20180107-13:53:59-8046,0,SmallCompany.server1.udpApp[0],endToEndDelay:histogram,,,,,,,,counters,0,0,0,0,0,0,0,0,93080,0,14320,7160,0,0,7160,0,7160,7160,0,0,0,0,0,7160,0,0,0,0,0,0,0,0
avgStream-0-20180107-13:53:59-8046,0,SmallCompany.server2.udpApp[0],endToEndDelay:histogram,143200,,0.0041893262267505,2.5800919594126e-05,0.00417602,0.004266169282,bins,-Inf,0.004130945359,0.0041369553111333,0.0041429652632667,0.0041489752154,0.0041549851675333,0.0041609951196667,0.0041670050718,0.0041730150239333,0.0041790249760667,0.0041850349282,0.0041910448803333,0.0041970548324667,0.0042030647846,0.0042090747367333,0.0042150846888667,0.004221094641,0.0042271045931333,0.0042331145452667,0.0042391244974,0.0042451344495333,0.0042511444016667,0.0042571543538,0.0042631643059333,0.0042691742580667,0.0042751842102,0.0042811941623333,0.0042872041144667,0.0042932140666,0.0042992240187333,0.0043052339708667,0.004311243923
avgStream-0-20180107-13:53:59-8046,0,SmallCompany.server2.udpApp[0],endToEndDelay:histogram,,,,,,,,counters,0,0,0,0,0,0,0,0,107400,0,0,0,0,14320,0,0,7160,0,0,7160,0,0,0,7160,0,0,0,0,0,0,0,0
avgStream-6-20180107-13:54:53-8192,6,SmallCompany.server1.udpApp[0],endToEndDelay:histogram,143200,,0.0052668450693962,1.6772804284014e-05,0.00525882,0.005320849985,bins,-Inf,0.0052278050075,0.0052319403398333,0.0052360756721667,0.0052402110045,0.0052443463368333,0.0052484816691667,0.0052526170015,0.0052567523338333,0.0052608876661667,0.0052650229985,0.0052691583308333,0.0052732936631667,0.0052774289955,0.0052815643278333,0.0052856996601667,0.0052898349925,0.0052939703248333,0.0052981056571667,0.0053022409895,0.0053063763218333,0.0053105116541667,0.0053146469865,0.0053187823188333,0.0053229176511667,0.0053270529835,0.0053311883158333,0.0053353236481667,0.0053394589805,0.0053435943128333,0.0053477296451667,0.0053518649775
avgStream-6-20180107-13:54:53-8192,6,SmallCompany.server1.udpApp[0],endToEndDelay:histogram,,,,,,,,counters,0,0,0,0,0,0,0,0,107400,0,7160,0,0,7160,0,7160,0,0,7160,0,0,0,0,7160,0,0,0,0,0,0,0,0
avgStream-6-20180107-13:54:53-8192,6,SmallCompany.server2.udpApp[0],endToEndDelay:histogram,143200,,0.0042092467616495,5.7895607452078e-05,0.00417602,0.004382925514,bins,-Inf,0.004072567243,0.0040863609439333,0.0041001546448667,0.0041139483458,0.0041277420467333,0.0041415357476667,0.0041553294486,0.0041691231495333,0.0041829168504667,0.0041967105514,0.0042105042523333,0.0042242979532667,0.0042380916542,0.0042518853551333,0.0042656790560667,0.004279472757,0.0042932664579333,0.0043070601588667,0.0043208538598,0.0043346475607333,0.0043484412616667,0.0043622349626,0.0043760286635333,0.0043898223644667,0.0044036160654,0.0044174097663333,0.0044312034672667,0.0044449971682,0.0044587908691333,0.0044725845700667,0.004486378271
avgStream-6-20180107-13:54:53-8192,6,SmallCompany.server2.udpApp[0],endToEndDelay:histogram,,,,,,,,counters,0,0,0,0,0,0,0,0,100240,0,0,0,0,14320,7160,0,7160,0,7160,0,0,0,0,7160,0,0,0,0,0,0,0,0
avgStream-9-20180107-13:55:10-8230,9,SmallCompany.server1.udpApp[0],endToEndDelay:histogram,143200,,0.0052702450795953,2.3466834731095e-05,0.00525882,0.005339119635,bins,-Inf,0.0052186701825,0.0052240234915,0.0052293768005,0.0052347301095,0.0052400834185,0.0052454367275,0.0052507900365,0.0052561433455,0.0052614966545,0.0052668499635,0.0052722032725,0.0052775565815,0.0052829098905,0.0052882631995,0.0052936165085,0.0052989698175,0.0053043231265,0.0053096764355,0.0053150297445,0.0053203830535,0.0053257363625,0.0053310896715,0.0053364429805,0.0053417962895,0.0053471495985,0.0053525029075,0.0053578562165,0.0053632095255,0.0053685628345,0.0053739161435,0.0053792694525
avgStream-9-20180107-13:55:10-8230,9,SmallCompany.server1.udpApp[0],endToEndDelay:histogram,,,,,,,,counters,0,0,0,0,0,0,0,0,107400,7160,0,0,0,7160,0,0,0,0,7160,7160,0,0,0,7160,0,0,0,0,0,0,0,0
avgStream-9-20180107-13:55:10-8230,9,SmallCompany.server2.udpApp[0],endToEndDelay:histogram,143200,,0.0042021679869495,3.1220218759083e-05,0.00417602,0.004281627959,bins,-Inf,0.0041232160205,0.0041302565511,0.0041372970817,0.0041443376123,0.0041513781429,0.0041584186735,0.0041654592041,0.0041724997347,0.0041795402653,0.0041865807959,0.0041936213265,0.0042006618571,0.0042077023877,0.0042147429183,0.0042217834489,0.0042288239795,0.0042358645101,0.0042429050407,0.0042499455713,0.0042569861019,0.0042640266325,0.0042710671631,0.0042781076937,0.0042851482243,0.0042921887549,0.0042992292855,0.0043062698161,0.0043133103467,0.0043203508773,0.0043273914079,0.0043344319385
avgStream-9-20180107-13:55:10-8230,9,SmallCompany.server2.udpApp[0],endToEndDelay:histogram,,,,,,,,counters,0,0,0,0,0,0,0,0,71600,0,0,7160,7160,7160,7160,14320,7160,7160,0,7160,0,0,0,7160,0,0,0,0,0,0,0,0
