
**** SCALARS ****
run,repetition,Module,rcvdPk:count,rcvdPk:sum(packetBytes)
maxStream-4-20180107-13:56:06-8318,4,SmallCompany.server1.udpApp[0],980920,980920000
maxStream-4-20180107-13:56:06-8318,4,SmallCompany.server2.udpApp[0],594280,594280000
maxStream-3-20180107-13:56:06-8320,3,SmallCompany.server1.udpApp[0],952280,952280000
maxStream-3-20180107-13:56:06-8320,3,SmallCompany.server2.udpApp[0],594280,594280000
maxStream-7-20180107-14:07:41-8518,7,SmallCompany.server1.udpApp[0],980920,980920000
maxStream-7-20180107-14:07:41-8518,7,SmallCompany.server2.udpApp[0],594280,594280000
maxStream-1-20180107-13:56:06-8316,1,SmallCompany.server1.udpApp[0],959440,959440000
maxStream-1-20180107-13:56:06-8316,1,SmallCompany.server2.udpApp[0],601440,601440000
maxStream-8-20180107-14:07:58-8533,8,SmallCompany.server1.udpApp[0],980920,980920000
maxStream-8-20180107-14:07:58-8533,8,SmallCompany.server2.udpApp[0],608600,608600000
maxStream-2-20180107-13:56:06-8317,2,SmallCompany.server1.udpApp[0],980920,980920000
maxStream-2-20180107-13:56:06-8317,2,SmallCompany.server2.udpApp[0],601440,601440000
maxStream-5-20180107-13:56:06-8321,5,SmallCompany.server1.udpApp[0],1009560,1009560000
maxStream-5-20180107-13:56:06-8321,5,SmallCompany.server2.udpApp[0],594280,594280000
maxStream-0-20180107-13:56:06-8319,0,SmallCompany.server1.udpApp[0],1009560,1009560000
maxStream-0-20180107-13:56:06-8319,0,SmallCompany.server2.udpApp[0],594280,594280000
maxStream-6-20180107-14:06:09-8487,6,SmallCompany.server1.udpApp[0],952280,952280000
maxStream-6-20180107-14:06:09-8487,6,SmallCompany.server2.udpApp[0],587120,587120000
maxStream-9-20180107-14:08:32-8549,9,SmallCompany.server1.udpApp[0],1009560,1009560000
maxStream-9-20180107-14:08:32-8549,9,SmallCompany.server2.udpApp[0],608600,608600000

**** HISTOGRAMS ****
run,repetition,module,name,count,sumweights,mean,stddev,min,max,rowtype,data...
maxStream-4-20180107-13:56:06-8318,4,SmallCompany.server1.udpApp[0],endToEndDelay:histogram,980920,,0.010541738891149,0.0024713309283848,0.005314751105,0.013562779989,bins,-Inf,0.0011983577785,0.0017472102220333,0.0022960626655667,0.0028449151091,0.0033937675526333,0.0039426199961667,0.0044914724397,0.0050403248832333,0.0055891773267667,0.0061380297703,0.0066868822138333,0.0072357346573667,0.0077845871009,0.0083334395444333,0.0088822919879667,0.0094311444315,0.0099799968750333,0.010528849318567,0.0110777017621,0.011626554205633,0.012175406649167,0.0127242590927,0.013273111536233,0.013821963979767,0.0143708164233,0.014919668866833,0.015468521310367,0.0160173737539,0.016566226197433,0.017115078640967,0.0176639310845
maxStream-4-20180107-13:56:06-8318,4,SmallCompany.server1.udpApp[0],endToEndDelay:histogram,,,,,,,,counters,0,0,0,0,0,0,0,0,21480,21480,57280,28640,64440,35800,42960,50120,71600,57280,42960,57280,78760,78760,128880,143200,0,0,0,0,0,0,0,0
maxStream-4-20180107-13:56:06-8318,4,SmallCompany.server2.udpApp[0],endToEndDelay:histogram,594280,,0.0088164417230368,0.0027657619251089,0.00417602,0.012445172934,bins,-Inf,4.1443532999999e-05,0.00059272039526667,0.0011439972575333,0.0016952741198,0.0022465509820667,0.0027978278443333,0.0033491047066,0.0039003815688667,0.0044516584311333,0.0050029352934,0.0055542121556667,0.0061054890179333,0.0066567658802,0.0072080427424667,0.0077593196047333,0.008310596467,0.0088618733292667,0.0094131501915333,0.0099644270538,0.010515703916067,0.011066980778333,0.0116182576406,0.012169534502867,0.012720811365133,0.0132720882274,0.013823365089667,0.014374641951933,0.0149259188142,0.015477195676467,0.016028472538733,0.016579749401
maxStream-4-20180107-13:56:06-8318,4,SmallCompany.server2.udpApp[0],endToEndDelay:histogram,,,,,,,,counters,0,0,0,0,0,0,0,0,21480,28640,57280,35800,42960,28640,28640,21480,21480,21480,28640,28640,21480,64440,93080,50120,0,0,0,0,0,0,0,0
maxStream-3-20180107-13:56:06-8320,3,SmallCompany.server1.udpApp[0],endToEndDelay:histogram,952280,,0.010635432871465,0.0025357748456248,0.005338465196,0.013567080841,bins,-Inf,0.0012472089755,0.0017927098049,0.0023382106343,0.0028837114637,0.0034292122931,0.0039747131225,0.0045202139519,0.0050657147813,0.0056112156107,0.0061567164401,0.0067022172695,0.0072477180989,0.0077932189283,0.0083387197577,0.0088842205871,0.0094297214165,0.0099752222459,0.0105207230753,0.0110662239047,0.0116117247341,0.0121572255635,0.0127027263929,0.0132482272223,0.0137937280517,0.0143392288811,0.0148847297105,0.0154302305399,0.0159757313693,0.0165212321987,0.0170667330281,0.0176122338575
maxStream-3-20180107-13:56:06-8320,3,SmallCompany.server1.udpApp[0],endToEndDelay:histogram,,,,,,,,counters,0,0,0,0,0,0,0,0,28640,42960,28640,35800,50120,28640,42960,50120,50120,42960,35800,57280,85920,85920,114560,171840,0,0,0,0,0,0,0,0
maxStream-3-20180107-13:56:06-8320,3,SmallCompany.server2.udpApp[0],endToEndDelay:histogram,594280,,0.0095405756509024,0.0028045218518948,0.00417602,0.012488235783,bins,-Inf,1.9912108500001e-05,0.00057405982736667,0.0011282075462333,0.0016823552651,0.0022365029839667,0.0027906507028333,0.0033447984217,0.0038989461405667,0.0044530938594333,0.0050072415783,0.0055613892971667,0.0061155370160333,0.0066696847349,0.0072238324537667,0.0077779801726333,0.0083321278915,0.0088862756103667,0.0094404233292333,0.0099945710481,0.010548718766967,0.011102866485833,0.0116570142047,0.012211161923567,0.012765309642433,0.0133194573613,0.013873605080167,0.014427752799033,0.0149819005179,0.015536048236767,0.016090195955633,0.0166443436745
maxStream-3-20180107-13:56:06-8320,3,SmallCompany.server2.udpApp[0],endToEndDelay:histogram,,,,,,,,counters,0,0,0,0,0,0,0,0,28640,14320,28640,35800,28640,28640,21480,14320,14320,21480,50120,14320,42960,21480,71600,157520,0,0,0,0,0,0,0,0
maxStream-7-20180107-14:07:41-8518,7,SmallCompany.server1.udpApp[0],endToEndDelay:histogram,980920,,0.010229989490513,0.0025713123516931,0.00525882,0.013544628095,bins,-Inf,0.0011159159525,0.0016683031588333,0.0022206903651667,0.0027730775715,0.0033254647778333,0.0038778519841667,0.0044302391905,0.0049826263968333,0.0055350136031667,0.0060874008095,0.0066397880158333,0.0071921752221667,0.0077445624285,0.0082969496348333,0.0088493368411667,0.0094017240475,0.0099541112538333,0.010506498460167,0.0110588856665,0.011611272872833,0.012163660079167,0.0127160472855,0.013268434491833,0.013820821698167,0.0143732089045,0.014925596110833,0.015477983317167,0.0160303705235,0.016582757729833,0.017135144936167,0.0176875321425
maxStream-7-20180107-14:07:41-8518,7,SmallCompany.server1.udpApp[0],endToEndDelay:histogram,,,,,,,,counters,0,0,0,0,0,0,0,0,35800,42960,50120,50120,35800,35800,57280,57280,64440,42960,64440,78760,64440,57280,121720,121720,0,0,0,0,0,0,0,0
maxStream-7-20180107-14:07:41-8518,7,SmallCompany.server2.udpApp[0],endToEndDelay:histogram,594280,,0.0096501795590191,0.0025223889726798,0.004325846315,0.012579332862,bins,-Inf,0.0001991030415,0.00074933547796667,0.0012995679144333,0.0018498003509,0.0024000327873667,0.0029502652238333,0.0035004976603,0.0040507300967667,0.0046009625332333,0.0051511949697,0.0057014274061667,0.0062516598426333,0.0068018922791,0.0073521247155667,0.0079023571520333,0.0084525895885,0.0090028220249667,0.0095530544614333,0.0101032868979,0.010653519334367,0.011203751770833,0.0117539842073,0.012304216643767,0.012854449080233,0.0134046815167,0.013954913953167,0.014505146389633,0.0150553788261,0.015605611262567,0.016155843699033,0.0167060761355
maxStream-7-20180107-14:07:41-8518,7,SmallCompany.server2.udpApp[0],endToEndDelay:histogram,,,,,,,,counters,0,0,0,0,0,0,0,0,21480,14320,21480,21480,28640,35800,28640,42960,7160,35800,21480,21480,57280,57280,85920,93080,0,0,0,0,0,0,0,0
maxStream-1-20180107-13:56:06-8316,1,SmallCompany.server1.udpApp[0],endToEndDelay:histogram,959440,,0.010310357102913,0.0025595701020926,0.00525882,0.013572091,bins,-Inf,0.001119517938,0.0016714248796,0.0022233318212,0.0027752387628,0.0033271457044,0.003879052646,0.0044309595876,0.0049828665292,0.0055347734708,0.0060866804124,0.006638587354,0.0071904942956,0.0077424012372,0.0082943081788,0.0088462151204,0.009398122062,0.0099500290036,0.0105019359452,0.0110538428868,0.0116057498284,0.01215765677,0.0127095637116,0.0132614706532,0.0138133775948,0.0143652845364,0.014917191478,0.0154690984196,0.0160210053612,0.0165729123028,0.0171248192444,0.017676726186
maxStream-1-20180107-13:56:06-8316,1,SmallCompany.server1.udpApp[0],endToEndDelay:histogram,,,,,,,,counters,0,0,0,0,0,0,0,0,28640,42960,42960,50120,35800,42960,64440,35800,42960,78760,57280,71600,50120,93080,42960,179000,0,0,0,0,0,0,0,0
maxStream-1-20180107-13:56:06-8316,1,SmallCompany.server2.udpApp[0],endToEndDelay:histogram,601440,,0.0097872286216703,0.0024274499691343,0.004396162196,0.012451544539,bins,-Inf,0.0003684710245,0.00090549651403333,0.0014425220035667,0.0019795474931,0.0025165729826333,0.0030535984721667,0.0035906239617,0.0041276494512333,0.0046646749407667,0.0052017004303,0.0057387259198333,0.0062757514093667,0.0068127768989,0.0073498023884333,0.0078868278779667,0.0084238533675,0.0089608788570333,0.0094979043465667,0.0100349298361,0.010571955325633,0.011108980815167,0.0116460063047,0.012183031794233,0.012720057283767,0.0132570827733,0.013794108262833,0.014331133752367,0.0148681592419,0.015405184731433,0.015942210220967,0.0164792357105
maxStream-1-20180107-13:56:06-8316,1,SmallCompany.server2.udpApp[0],endToEndDelay:histogram,,,,,,,,counters,0,0,0,0,0,0,0,0,14320,14320,14320,21480,35800,21480,28640,35800,42960,28640,28640,28640,14320,64440,64440,143200,0,0,0,0,0,0,0,0
maxStream-8-20180107-14:07:58-8533,8,SmallCompany.server1.udpApp[0],endToEndDelay:histogram,980920,,0.0099779511788763,0.002510027783917,0.005411539818,0.013537512313,bins,-Inf,0.0018117360385,0.0022917098757667,0.0027716837130333,0.0032516575503,0.0037316313875667,0.0042116052248333,0.0046915790621,0.0051715528993667,0.0056515267366333,0.0061315005739,0.0066114744111667,0.0070914482484333,0.0075714220857,0.0080513959229667,0.0085313697602333,0.0090113435975,0.0094913174347667,0.0099712912720333,0.0104512651093,0.010931238946567,0.011411212783833,0.0118911866211,0.012371160458367,0.012851134295633,0.0133311081329,0.013811081970167,0.014291055807433,0.0147710296447,0.015251003481967,0.015730977319233,0.0162109511565
maxStream-8-20180107-14:07:58-8533,8,SmallCompany.server1.udpApp[0],endToEndDelay:histogram,,,,,,,,counters,0,0,0,0,0,0,0,0,28640,35800,57280,42960,42960,64440,50120,50120,71600,57280,57280,42960,50120,35800,28640,57280,93080,114560,0,0,0,0,0,0
maxStream-8-20180107-14:07:58-8533,8,SmallCompany.server2.udpApp[0],endToEndDelay:histogram,608600,,0.0097685293943464,0.0027545766339893,0.00417602,0.012500457334,bins,-Inf,1.3801333000002e-05,0.00056876382193333,0.0011237263108667,0.0016786887998,0.0022336512887333,0.0027886137776667,0.0033435762666,0.0038985387555333,0.0044535012444667,0.0050084637334,0.0055634262223333,0.0061183887112667,0.0066733512002,0.0072283136891333,0.0077832761780667,0.008338238667,0.0088932011559333,0.0094481636448667,0.0100031261338,0.010558088622733,0.011113051111667,0.0116680136006,0.012222976089533,0.012777938578467,0.0133329010674,0.013887863556333,0.014442826045267,0.0149977885342,0.015552751023133,0.016107713512067,0.016662676001
maxStream-8-20180107-14:07:58-8533,8,SmallCompany.server2.udpApp[0],endToEndDelay:histogram,,,,,,,,counters,0,0,0,0,0,0,0,0,35800,21480,14320,35800,14320,7160,28640,28640,21480,21480,35800,28640,21480,28640,114560,150360,0,0,0,0,0,0,0,0
maxStream-2-20180107-13:56:06-8317,2,SmallCompany.server1.udpApp[0],endToEndDelay:histogram,980920,,0.010708396907755,0.0025613608211701,0.005341280885,0.013536536633,bins,-Inf,0.001243653011,0.0017900033942,0.0023363537774,0.0028827041606,0.0034290545438,0.003975404927,0.0045217553102,0.0050681056934,0.0056144560766,0.0061608064598,0.006707156843,0.0072535072262,0.0077998576094,0.0083462079926,0.0088925583758,0.009438908759,0.0099852591422,0.0105316095254,0.0110779599086,0.0116243102918,0.012170660675,0.0127170110582,0.0132633614414,0.0138097118246,0.0143560622078,0.014902412591,0.0154487629742,0.0159951133574,0.0165414637406,0.0170878141238,0.017634164507
maxStream-2-20180107-13:56:06-8317,2,SmallCompany.server1.udpApp[0],endToEndDelay:histogram,,,,,,,,counters,0,0,0,0,0,0,0,0,28640,28640,50120,28640,50120,35800,57280,35800,35800,57280,57280,57280,28640,85920,200480,143200,0,0,0,0,0,0,0,0
maxStream-2-20180107-13:56:06-8317,2,SmallCompany.server2.udpApp[0],endToEndDelay:histogram,601440,,0.0094840963541096,0.0026489098288679,0.00417602,0.012507842429,bins,-Inf,1.0108785499998e-05,0.0005655636141,0.0011210184427,0.0016764732713,0.0022319280999,0.0027873829285,0.0033428377571,0.0038982925857,0.0044537474143,0.0050092022429,0.0055646570715,0.0061201119001,0.0066755667287,0.0072310215573,0.0077864763859,0.0083419312145,0.0088973860431,0.0094528408717,0.0100082957003,0.0105637505289,0.0111192053575,0.0116746601861,0.0122301150147,0.0127855698433,0.0133410246719,0.0138964795005,0.0144519343291,0.0150073891577,0.0155628439863,0.0161182988149,0.0166737536435
maxStream-2-20180107-13:56:06-8317,2,SmallCompany.server2.udpApp[0],endToEndDelay:histogram,,,,,,,,counters,0,0,0,0,0,0,0,0,28640,28640,14320,28640,21480,28640,21480,28640,21480,28640,21480,42960,42960,71600,100240,71600,0,0,0,0,0,0,0,0
maxStream-5-20180107-13:56:06-8321,5,SmallCompany.server1.udpApp[0],endToEndDelay:histogram,1009560,,0.010537694404783,0.0025470167358333,0.005337174634,0.013538470705,bins,-Inf,0.001390859127,0.0019170345279333,0.0024432099288667,0.0029693853298,0.0034955607307333,0.0040217361316667,0.0045479115326,0.0050740869335333,0.0056002623344667,0.0061264377354,0.0066526131363333,0.0071787885372667,0.0077049639382,0.0082311393391333,0.0087573147400667,0.009283490141,0.0098096655419333,0.010335840942867,0.0108620163438,0.011388191744733,0.011914367145667,0.0124405425466,0.012966717947533,0.013492893348467,0.0140190687494,0.014545244150333,0.015071419551267,0.0155975949522,0.016123770353133,0.016649945754067,0.017176121155
maxStream-5-20180107-13:56:06-8321,5,SmallCompany.server1.udpApp[0],endToEndDelay:histogram,,,,,,,,counters,0,0,0,0,0,0,0,0,21480,35800,42960,28640,50120,57280,50120,71600,35800,35800,71600,42960,57280,64440,42960,243440,57280,0,0,0,0,0,0,0
maxStream-5-20180107-13:56:06-8321,5,SmallCompany.server2.udpApp[0],endToEndDelay:histogram,594280,,0.0093844356414963,0.0027804843431791,0.00417602,0.012484495448,bins,-Inf,2.1782275999999e-05,0.0005756806392,0.0011295790024,0.0016834773656,0.0022373757288,0.002791274092,0.0033451724552,0.0038990708184,0.0044529691816,0.0050068675448,0.005560765908,0.0061146642712,0.0066685626344,0.0072224609976,0.0077763593608,0.008330257724,0.0088841560872,0.0094380544504,0.0099919528136,0.0105458511768,0.01109974954,0.0116536479032,0.0122075462664,0.0127614446296,0.0133153429928,0.013869241356,0.0144231397192,0.0149770380824,0.0155309364456,0.0160848348088,0.016638733172
maxStream-5-20180107-13:56:06-8321,5,SmallCompany.server2.udpApp[0],endToEndDelay:histogram,,,,,,,,counters,0,0,0,0,0,0,0,0,14320,28640,28640,42960,21480,28640,42960,28640,21480,21480,14320,28640,28640,21480,64440,157520,0,0,0,0,0,0,0,0
maxStream-0-20180107-13:56:06-8319,0,SmallCompany.server1.udpApp[0],endToEndDelay:histogram,1009560,,0.0099786814635693,0.0026245455698728,0.00525882,0.013559757192,bins,-Inf,0.0013851020305,0.0019015977597667,0.0024180934890333,0.0029345892183,0.0034510849475667,0.0039675806768333,0.0044840764061,0.0050005721353667,0.0055170678646333,0.0060335635939,0.0065500593231667,0.0070665550524333,0.0075830507817,0.0080995465109667,0.0086160422402333,0.0091325379695,0.0096490336987667,0.010165529428033,0.0106820251573,0.011198520886567,0.011715016615833,0.0122315123451,0.012748008074367,0.013264503803633,0.0137809995329,0.014297495262167,0.014813990991433,0.0153304867207,0.015846982449967,0.016363478179233,0.0168799739085
maxStream-0-20180107-13:56:06-8319,0,SmallCompany.server1.udpApp[0],endToEndDelay:histogram,,,,,,,,counters,0,0,0,0,0,0,0,0,21480,42960,50120,71600,85920,28640,57280,42960,57280,50120,50120,64440,50120,28640,100240,42960,164680,0,0,0,0,0,0,0
maxStream-0-20180107-13:56:06-8319,0,SmallCompany.server2.udpApp[0],endToEndDelay:histogram,594280,,0.0096643938352946,0.002539725683957,0.00417602,0.012455871439,bins,-Inf,3.6094280499999e-05,0.00058808437643333,0.0011400744723667,0.0016920645683,0.0022440546642333,0.0027960447601667,0.0033480348561,0.0039000249520333,0.0044520150479667,0.0050040051439,0.0055559952398333,0.0061079853357667,0.0066599754317,0.0072119655276333,0.0077639556235667,0.0083159457195,0.0088679358154333,0.0094199259113667,0.0099719160073,0.010523906103233,0.011075896199167,0.0116278862951,0.012179876391033,0.012731866486967,0.0132838565829,0.013835846678833,0.014387836774767,0.0149398268707,0.015491816966633,0.016043807062567,0.0165957971585
maxStream-0-20180107-13:56:06-8319,0,SmallCompany.server2.udpApp[0],endToEndDelay:histogram,,,,,,,,counters,0,0,0,0,0,0,0,0,14320,28640,14320,14320,14320,35800,35800,28640,42960,28640,14320,35800,42960,28640,71600,143200,0,0,0,0,0,0,0,0
maxStream-6-20180107-14:06:09-8487,6,SmallCompany.server1.udpApp[0],endToEndDelay:histogram,952280,,0.010351183406909,0.0026795221612363,0.005308513151,0.013583387508,bins,-Inf,0.0011861282945,0.0017357796087,0.0022854309229,0.0028350822371,0.0033847335513,0.0039343848655,0.0044840361797,0.0050336874939,0.0055833388081,0.0061329901223,0.0066826414365,0.0072322927507,0.0077819440649,0.0083315953791,0.0088812466933,0.0094308980075,0.0099805493217,0.0105302006359,0.0110798519501,0.0116295032643,0.0121791545785,0.0127288058927,0.0132784572069,0.0138281085211,0.0143777598353,0.0149274111495,0.0154770624637,0.0160267137779,0.0165763650921,0.0171260164063,0.0176756677205
maxStream-6-20180107-14:06:09-8487,6,SmallCompany.server1.udpApp[0],endToEndDelay:histogram,,,,,,,,counters,0,0,0,0,0,0,0,0,28640,50120,42960,64440,42960,35800,57280,35800,35800,50120,42960,64440,64440,50120,107400,179000,0,0,0,0,0,0,0,0
maxStream-6-20180107-14:06:09-8487,6,SmallCompany.server2.udpApp[0],endToEndDelay:histogram,587120,,0.0097192752483285,0.0025237167323882,0.00417602,0.012525445877,bins,-Inf,1.3070614999985e-06,0.0005579354533,0.0011145638451,0.0016711922369,0.0022278206287,0.0027844490205,0.0033410774123,0.0038977058041,0.0044543341959,0.0050109625877,0.0055675909795,0.0061242193713,0.0066808477631,0.0072374761549,0.0077941045467,0.0083507329385,0.0089073613303,0.0094639897221,0.0100206181139,0.0105772465057,0.0111338748975,0.0116905032893,0.0122471316811,0.0128037600729,0.0133603884647,0.0139170168565,0.0144736452483,0.0150302736401,0.0155869020319,0.0161435304237,0.0167001588155
maxStream-6-20180107-14:06:09-8487,6,SmallCompany.server2.udpApp[0],endToEndDelay:histogram,,,,,,,,counters,0,0,0,0,0,0,0,0,14320,28640,7160,21480,28640,21480,42960,14320,21480,28640,21480,50120,57280,57280,42960,128880,0,0,0,0,0,0,0,0
maxStream-9-20180107-14:08:32-8549,9,SmallCompany.server1.udpApp[0],endToEndDelay:histogram,1009560,,0.010666787813103,0.0026905290756842,0.005311419816,0.013613944481,bins,-Inf,0.0011643400855,0.0017172840495667,0.0022702280136333,0.0028231719777,0.0033761159417667,0.0039290599058333,0.0044820038699,0.0050349478339667,0.0055878917980333,0.0061408357621,0.0066937797261667,0.0072467236902333,0.0077996676543,0.0083526116183667,0.0089055555824333,0.0094584995465,0.010011443510567,0.010564387474633,0.0111173314387,0.011670275402767,0.012223219366833,0.0127761633309,0.013329107294967,0.013882051259033,0.0144349952231,0.014987939187167,0.015540883151233,0.0160938271153,0.016646771079367,0.017199715043433,0.0177526590075
maxStream-9-20180107-14:08:32-8549,9,SmallCompany.server1.udpApp[0],endToEndDelay:histogram,,,,,,,,counters,0,0,0,0,0,0,0,0,28640,42960,50120,50120,35800,42960,50120,42960,35800,50120,42960,50120,50120,85920,114560,236280,0,0,0,0,0,0,0,0
maxStream-9-20180107-14:08:32-8549,9,SmallCompany.server2.udpApp[0],endToEndDelay:histogram,608600,,0.0093313461495228,0.0028242876583398,0.00417602,0.012538849772,bins,-Inf,-5.3948860000014e-06,0.0005521270988,0.0011096490836,0.0016671710684,0.0022246930532,0.002782215038,0.0033397370228,0.0038972590076,0.0044547809924,0.0050123029772,0.005569824962,0.0061273469468,0.0066848689316,0.0072423909164,0.0077999129012,0.008357434886,0.0089149568708,0.0094724788556,0.0100300008404,0.0105875228252,0.01114504481,0.0117025667948,0.0122600887796,0.0128176107644,0.0133751327492,0.013932654734,0.0144901767188,0.0150476987036,0.0156052206884,0.0161627426732,0.016720264658
maxStream-9-20180107-14:08:32-8549,9,SmallCompany.server2.udpApp[0],endToEndDelay:histogram,,,,,,,,counters,0,0,0,0,0,0,0,0,42960,21480,35800,21480,28640,14320,28640,14320,35800,21480,28640,35800,50120,28640,85920,114560,0,0,0,0,0,0,0,0
