
**** SCALARS ****
run,repetition,Module,dropPk:count,dropPk:sum(packetBytes),queueLength:max,queueLength:timeavg,rcvdPk:count,rcvdPk:sum(packetBytes)
maxStream-4-20180108-08:21:28-12613,4,SmallCompany.router1.ppp[0].queue,0,0,2,0.00039678731529898,1718400,1766515200
maxStream-4-20180108-08:21:28-12613,4,SmallCompany.router2.ppp[0].queue,0,0,NaN,NaN,0,0
maxStream-4-20180108-08:21:28-12613,4,SmallCompany.router2.ppp[1].queue,0,0,NaN,NaN,1718400,1766515200
maxStream-4-20180108-08:21:28-12613,4,SmallCompany.router4.ppp[0].queue,0,0,8,0.035790511698253,644400,662443200
maxStream-4-20180108-08:21:28-12613,4,SmallCompany.router4.ppp[1].queue,0,0,NaN,NaN,0,0
maxStream-4-20180108-08:21:28-12613,4,SmallCompany.router4.ppp[2].queue,0,0,47,0.64995040899526,1074000,1104072000
maxStream-4-20180108-08:21:28-12613,4,SmallCompany.router5.ppp[0].queue,0,0,NaN,NaN,1074000,1104072000
maxStream-4-20180108-08:21:28-12613,4,SmallCompany.router5.ppp[1].queue,0,0,NaN,NaN,0,0
maxStream-3-20180108-08:21:28-12612,3,SmallCompany.router1.ppp[0].queue,0,0,3,0.00058352839496652,1718400,1766515200
maxStream-3-20180108-08:21:28-12612,3,SmallCompany.router2.ppp[0].queue,0,0,NaN,NaN,0,0
maxStream-3-20180108-08:21:28-12612,3,SmallCompany.router2.ppp[1].queue,0,0,NaN,NaN,1718400,1766515200
maxStream-3-20180108-08:21:28-12612,3,SmallCompany.router4.ppp[0].queue,0,0,14,0.095348742385992,644400,662443200
maxStream-3-20180108-08:21:28-12612,3,SmallCompany.router4.ppp[1].queue,0,0,NaN,NaN,0,0
maxStream-3-20180108-08:21:28-12612,3,SmallCompany.router4.ppp[2].queue,0,0,54,0.75388503507124,1074000,1104072000
maxStream-3-20180108-08:21:28-12612,3,SmallCompany.router5.ppp[0].queue,0,0,NaN,NaN,1074000,1104072000
maxStream-3-20180108-08:21:28-12612,3,SmallCompany.router5.ppp[1].queue,0,0,NaN,NaN,0,0
maxStream-7-20180108-08:32:58-13273,7,SmallCompany.router1.ppp[0].queue,0,0,2,0.00043623368787374,1718400,1766515200
maxStream-7-20180108-08:32:58-13273,7,SmallCompany.router2.ppp[0].queue,0,0,NaN,NaN,0,0
maxStream-7-20180108-08:32:58-13273,7,SmallCompany.router2.ppp[1].queue,0,0,NaN,NaN,1718400,1766515200
maxStream-7-20180108-08:32:58-13273,7,SmallCompany.router4.ppp[0].queue,0,0,10,0.056460461183688,644400,662443200
maxStream-7-20180108-08:32:58-13273,7,SmallCompany.router4.ppp[1].queue,0,0,NaN,NaN,0,0
maxStream-7-20180108-08:32:58-13273,7,SmallCompany.router4.ppp[2].queue,0,0,53,0.67473203421006,1074000,1104072000
maxStream-7-20180108-08:32:58-13273,7,SmallCompany.router5.ppp[0].queue,0,0,NaN,NaN,1074000,1104072000
maxStream-7-20180108-08:32:58-13273,7,SmallCompany.router5.ppp[1].queue,0,0,NaN,NaN,0,0
maxStream-1-20180108-08:21:28-12609,1,SmallCompany.router1.ppp[0].queue,0,0,2,0.00037055470360223,1718400,1766515200
maxStream-1-20180108-08:21:28-12609,1,SmallCompany.router2.ppp[0].queue,0,0,NaN,NaN,0,0
maxStream-1-20180108-08:21:28-12609,1,SmallCompany.router2.ppp[1].queue,0,0,NaN,NaN,1718400,1766515200
maxStream-1-20180108-08:21:28-12609,1,SmallCompany.router4.ppp[0].queue,0,0,10,0.061898619121558,644400,662443200
maxStream-1-20180108-08:21:28-12609,1,SmallCompany.router4.ppp[1].queue,0,0,NaN,NaN,0,0
maxStream-1-20180108-08:21:28-12609,1,SmallCompany.router4.ppp[2].queue,0,0,46,0.66520960044544,1074000,1104072000
maxStream-1-20180108-08:21:28-12609,1,SmallCompany.router5.ppp[0].queue,0,0,NaN,NaN,1074000,1104072000
maxStream-1-20180108-08:21:28-12609,1,SmallCompany.router5.ppp[1].queue,0,0,NaN,NaN,0,0
maxStream-8-20180108-08:33:15-13317,8,SmallCompany.router1.ppp[0].queue,0,0,2,0.00040089749575176,1718400,1766515200
maxStream-8-20180108-08:33:15-13317,8,SmallCompany.router2.ppp[0].queue,0,0,NaN,NaN,0,0
maxStream-8-20180108-08:33:15-13317,8,SmallCompany.router2.ppp[1].queue,0,0,NaN,NaN,1718400,1766515200
maxStream-8-20180108-08:33:15-13317,8,SmallCompany.router4.ppp[0].queue,0,0,7,0.022120374383482,644400,662443200
maxStream-8-20180108-08:33:15-13317,8,SmallCompany.router4.ppp[1].queue,0,0,NaN,NaN,0,0
maxStream-8-20180108-08:33:15-13317,8,SmallCompany.router4.ppp[2].queue,0,0,42,0.65026739975607,1074000,1104072000
maxStream-8-20180108-08:33:15-13317,8,SmallCompany.router5.ppp[0].queue,0,0,NaN,NaN,1074000,1104072000
maxStream-8-20180108-08:33:15-13317,8,SmallCompany.router5.ppp[1].queue,0,0,NaN,NaN,0,0
maxStream-2-20180108-08:21:28-12608,2,SmallCompany.router1.ppp[0].queue,0,0,2,0.00052697661618776,1718400,1766515200
maxStream-2-20180108-08:21:28-12608,2,SmallCompany.router2.ppp[0].queue,0,0,NaN,NaN,0,0
maxStream-2-20180108-08:21:28-12608,2,SmallCompany.router2.ppp[1].queue,0,0,NaN,NaN,1718400,1766515200
maxStream-2-20180108-08:21:28-12608,2,SmallCompany.router4.ppp[0].queue,0,0,14,0.087853715512828,644400,662443200
maxStream-2-20180108-08:21:28-12608,2,SmallCompany.router4.ppp[1].queue,0,0,NaN,NaN,0,0
maxStream-2-20180108-08:21:28-12608,2,SmallCompany.router4.ppp[2].queue,0,0,50,0.66156051916476,1074000,1104072000
maxStream-2-20180108-08:21:28-12608,2,SmallCompany.router5.ppp[0].queue,0,0,NaN,NaN,1074000,1104072000
maxStream-2-20180108-08:21:28-12608,2,SmallCompany.router5.ppp[1].queue,0,0,NaN,NaN,0,0
maxStream-5-20180108-08:21:28-12611,5,SmallCompany.router1.ppp[0].queue,0,0,3,0.00049255411479591,1718400,1766515200
maxStream-5-20180108-08:21:28-12611,5,SmallCompany.router2.ppp[0].queue,0,0,NaN,NaN,0,0
maxStream-5-20180108-08:21:28-12611,5,SmallCompany.router2.ppp[1].queue,0,0,NaN,NaN,1718400,1766515200
maxStream-5-20180108-08:21:28-12611,5,SmallCompany.router4.ppp[0].queue,0,0,7,0.021585669243135,644400,662443200
maxStream-5-20180108-08:21:28-12611,5,SmallCompany.router4.ppp[1].queue,0,0,NaN,NaN,0,0
maxStream-5-20180108-08:21:28-12611,5,SmallCompany.router4.ppp[2].queue,0,0,41,0.60298420764399,1074000,1104072000
maxStream-5-20180108-08:21:28-12611,5,SmallCompany.router5.ppp[0].queue,0,0,NaN,NaN,1074000,1104072000
maxStream-5-20180108-08:21:28-12611,5,SmallCompany.router5.ppp[1].queue,0,0,NaN,NaN,0,0
maxStream-0-20180108-08:21:28-12610,0,SmallCompany.router1.ppp[0].queue,0,0,2,0.00044854498387871,1718400,1766515200
maxStream-0-20180108-08:21:28-12610,0,SmallCompany.router2.ppp[0].queue,0,0,NaN,NaN,0,0
maxStream-0-20180108-08:21:28-12610,0,SmallCompany.router2.ppp[1].queue,0,0,NaN,NaN,1718400,1766515200
maxStream-0-20180108-08:21:28-12610,0,SmallCompany.router4.ppp[0].queue,0,0,7,0.034921699780486,644400,662443200
maxStream-0-20180108-08:21:28-12610,0,SmallCompany.router4.ppp[1].queue,0,0,NaN,NaN,0,0
maxStream-0-20180108-08:21:28-12610,0,SmallCompany.router4.ppp[2].queue,0,0,36,0.41632011765171,1074000,1104072000
maxStream-0-20180108-08:21:28-12610,0,SmallCompany.router5.ppp[0].queue,0,0,NaN,NaN,1074000,1104072000
maxStream-0-20180108-08:21:28-12610,0,SmallCompany.router5.ppp[1].queue,0,0,NaN,NaN,0,0
maxStream-6-20180108-08:32:04-13225,6,SmallCompany.router1.ppp[0].queue,0,0,1,0.00041401130724649,1718400,1766515200
maxStream-6-20180108-08:32:04-13225,6,SmallCompany.router2.ppp[0].queue,0,0,NaN,NaN,0,0
maxStream-6-20180108-08:32:04-13225,6,SmallCompany.router2.ppp[1].queue,0,0,NaN,NaN,1718400,1766515200
maxStream-6-20180108-08:32:04-13225,6,SmallCompany.router4.ppp[0].queue,0,0,14,0.058941844188242,644400,662443200
maxStream-6-20180108-08:32:04-13225,6,SmallCompany.router4.ppp[1].queue,0,0,NaN,NaN,0,0
maxStream-6-20180108-08:32:04-13225,6,SmallCompany.router4.ppp[2].queue,0,0,44,0.63589624417824,1074000,1104072000
maxStream-6-20180108-08:32:04-13225,6,SmallCompany.router5.ppp[0].queue,0,0,NaN,NaN,1074000,1104072000
maxStream-6-20180108-08:32:04-13225,6,SmallCompany.router5.ppp[1].queue,0,0,NaN,NaN,0,0
maxStream-9-20180108-08:33:35-13329,9,SmallCompany.router1.ppp[0].queue,0,0,3,0.00045321593761308,1718400,1766515200
maxStream-9-20180108-08:33:35-13329,9,SmallCompany.router2.ppp[0].queue,0,0,NaN,NaN,0,0
maxStream-9-20180108-08:33:35-13329,9,SmallCompany.router2.ppp[1].queue,0,0,NaN,NaN,1718400,1766515200
maxStream-9-20180108-08:33:35-13329,9,SmallCompany.router4.ppp[0].queue,0,0,7,0.021419600259059,644400,662443200
maxStream-9-20180108-08:33:35-13329,9,SmallCompany.router4.ppp[1].queue,0,0,NaN,NaN,0,0
maxStream-9-20180108-08:33:35-13329,9,SmallCompany.router4.ppp[2].queue,0,0,55,0.69713272074533,1074000,1104072000
maxStream-9-20180108-08:33:35-13329,9,SmallCompany.router5.ppp[0].queue,0,0,NaN,NaN,1074000,1104072000
maxStream-9-20180108-08:33:35-13329,9,SmallCompany.router5.ppp[1].queue,0,0,NaN,NaN,0,0

**** HISTOGRAMS ****
run,repetition,module,name,count,sumweights,mean,stddev,min,max,rowtype,data...
maxStream-4-20180108-08:21:28-12613,4,SmallCompany.router1.ppp[0].queue,queueingTime:histogram,1718400,,8.2663995416597e-07,2.3421176672768e-06,0,1.2174338e-05,bins,-Inf,-6.063907e-06,-5.2553860666667e-06,-4.4468651333333e-06,-3.6383442e-06,-2.8298232666667e-06,-2.0213023333333e-06,-1.2127814e-06,-4.0426046666667e-07,4.0426046666667e-07,1.2127814e-06,2.0213023333333e-06,2.8298232666667e-06,3.6383442e-06,4.4468651333333e-06,5.2553860666667e-06,6.063907e-06,6.8724279333333e-06,7.6809488666667e-06,8.4894698e-06,9.2979907333333e-06,1.0106511666667e-05,1.09150326e-05,1.1723553533333e-05,1.2532074466667e-05,1.33405954e-05,1.4149116333333e-05,1.4957637266667e-05,1.57661582e-05,1.6574679133333e-05,1.7383200066667e-05,1.8191721e-05
maxStream-4-20180108-08:21:28-12613,4,SmallCompany.router1.ppp[0].queue,queueingTime:histogram,,,,,,,,counters,0,0,0,0,0,0,0,0,1474960,28640,0,7160,28640,21480,21480,28640,14320,35800,28640,0,0,0,14320,14320,0,0,0,0,0,0,0,0
maxStream-4-20180108-08:21:28-12613,4,SmallCompany.router2.ppp[0].queue,queueingTime:histogram,0,,NaN,NaN,NaN,NaN,bins,-Inf,-0.5,-0.46666666666667,-0.43333333333333,-0.4,-0.36666666666667,-0.33333333333333,-0.3,-0.26666666666667,-0.23333333333333,-0.2,-0.16666666666667,-0.13333333333333,-0.1,-0.066666666666667,-0.033333333333333,-6.9388939039072e-18,0.033333333333333,0.066666666666667,0.1,0.13333333333333,0.16666666666667,0.2,0.23333333333333,0.26666666666667,0.3,0.33333333333333,0.36666666666667,0.4,0.43333333333333,0.46666666666667,0.5
maxStream-4-20180108-08:21:28-12613,4,SmallCompany.router2.ppp[0].queue,queueingTime:histogram,,,,,,,,counters,0,0,0,0,0,0,0,0,0,0,0,0,0,0,0,0,0,0,0,0,0,0,0,0,0,0,0,0,0,0,0,0
maxStream-4-20180108-08:21:28-12613,4,SmallCompany.router2.ppp[1].queue,queueingTime:histogram,1718400,,0,0,0,0,bins,-Inf,-0.5,-0.46666666666667,-0.43333333333333,-0.4,-0.36666666666667,-0.33333333333333,-0.3,-0.26666666666667,-0.23333333333333,-0.2,-0.16666666666667,-0.13333333333333,-0.1,-0.066666666666667,-0.033333333333333,-6.9388939039072e-18,0.033333333333333,0.066666666666667,0.1,0.13333333333333,0.16666666666667,0.2,0.23333333333333,0.26666666666667,0.3,0.33333333333333,0.36666666666667,0.4,0.43333333333333,0.46666666666667,0.5
maxStream-4-20180108-08:21:28-12613,4,SmallCompany.router2.ppp[1].queue,queueingTime:histogram,,,,,,,,counters,0,0,0,0,0,0,0,0,0,0,0,0,0,0,0,0,1718400,0,0,0,0,0,0,0,0,0,0,0,0,0,0,0
maxStream-4-20180108-08:21:28-12613,4,SmallCompany.router4.ppp[0].queue,queueingTime:histogram,644400,,0.00019883610893321,0.0001893029995892,0,0.000652143963,bins,-Inf,-0.0003260719815,-0.0002825957173,-0.0002391194531,-0.0001956431889,-0.0001521669247,-0.0001086906605,-6.52143963e-05,-2.17381321e-05,2.17381321e-05,6.52143963e-05,0.0001086906605,0.0001521669247,0.0001956431889,0.0002391194531,0.0002825957173,0.0003260719815,0.0003695482457,0.0004130245099,0.0004565007741,0.0004999770383,0.0005434533025,0.0005869295667,0.0006304058309,0.0006738820951,0.0007173583593,0.0007608346235,0.0008043108877,0.0008477871519,0.0008912634161,0.0009347396803,0.0009782159445
maxStream-4-20180108-08:21:28-12613,4,SmallCompany.router4.ppp[0].queue,queueingTime:histogram,,,,,,,,counters,0,0,0,0,0,0,0,0,200480,28640,21480,64440,57280,21480,21480,35800,50120,28640,21480,50120,7160,21480,7160,7160,0,0,0,0,0,0,0,0
maxStream-4-20180108-08:21:28-12613,4,SmallCompany.router4.ppp[1].queue,queueingTime:histogram,0,,NaN,NaN,NaN,NaN,bins,-Inf,-0.5,-0.46666666666667,-0.43333333333333,-0.4,-0.36666666666667,-0.33333333333333,-0.3,-0.26666666666667,-0.23333333333333,-0.2,-0.16666666666667,-0.13333333333333,-0.1,-0.066666666666667,-0.033333333333333,-6.9388939039072e-18,0.033333333333333,0.066666666666667,0.1,0.13333333333333,0.16666666666667,0.2,0.23333333333333,0.26666666666667,0.3,0.33333333333333,0.36666666666667,0.4,0.43333333333333,0.46666666666667,0.5
maxStream-4-20180108-08:21:28-12613,4,SmallCompany.router4.ppp[1].queue,queueingTime:histogram,,,,,,,,counters,0,0,0,0,0,0,0,0,0,0,0,0,0,0,0,0,0,0,0,0,0,0,0,0,0,0,0,0,0,0,0,0
maxStream-4-20180108-08:21:28-12613,4,SmallCompany.router4.ppp[2].queue,queueingTime:histogram,1074000,,0.0021665005858157,0.0011183118806614,0,0.003828878475,bins,-Inf,-0.0018497751745,-0.0016031384845667,-0.0013565017946333,-0.0011098651047,-0.00086322841476667,-0.00061659172483333,-0.0003699550349,-0.00012331834496667,0.00012331834496667,0.0003699550349,0.00061659172483333,0.00086322841476667,0.0011098651047,0.0013565017946333,0.0016031384845667,0.0018497751745,0.0020964118644333,0.0023430485543667,0.0025896852443,0.0028363219342333,0.0030829586241667,0.0033295953141,0.0035762320040333,0.0038228686939667,0.0040695053839,0.0043161420738333,0.0045627787637667,0.0048094154537,0.0050560521436333,0.0053026888335667,0.0055493255235
maxStream-4-20180108-08:21:28-12613,4,SmallCompany.router4.ppp[2].queue,queueingTime:histogram,,,,,,,,counters,0,0,0,0,0,0,0,0,35800,28640,100240,35800,42960,50120,64440,42960,78760,50120,71600,93080,93080,93080,78760,107400,7160,0,0,0,0,0,0,0
maxStream-4-20180108-08:21:28-12613,4,SmallCompany.router5.ppp[0].queue,queueingTime:histogram,1074000,,0,0,0,0,bins,-Inf,-0.5,-0.46666666666667,-0.43333333333333,-0.4,-0.36666666666667,-0.33333333333333,-0.3,-0.26666666666667,-0.23333333333333,-0.2,-0.16666666666667,-0.13333333333333,-0.1,-0.066666666666667,-0.033333333333333,-6.9388939039072e-18,0.033333333333333,0.066666666666667,0.1,0.13333333333333,0.16666666666667,0.2,0.23333333333333,0.26666666666667,0.3,0.33333333333333,0.36666666666667,0.4,0.43333333333333,0.46666666666667,0.5
maxStream-4-20180108-08:21:28-12613,4,SmallCompany.router5.ppp[0].queue,queueingTime:histogram,,,,,,,,counters,0,0,0,0,0,0,0,0,0,0,0,0,0,0,0,0,1074000,0,0,0,0,0,0,0,0,0,0,0,0,0,0,0
maxStream-4-20180108-08:21:28-12613,4,SmallCompany.router5.ppp[1].queue,queueingTime:histogram,0,,NaN,NaN,NaN,NaN,bins,-Inf,-0.5,-0.46666666666667,-0.43333333333333,-0.4,-0.36666666666667,-0.33333333333333,-0.3,-0.26666666666667,-0.23333333333333,-0.2,-0.16666666666667,-0.13333333333333,-0.1,-0.066666666666667,-0.033333333333333,-6.9388939039072e-18,0.033333333333333,0.066666666666667,0.1,0.13333333333333,0.16666666666667,0.2,0.23333333333333,0.26666666666667,0.3,0.33333333333333,0.36666666666667,0.4,0.43333333333333,0.46666666666667,0.5
maxStream-4-20180108-08:21:28-12613,4,SmallCompany.router5.ppp[1].queue,queueingTime:histogram,,,,,,,,counters,0,0,0,0,0,0,0,0,0,0,0,0,0,0,0,0,0,0,0,0,0,0,0,0,0,0,0,0,0,0,0,0
maxStream-3-20180108-08:21:28-12612,3,SmallCompany.router1.ppp[0].queue,queueingTime:histogram,1718400,,1.2156838291678e-06,2.9257732882411e-06,0,2.0006644e-05,bins,-Inf,-7.4102565e-06,-6.4222223e-06,-5.4341881e-06,-4.4461539e-06,-3.4581197e-06,-2.4700855e-06,-1.4820513e-06,-4.940171e-07,4.940171e-07,1.4820513e-06,2.4700855e-06,3.4581197e-06,4.4461539e-06,5.4341881e-06,6.4222223e-06,7.4102565e-06,8.3982907e-06,9.3863249e-06,1.03743591e-05,1.13623933e-05,1.23504275e-05,1.33384617e-05,1.43264959e-05,1.53145301e-05,1.63025643e-05,1.72905985e-05,1.82786327e-05,1.92666669e-05,2.02547011e-05,2.12427353e-05,2.22307695e-05
maxStream-3-20180108-08:21:28-12612,3,SmallCompany.router1.ppp[0].queue,queueingTime:histogram,,,,,,,,counters,0,0,0,0,0,0,0,0,1317440,35800,107400,14320,64440,21480,35800,28640,35800,7160,14320,0,7160,7160,0,14320,0,0,0,0,7160,0,0,0
maxStream-3-20180108-08:21:28-12612,3,SmallCompany.router2.ppp[0].queue,queueingTime:histogram,0,,NaN,NaN,NaN,NaN,bins,-Inf,-0.5,-0.46666666666667,-0.43333333333333,-0.4,-0.36666666666667,-0.33333333333333,-0.3,-0.26666666666667,-0.23333333333333,-0.2,-0.16666666666667,-0.13333333333333,-0.1,-0.066666666666667,-0.033333333333333,-6.9388939039072e-18,0.033333333333333,0.066666666666667,0.1,0.13333333333333,0.16666666666667,0.2,0.23333333333333,0.26666666666667,0.3,0.33333333333333,0.36666666666667,0.4,0.43333333333333,0.46666666666667,0.5
maxStream-3-20180108-08:21:28-12612,3,SmallCompany.router2.ppp[0].queue,queueingTime:histogram,,,,,,,,counters,0,0,0,0,0,0,0,0,0,0,0,0,0,0,0,0,0,0,0,0,0,0,0,0,0,0,0,0,0,0,0,0
maxStream-3-20180108-08:21:28-12612,3,SmallCompany.router2.ppp[1].queue,queueingTime:histogram,1718400,,0,0,0,0,bins,-Inf,-0.5,-0.46666666666667,-0.43333333333333,-0.4,-0.36666666666667,-0.33333333333333,-0.3,-0.26666666666667,-0.23333333333333,-0.2,-0.16666666666667,-0.13333333333333,-0.1,-0.066666666666667,-0.033333333333333,-6.9388939039072e-18,0.033333333333333,0.066666666666667,0.1,0.13333333333333,0.16666666666667,0.2,0.23333333333333,0.26666666666667,0.3,0.33333333333333,0.36666666666667,0.4,0.43333333333333,0.46666666666667,0.5
maxStream-3-20180108-08:21:28-12612,3,SmallCompany.router2.ppp[1].queue,queueingTime:histogram,,,,,,,,counters,0,0,0,0,0,0,0,0,0,0,0,0,0,0,0,0,1718400,0,0,0,0,0,0,0,0,0,0,0,0,0,0,0
maxStream-3-20180108-08:21:28-12612,3,SmallCompany.router4.ppp[0].queue,queueingTime:histogram,644400,,0.00052971502172259,0.00036835883078294,0,0.001083335944,bins,-Inf,-0.000541667972,-0.00046944557573333,-0.00039722317946667,-0.0003250007832,-0.00025277838693333,-0.00018055599066667,-0.0001083335944,-3.6111198133333e-05,3.6111198133333e-05,0.0001083335944,0.00018055599066667,0.00025277838693333,0.0003250007832,0.00039722317946667,0.00046944557573333,0.000541667972,0.00061389036826667,0.00068611276453333,0.0007583351608,0.00083055755706667,0.00090277995333333,0.0009750023496,0.0010472247458667,0.0011194471421333,0.0011916695384,0.0012638919346667,0.0013361143309333,0.0014083367272,0.0014805591234667,0.0015527815197333,0.001625003916
maxStream-3-20180108-08:21:28-12612,3,SmallCompany.router4.ppp[0].queue,queueingTime:histogram,,,,,,,,counters,0,0,0,0,0,0,0,0,114560,35800,28640,35800,7160,21480,21480,35800,21480,35800,64440,28640,64440,71600,35800,21480,0,0,0,0,0,0,0,0
maxStream-3-20180108-08:21:28-12612,3,SmallCompany.router4.ppp[1].queue,queueingTime:histogram,0,,NaN,NaN,NaN,NaN,bins,-Inf,-0.5,-0.46666666666667,-0.43333333333333,-0.4,-0.36666666666667,-0.33333333333333,-0.3,-0.26666666666667,-0.23333333333333,-0.2,-0.16666666666667,-0.13333333333333,-0.1,-0.066666666666667,-0.033333333333333,-6.9388939039072e-18,0.033333333333333,0.066666666666667,0.1,0.13333333333333,0.16666666666667,0.2,0.23333333333333,0.26666666666667,0.3,0.33333333333333,0.36666666666667,0.4,0.43333333333333,0.46666666666667,0.5
maxStream-3-20180108-08:21:28-12612,3,SmallCompany.router4.ppp[1].queue,queueingTime:histogram,,,,,,,,counters,0,0,0,0,0,0,0,0,0,0,0,0,0,0,0,0,0,0,0,0,0,0,0,0,0,0,0,0,0,0,0,0
maxStream-3-20180108-08:21:28-12612,3,SmallCompany.router4.ppp[2].queue,queueingTime:histogram,1074000,,0.0025129492853285,0.0012766396935915,0,0.004439937584,bins,-Inf,-0.00206847341,-0.0017926769553333,-0.0015168805006667,-0.001241084046,-0.00096528759133333,-0.00068949113666667,-0.000413694682,-0.00013789822733333,0.00013789822733333,0.000413694682,0.00068949113666667,0.00096528759133333,0.001241084046,0.0015168805006667,0.0017926769553333,0.00206847341,0.0023442698646667,0.0026200663193333,0.002895862774,0.0031716592286667,0.0034474556833333,0.003723252138,0.0039990485926667,0.0042748450473333,0.004550641502,0.0048264379566667,0.0051022344113333,0.005378030866,0.0056538273206667,0.0059296237753333,0.00620542023
maxStream-3-20180108-08:21:28-12612,3,SmallCompany.router4.ppp[2].queue,queueingTime:histogram,,,,,,,,counters,0,0,0,0,0,0,0,0,21480,50120,50120,78760,42960,35800,57280,57280,50120,71600,93080,71600,64440,57280,93080,157520,21480,0,0,0,0,0,0,0
maxStream-3-20180108-08:21:28-12612,3,SmallCompany.router5.ppp[0].queue,queueingTime:histogram,1074000,,0,0,0,0,bins,-Inf,-0.5,-0.46666666666667,-0.43333333333333,-0.4,-0.36666666666667,-0.33333333333333,-0.3,-0.26666666666667,-0.23333333333333,-0.2,-0.16666666666667,-0.13333333333333,-0.1,-0.066666666666667,-0.033333333333333,-6.9388939039072e-18,0.033333333333333,0.066666666666667,0.1,0.13333333333333,0.16666666666667,0.2,0.23333333333333,0.26666666666667,0.3,0.33333333333333,0.36666666666667,0.4,0.43333333333333,0.46666666666667,0.5
maxStream-3-20180108-08:21:28-12612,3,SmallCompany.router5.ppp[0].queue,queueingTime:histogram,,,,,,,,counters,0,0,0,0,0,0,0,0,0,0,0,0,0,0,0,0,1074000,0,0,0,0,0,0,0,0,0,0,0,0,0,0,0
maxStream-3-20180108-08:21:28-12612,3,SmallCompany.router5.ppp[1].queue,queueingTime:histogram,0,,NaN,NaN,NaN,NaN,bins,-Inf,-0.5,-0.46666666666667,-0.43333333333333,-0.4,-0.36666666666667,-0.33333333333333,-0.3,-0.26666666666667,-0.23333333333333,-0.2,-0.16666666666667,-0.13333333333333,-0.1,-0.066666666666667,-0.033333333333333,-6.9388939039072e-18,0.033333333333333,0.066666666666667,0.1,0.13333333333333,0.16666666666667,0.2,0.23333333333333,0.26666666666667,0.3,0.33333333333333,0.36666666666667,0.4,0.43333333333333,0.46666666666667,0.5
maxStream-3-20180108-08:21:28-12612,3,SmallCompany.router5.ppp[1].queue,queueingTime:histogram,,,,,,,,counters,0,0,0,0,0,0,0,0,0,0,0,0,0,0,0,0,0,0,0,0,0,0,0,0,0,0,0,0,0,0,0,0
maxStream-7-20180108-08:32:58-13273,7,SmallCompany.router1.ppp[0].queue,queueingTime:histogram,1718400,,9.0881994583246e-07,2.4625121509748e-06,0,1.3745372e-05,bins,-Inf,-6.872686e-06,-5.9563278666667e-06,-5.0399697333333e-06,-4.1236116e-06,-3.2072534666667e-06,-2.2908953333333e-06,-1.3745372e-06,-4.5817906666667e-07,4.5817906666667e-07,1.3745372e-06,2.2908953333333e-06,3.2072534666667e-06,4.1236116e-06,5.0399697333333e-06,5.9563278666667e-06,6.872686e-06,7.7890441333333e-06,8.7054022666667e-06,9.6217604e-06,1.0538118533333e-05,1.1454476666667e-05,1.23708348e-05,1.3287192933333e-05,1.4203551066667e-05,1.51199092e-05,1.6036267333333e-05,1.6952625466667e-05,1.78689836e-05,1.8785341733333e-05,1.9701699866667e-05,2.0618058e-05
maxStream-7-20180108-08:32:58-13273,7,SmallCompany.router1.ppp[0].queue,queueingTime:histogram,,,,,,,,counters,0,0,0,0,0,0,0,0,1439160,35800,21480,28640,14320,21480,7160,42960,42960,21480,14320,14320,0,0,7160,7160,0,0,0,0,0,0,0,0
maxStream-7-20180108-08:32:58-13273,7,SmallCompany.router2.ppp[0].queue,queueingTime:histogram,0,,NaN,NaN,NaN,NaN,bins,-Inf,-0.5,-0.46666666666667,-0.43333333333333,-0.4,-0.36666666666667,-0.33333333333333,-0.3,-0.26666666666667,-0.23333333333333,-0.2,-0.16666666666667,-0.13333333333333,-0.1,-0.066666666666667,-0.033333333333333,-6.9388939039072e-18,0.033333333333333,0.066666666666667,0.1,0.13333333333333,0.16666666666667,0.2,0.23333333333333,0.26666666666667,0.3,0.33333333333333,0.36666666666667,0.4,0.43333333333333,0.46666666666667,0.5
maxStream-7-20180108-08:32:58-13273,7,SmallCompany.router2.ppp[0].queue,queueingTime:histogram,,,,,,,,counters,0,0,0,0,0,0,0,0,0,0,0,0,0,0,0,0,0,0,0,0,0,0,0,0,0,0,0,0,0,0,0,0
maxStream-7-20180108-08:32:58-13273,7,SmallCompany.router2.ppp[1].queue,queueingTime:histogram,1718400,,0,0,0,0,bins,-Inf,-0.5,-0.46666666666667,-0.43333333333333,-0.4,-0.36666666666667,-0.33333333333333,-0.3,-0.26666666666667,-0.23333333333333,-0.2,-0.16666666666667,-0.13333333333333,-0.1,-0.066666666666667,-0.033333333333333,-6.9388939039072e-18,0.033333333333333,0.066666666666667,0.1,0.13333333333333,0.16666666666667,0.2,0.23333333333333,0.26666666666667,0.3,0.33333333333333,0.36666666666667,0.4,0.43333333333333,0.46666666666667,0.5
maxStream-7-20180108-08:32:58-13273,7,SmallCompany.router2.ppp[1].queue,queueingTime:histogram,,,,,,,,counters,0,0,0,0,0,0,0,0,0,0,0,0,0,0,0,0,1718400,0,0,0,0,0,0,0,0,0,0,0,0,0,0,0
maxStream-7-20180108-08:32:58-13273,7,SmallCompany.router4.ppp[0].queue,queueingTime:histogram,644400,,0.00031366911798909,0.00024574394454867,0,0.000757086784,bins,-Inf,-0.000378543392,-0.00032807093973333,-0.00027759848746667,-0.0002271260352,-0.00017665358293333,-0.00012618113066667,-7.57086784e-05,-2.5236226133333e-05,2.5236226133333e-05,7.57086784e-05,0.00012618113066667,0.00017665358293333,0.0002271260352,0.00027759848746667,0.00032807093973333,0.000378543392,0.00042901584426667,0.00047948829653333,0.0005299607488,0.00058043320106667,0.00063090565333333,0.0006813781056,0.00073185055786667,0.00078232301013333,0.0008327954624,0.00088326791466667,0.00093374036693333,0.0009842128192,0.0010346852714667,0.0010851577237333,0.001135630176
maxStream-7-20180108-08:32:58-13273,7,SmallCompany.router4.ppp[0].queue,queueingTime:histogram,,,,,,,,counters,0,0,0,0,0,0,0,0,143200,28640,28640,0,42960,35800,42960,71600,64440,35800,21480,7160,14320,35800,50120,21480,0,0,0,0,0,0,0,0
maxStream-7-20180108-08:32:58-13273,7,SmallCompany.router4.ppp[1].queue,queueingTime:histogram,0,,NaN,NaN,NaN,NaN,bins,-Inf,-0.5,-0.46666666666667,-0.43333333333333,-0.4,-0.36666666666667,-0.33333333333333,-0.3,-0.26666666666667,-0.23333333333333,-0.2,-0.16666666666667,-0.13333333333333,-0.1,-0.066666666666667,-0.033333333333333,-6.9388939039072e-18,0.033333333333333,0.066666666666667,0.1,0.13333333333333,0.16666666666667,0.2,0.23333333333333,0.26666666666667,0.3,0.33333333333333,0.36666666666667,0.4,0.43333333333333,0.46666666666667,0.5
maxStream-7-20180108-08:32:58-13273,7,SmallCompany.router4.ppp[1].queue,queueingTime:histogram,,,,,,,,counters,0,0,0,0,0,0,0,0,0,0,0,0,0,0,0,0,0,0,0,0,0,0,0,0,0,0,0,0,0,0,0,0
maxStream-7-20180108-08:32:58-13273,7,SmallCompany.router4.ppp[2].queue,queueingTime:histogram,1074000,,0.0022491060532913,0.0011885181247038,0,0.004309620131,bins,-Inf,-0.001749190684,-0.0015159652594667,-0.0012827398349333,-0.0010495144104,-0.00081628898586667,-0.00058306356133333,-0.0003498381368,-0.00011661271226667,0.00011661271226667,0.0003498381368,0.00058306356133333,0.00081628898586667,0.0010495144104,0.0012827398349333,0.0015159652594667,0.001749190684,0.0019824161085333,0.0022156415330667,0.0024488669576,0.0026820923821333,0.0029153178066667,0.0031485432312,0.0033817686557333,0.0036149940802667,0.0038482195048,0.0040814449293333,0.0043146703538667,0.0045478957784,0.0047811212029333,0.0050143466274667,0.005247572052
maxStream-7-20180108-08:32:58-13273,7,SmallCompany.router4.ppp[2].queue,queueingTime:histogram,,,,,,,,counters,0,0,0,0,0,0,0,0,35800,35800,50120,42960,42960,28640,64440,100240,50120,71600,64440,57280,64440,85920,71600,28640,50120,85920,42960,0,0,0,0,0
maxStream-7-20180108-08:32:58-13273,7,SmallCompany.router5.ppp[0].queue,queueingTime:histogram,1074000,,0,0,0,0,bins,-Inf,-0.5,-0.46666666666667,-0.43333333333333,-0.4,-0.36666666666667,-0.33333333333333,-0.3,-0.26666666666667,-0.23333333333333,-0.2,-0.16666666666667,-0.13333333333333,-0.1,-0.066666666666667,-0.033333333333333,-6.9388939039072e-18,0.033333333333333,0.066666666666667,0.1,0.13333333333333,0.16666666666667,0.2,0.23333333333333,0.26666666666667,0.3,0.33333333333333,0.36666666666667,0.4,0.43333333333333,0.46666666666667,0.5
maxStream-7-20180108-08:32:58-13273,7,SmallCompany.router5.ppp[0].queue,queueingTime:histogram,,,,,,,,counters,0,0,0,0,0,0,0,0,0,0,0,0,0,0,0,0,1074000,0,0,0,0,0,0,0,0,0,0,0,0,0,0,0
maxStream-7-20180108-08:32:58-13273,7,SmallCompany.router5.ppp[1].queue,queueingTime:histogram,0,,NaN,NaN,NaN,NaN,bins,-Inf,-0.5,-0.46666666666667,-0.43333333333333,-0.4,-0.36666666666667,-0.33333333333333,-0.3,-0.26666666666667,-0.23333333333333,-0.2,-0.16666666666667,-0.13333333333333,-0.1,-0.066666666666667,-0.033333333333333,-6.9388939039072e-18,0.033333333333333,0.066666666666667,0.1,0.13333333333333,0.16666666666667,0.2,0.23333333333333,0.26666666666667,0.3,0.33333333333333,0.36666666666667,0.4,0.43333333333333,0.46666666666667,0.5
maxStream-7-20180108-08:32:58-13273,7,SmallCompany.router5.ppp[1].queue,queueingTime:histogram,,,,,,,,counters,0,0,0,0,0,0,0,0,0,0,0,0,0,0,0,0,0,0,0,0,0,0,0,0,0,0,0,0,0,0,0,0
maxStream-1-20180108-08:21:28-12609,1,SmallCompany.router1.ppp[0].queue,queueingTime:histogram,1718400,,7.7198875416702e-07,1.998041272748e-06,0,1.1644188e-05,bins,-Inf,-5.822094e-06,-5.0458148e-06,-4.2695356e-06,-3.4932564e-06,-2.7169772e-06,-1.940698e-06,-1.1644188e-06,-3.881396e-07,3.881396e-07,1.1644188e-06,1.940698e-06,2.7169772e-06,3.4932564e-06,4.2695356e-06,5.0458148e-06,5.822094e-06,6.5983732e-06,7.3746524e-06,8.1509316e-06,8.9272108e-06,9.70349e-06,1.04797692e-05,1.12560484e-05,1.20323276e-05,1.28086068e-05,1.3584886e-05,1.43611652e-05,1.51374444e-05,1.59137236e-05,1.66900028e-05,1.7466282e-05
maxStream-1-20180108-08:21:28-12609,1,SmallCompany.router1.ppp[0].queue,queueingTime:histogram,,,,,,,,counters,0,0,0,0,0,0,0,0,1432000,7160,35800,28640,42960,21480,42960,28640,21480,21480,0,14320,14320,0,0,7160,0,0,0,0,0,0,0,0
maxStream-1-20180108-08:21:28-12609,1,SmallCompany.router2.ppp[0].queue,queueingTime:histogram,0,,NaN,NaN,NaN,NaN,bins,-Inf,-0.5,-0.46666666666667,-0.43333333333333,-0.4,-0.36666666666667,-0.33333333333333,-0.3,-0.26666666666667,-0.23333333333333,-0.2,-0.16666666666667,-0.13333333333333,-0.1,-0.066666666666667,-0.033333333333333,-6.9388939039072e-18,0.033333333333333,0.066666666666667,0.1,0.13333333333333,0.16666666666667,0.2,0.23333333333333,0.26666666666667,0.3,0.33333333333333,0.36666666666667,0.4,0.43333333333333,0.46666666666667,0.5
maxStream-1-20180108-08:21:28-12609,1,SmallCompany.router2.ppp[0].queue,queueingTime:histogram,,,,,,,,counters,0,0,0,0,0,0,0,0,0,0,0,0,0,0,0,0,0,0,0,0,0,0,0,0,0,0,0,0,0,0,0,0
maxStream-1-20180108-08:21:28-12609,1,SmallCompany.router2.ppp[1].queue,queueingTime:histogram,1718400,,0,0,0,0,bins,-Inf,-0.5,-0.46666666666667,-0.43333333333333,-0.4,-0.36666666666667,-0.33333333333333,-0.3,-0.26666666666667,-0.23333333333333,-0.2,-0.16666666666667,-0.13333333333333,-0.1,-0.066666666666667,-0.033333333333333,-6.9388939039072e-18,0.033333333333333,0.066666666666667,0.1,0.13333333333333,0.16666666666667,0.2,0.23333333333333,0.26666666666667,0.3,0.33333333333333,0.36666666666667,0.4,0.43333333333333,0.46666666666667,0.5
maxStream-1-20180108-08:21:28-12609,1,SmallCompany.router2.ppp[1].queue,queueingTime:histogram,,,,,,,,counters,0,0,0,0,0,0,0,0,0,0,0,0,0,0,0,0,1718400,0,0,0,0,0,0,0,0,0,0,0,0,0,0,0
maxStream-1-20180108-08:21:28-12609,1,SmallCompany.router4.ppp[0].queue,queueingTime:histogram,644400,,0.00034388109153285,0.00029111643247387,0,0.000810842485,bins,-Inf,-0.0004054212425,-0.00035136507683333,-0.00029730891116667,-0.0002432527455,-0.00018919657983333,-0.00013514041416667,-8.10842485e-05,-2.7028082833333e-05,2.7028082833333e-05,8.10842485e-05,0.00013514041416667,0.00018919657983333,0.0002432527455,0.00029730891116667,0.00035136507683333,0.0004054212425,0.00045947740816667,0.00051353357383333,0.0005675897395,0.00062164590516667,0.00067570207083333,0.0007297582365,0.00078381440216667,0.00083787056783333,0.0008919267335,0.00094598289916667,0.0010000390648333,0.0010540952305,0.0011081513961667,0.0011622075618333,0.0012162637275
maxStream-1-20180108-08:21:28-12609,1,SmallCompany.router4.ppp[0].queue,queueingTime:histogram,,,,,,,,counters,0,0,0,0,0,0,0,0,171840,71600,14320,7160,14320,7160,14320,14320,21480,50120,57280,64440,57280,28640,21480,28640,0,0,0,0,0,0,0,0
maxStream-1-20180108-08:21:28-12609,1,SmallCompany.router4.ppp[1].queue,queueingTime:histogram,0,,NaN,NaN,NaN,NaN,bins,-Inf,-0.5,-0.46666666666667,-0.43333333333333,-0.4,-0.36666666666667,-0.33333333333333,-0.3,-0.26666666666667,-0.23333333333333,-0.2,-0.16666666666667,-0.13333333333333,-0.1,-0.066666666666667,-0.033333333333333,-6.9388939039072e-18,0.033333333333333,0.066666666666667,0.1,0.13333333333333,0.16666666666667,0.2,0.23333333333333,0.26666666666667,0.3,0.33333333333333,0.36666666666667,0.4,0.43333333333333,0.46666666666667,0.5
maxStream-1-20180108-08:21:28-12609,1,SmallCompany.router4.ppp[1].queue,queueingTime:histogram,,,,,,,,counters,0,0,0,0,0,0,0,0,0,0,0,0,0,0,0,0,0,0,0,0,0,0,0,0,0,0,0,0,0,0,0,0
maxStream-1-20180108-08:21:28-12609,1,SmallCompany.router4.ppp[2].queue,queueingTime:histogram,1074000,,0.0022173645885442,0.0011561104030986,0,0.00373299667,bins,-Inf,-0.0017066175205,-0.0014790685177667,-0.0012515195150333,-0.0010239705123,-0.00079642150956667,-0.00056887250683333,-0.0003413235041,-0.00011377450136667,0.00011377450136667,0.0003413235041,0.00056887250683333,0.00079642150956667,0.0010239705123,0.0012515195150333,0.0014790685177667,0.0017066175205,0.0019341665232333,0.0021617155259667,0.0023892645287,0.0026168135314333,0.0028443625341667,0.0030719115369,0.0032994605396333,0.0035270095423667,0.0037545585451,0.0039821075478333,0.0042096565505667,0.0044372055533,0.0046647545560333,0.0048923035587667,0.0051198525615
maxStream-1-20180108-08:21:28-12609,1,SmallCompany.router4.ppp[2].queue,queueingTime:histogram,,,,,,,,counters,0,0,0,0,0,0,0,0,42960,57280,35800,35800,57280,35800,21480,71600,57280,42960,57280,57280,128880,50120,64440,78760,179000,0,0,0,0,0,0,0
maxStream-1-20180108-08:21:28-12609,1,SmallCompany.router5.ppp[0].queue,queueingTime:histogram,1074000,,0,0,0,0,bins,-Inf,-0.5,-0.46666666666667,-0.43333333333333,-0.4,-0.36666666666667,-0.33333333333333,-0.3,-0.26666666666667,-0.23333333333333,-0.2,-0.16666666666667,-0.13333333333333,-0.1,-0.066666666666667,-0.033333333333333,-6.9388939039072e-18,0.033333333333333,0.066666666666667,0.1,0.13333333333333,0.16666666666667,0.2,0.23333333333333,0.26666666666667,0.3,0.33333333333333,0.36666666666667,0.4,0.43333333333333,0.46666666666667,0.5
maxStream-1-20180108-08:21:28-12609,1,SmallCompany.router5.ppp[0].queue,queueingTime:histogram,,,,,,,,counters,0,0,0,0,0,0,0,0,0,0,0,0,0,0,0,0,1074000,0,0,0,0,0,0,0,0,0,0,0,0,0,0,0
maxStream-1-20180108-08:21:28-12609,1,SmallCompany.router5.ppp[1].queue,queueingTime:histogram,0,,NaN,NaN,NaN,NaN,bins,-Inf,-0.5,-0.46666666666667,-0.43333333333333,-0.4,-0.36666666666667,-0.33333333333333,-0.3,-0.26666666666667,-0.23333333333333,-0.2,-0.16666666666667,-0.13333333333333,-0.1,-0.066666666666667,-0.033333333333333,-6.9388939039072e-18,0.033333333333333,0.066666666666667,0.1,0.13333333333333,0.16666666666667,0.2,0.23333333333333,0.26666666666667,0.3,0.33333333333333,0.36666666666667,0.4,0.43333333333333,0.46666666666667,0.5
maxStream-1-20180108-08:21:28-12609,1,SmallCompany.router5.ppp[1].queue,queueingTime:histogram,,,,,,,,counters,0,0,0,0,0,0,0,0,0,0,0,0,0,0,0,0,0,0,0,0,0,0,0,0,0,0,0,0,0,0,0,0
maxStream-8-20180108-08:33:15-13317,8,SmallCompany.router1.ppp[0].queue,queueingTime:histogram,1718400,,8.3520289583293e-07,2.0457307333933e-06,0,8.806294e-06,bins,-Inf,-4.1242135e-06,-3.5743183666667e-06,-3.0244232333333e-06,-2.4745281e-06,-1.9246329666667e-06,-1.3747378333333e-06,-8.248427e-07,-2.7494756666667e-07,2.7494756666667e-07,8.248427e-07,1.3747378333333e-06,1.9246329666667e-06,2.4745281e-06,3.0244232333333e-06,3.5743183666667e-06,4.1242135e-06,4.6741086333333e-06,5.2240037666667e-06,5.7738989e-06,6.3237940333333e-06,6.8736891666667e-06,7.4235843e-06,7.9734794333333e-06,8.5233745666667e-06,9.0732697e-06,9.6231648333333e-06,1.0173059966667e-05,1.07229551e-05,1.1272850233333e-05,1.1822745366667e-05,1.23726405e-05
maxStream-8-20180108-08:33:15-13317,8,SmallCompany.router1.ppp[0].queue,queueingTime:histogram,,,,,,,,counters,0,0,0,0,0,0,0,0,1396200,14320,35800,21480,14320,7160,50120,14320,21480,7160,14320,28640,28640,7160,35800,14320,7160,0,0,0,0,0,0,0
maxStream-8-20180108-08:33:15-13317,8,SmallCompany.router2.ppp[0].queue,queueingTime:histogram,0,,NaN,NaN,NaN,NaN,bins,-Inf,-0.5,-0.46666666666667,-0.43333333333333,-0.4,-0.36666666666667,-0.33333333333333,-0.3,-0.26666666666667,-0.23333333333333,-0.2,-0.16666666666667,-0.13333333333333,-0.1,-0.066666666666667,-0.033333333333333,-6.9388939039072e-18,0.033333333333333,0.066666666666667,0.1,0.13333333333333,0.16666666666667,0.2,0.23333333333333,0.26666666666667,0.3,0.33333333333333,0.36666666666667,0.4,0.43333333333333,0.46666666666667,0.5
maxStream-8-20180108-08:33:15-13317,8,SmallCompany.router2.ppp[0].queue,queueingTime:histogram,,,,,,,,counters,0,0,0,0,0,0,0,0,0,0,0,0,0,0,0,0,0,0,0,0,0,0,0,0,0,0,0,0,0,0,0,0
maxStream-8-20180108-08:33:15-13317,8,SmallCompany.router2.ppp[1].queue,queueingTime:histogram,1718400,,0,0,0,0,bins,-Inf,-0.5,-0.46666666666667,-0.43333333333333,-0.4,-0.36666666666667,-0.33333333333333,-0.3,-0.26666666666667,-0.23333333333333,-0.2,-0.16666666666667,-0.13333333333333,-0.1,-0.066666666666667,-0.033333333333333,-6.9388939039072e-18,0.033333333333333,0.066666666666667,0.1,0.13333333333333,0.16666666666667,0.2,0.23333333333333,0.26666666666667,0.3,0.33333333333333,0.36666666666667,0.4,0.43333333333333,0.46666666666667,0.5
maxStream-8-20180108-08:33:15-13317,8,SmallCompany.router2.ppp[1].queue,queueingTime:histogram,,,,,,,,counters,0,0,0,0,0,0,0,0,0,0,0,0,0,0,0,0,1718400,0,0,0,0,0,0,0,0,0,0,0,0,0,0,0
maxStream-8-20180108-08:33:15-13317,8,SmallCompany.router4.ppp[0].queue,queueingTime:histogram,644400,,0.00012289091642235,0.00013967132572371,0,0.000531213675,bins,-Inf,-0.0002656068375,-0.0002301925925,-0.0001947783475,-0.0001593641025,-0.0001239498575,-8.85356125e-05,-5.31213675e-05,-1.77071225e-05,1.77071225e-05,5.31213675e-05,8.85356125e-05,0.0001239498575,0.0001593641025,0.0001947783475,0.0002301925925,0.0002656068375,0.0003010210825,0.0003364353275,0.0003718495725,0.0004072638175,0.0004426780625,0.0004780923075,0.0005135065525,0.0005489207975,0.0005843350425,0.0006197492875,0.0006551635325,0.0006905777775,0.0007259920225,0.0007614062675,0.0007968205125
maxStream-8-20180108-08:33:15-13317,8,SmallCompany.router4.ppp[0].queue,queueingTime:histogram,,,,,,,,counters,0,0,0,0,0,0,0,0,207640,50120,100240,35800,64440,35800,35800,7160,14320,14320,14320,28640,0,21480,0,14320,0,0,0,0,0,0,0,0
maxStream-8-20180108-08:33:15-13317,8,SmallCompany.router4.ppp[1].queue,queueingTime:histogram,0,,NaN,NaN,NaN,NaN,bins,-Inf,-0.5,-0.46666666666667,-0.43333333333333,-0.4,-0.36666666666667,-0.33333333333333,-0.3,-0.26666666666667,-0.23333333333333,-0.2,-0.16666666666667,-0.13333333333333,-0.1,-0.066666666666667,-0.033333333333333,-6.9388939039072e-18,0.033333333333333,0.066666666666667,0.1,0.13333333333333,0.16666666666667,0.2,0.23333333333333,0.26666666666667,0.3,0.33333333333333,0.36666666666667,0.4,0.43333333333333,0.46666666666667,0.5
maxStream-8-20180108-08:33:15-13317,8,SmallCompany.router4.ppp[1].queue,queueingTime:histogram,,,,,,,,counters,0,0,0,0,0,0,0,0,0,0,0,0,0,0,0,0,0,0,0,0,0,0,0,0,0,0,0,0,0,0,0,0
maxStream-8-20180108-08:33:15-13317,8,SmallCompany.router4.ppp[2].queue,queueingTime:histogram,1074000,,0.0021675572345698,0.00099639983574612,0,0.00342239759,bins,-Inf,-0.001711198795,-0.0014830389556667,-0.0012548791163333,-0.001026719277,-0.00079855943766667,-0.00057039959833333,-0.000342239759,-0.00011407991966667,0.00011407991966667,0.000342239759,0.00057039959833333,0.00079855943766667,0.001026719277,0.0012548791163333,0.0014830389556667,0.001711198795,0.0019393586343333,0.0021675184736667,0.002395678313,0.0026238381523333,0.0028519979916667,0.003080157831,0.0033083176703333,0.0035364775096667,0.003764637349,0.0039927971883333,0.0042209570276667,0.004449116867,0.0046772767063333,0.0049054365456667,0.005133596385
maxStream-8-20180108-08:33:15-13317,8,SmallCompany.router4.ppp[2].queue,queueingTime:histogram,,,,,,,,counters,0,0,0,0,0,0,0,0,28640,35800,50120,42960,42960,28640,28640,50120,78760,78760,85920,64440,93080,100240,214800,50120,0,0,0,0,0,0,0,0
maxStream-8-20180108-08:33:15-13317,8,SmallCompany.router5.ppp[0].queue,queueingTime:histogram,1074000,,0,0,0,0,bins,-Inf,-0.5,-0.46666666666667,-0.43333333333333,-0.4,-0.36666666666667,-0.33333333333333,-0.3,-0.26666666666667,-0.23333333333333,-0.2,-0.16666666666667,-0.13333333333333,-0.1,-0.066666666666667,-0.033333333333333,-6.9388939039072e-18,0.033333333333333,0.066666666666667,0.1,0.13333333333333,0.16666666666667,0.2,0.23333333333333,0.26666666666667,0.3,0.33333333333333,0.36666666666667,0.4,0.43333333333333,0.46666666666667,0.5
maxStream-8-20180108-08:33:15-13317,8,SmallCompany.router5.ppp[0].queue,queueingTime:histogram,,,,,,,,counters,0,0,0,0,0,0,0,0,0,0,0,0,0,0,0,0,1074000,0,0,0,0,0,0,0,0,0,0,0,0,0,0,0
maxStream-8-20180108-08:33:15-13317,8,SmallCompany.router5.ppp[1].queue,queueingTime:histogram,0,,NaN,NaN,NaN,NaN,bins,-Inf,-0.5,-0.46666666666667,-0.43333333333333,-0.4,-0.36666666666667,-0.33333333333333,-0.3,-0.26666666666667,-0.23333333333333,-0.2,-0.16666666666667,-0.13333333333333,-0.1,-0.066666666666667,-0.033333333333333,-6.9388939039072e-18,0.033333333333333,0.066666666666667,0.1,0.13333333333333,0.16666666666667,0.2,0.23333333333333,0.26666666666667,0.3,0.33333333333333,0.36666666666667,0.4,0.43333333333333,0.46666666666667,0.5
maxStream-8-20180108-08:33:15-13317,8,SmallCompany.router5.ppp[1].queue,queueingTime:histogram,,,,,,,,counters,0,0,0,0,0,0,0,0,0,0,0,0,0,0,0,0,0,0,0,0,0,0,0,0,0,0,0,0,0,0,0,0
maxStream-2-20180108-08:21:28-12608,2,SmallCompany.router1.ppp[0].queue,queueingTime:histogram,1718400,,1.0978676249995e-06,2.5798148750445e-06,0,1.4952814e-05,bins,-Inf,-6.617697e-06,-5.7353374e-06,-4.8529778e-06,-3.9706182e-06,-3.0882586e-06,-2.205899e-06,-1.3235394e-06,-4.411798e-07,4.411798e-07,1.3235394e-06,2.205899e-06,3.0882586e-06,3.9706182e-06,4.8529778e-06,5.7353374e-06,6.617697e-06,7.5000566e-06,8.3824162e-06,9.2647758e-06,1.01471354e-05,1.1029495e-05,1.19118546e-05,1.27942142e-05,1.36765738e-05,1.45589334e-05,1.5441293e-05,1.63236526e-05,1.72060122e-05,1.80883718e-05,1.89707314e-05,1.9853091e-05
maxStream-2-20180108-08:21:28-12608,2,SmallCompany.router1.ppp[0].queue,queueingTime:histogram,,,,,,,,counters,0,0,0,0,0,0,0,0,1360400,28640,42960,28640,35800,50120,14320,28640,50120,35800,14320,7160,0,7160,0,7160,0,7160,0,0,0,0,0,0
maxStream-2-20180108-08:21:28-12608,2,SmallCompany.router2.ppp[0].queue,queueingTime:histogram,0,,NaN,NaN,NaN,NaN,bins,-Inf,-0.5,-0.46666666666667,-0.43333333333333,-0.4,-0.36666666666667,-0.33333333333333,-0.3,-0.26666666666667,-0.23333333333333,-0.2,-0.16666666666667,-0.13333333333333,-0.1,-0.066666666666667,-0.033333333333333,-6.9388939039072e-18,0.033333333333333,0.066666666666667,0.1,0.13333333333333,0.16666666666667,0.2,0.23333333333333,0.26666666666667,0.3,0.33333333333333,0.36666666666667,0.4,0.43333333333333,0.46666666666667,0.5
maxStream-2-20180108-08:21:28-12608,2,SmallCompany.router2.ppp[0].queue,queueingTime:histogram,,,,,,,,counters,0,0,0,0,0,0,0,0,0,0,0,0,0,0,0,0,0,0,0,0,0,0,0,0,0,0,0,0,0,0,0,0
maxStream-2-20180108-08:21:28-12608,2,SmallCompany.router2.ppp[1].queue,queueingTime:histogram,1718400,,0,0,0,0,bins,-Inf,-0.5,-0.46666666666667,-0.43333333333333,-0.4,-0.36666666666667,-0.33333333333333,-0.3,-0.26666666666667,-0.23333333333333,-0.2,-0.16666666666667,-0.13333333333333,-0.1,-0.066666666666667,-0.033333333333333,-6.9388939039072e-18,0.033333333333333,0.066666666666667,0.1,0.13333333333333,0.16666666666667,0.2,0.23333333333333,0.26666666666667,0.3,0.33333333333333,0.36666666666667,0.4,0.43333333333333,0.46666666666667,0.5
maxStream-2-20180108-08:21:28-12608,2,SmallCompany.router2.ppp[1].queue,queueingTime:histogram,,,,,,,,counters,0,0,0,0,0,0,0,0,0,0,0,0,0,0,0,0,1718400,0,0,0,0,0,0,0,0,0,0,0,0,0,0,0
maxStream-2-20180108-08:21:28-12608,2,SmallCompany.router4.ppp[0].queue,queueingTime:histogram,644400,,0.00048807601998886,0.00038087812715551,0,0.001152359947,bins,-Inf,-0.0005761799735,-0.00049935597703333,-0.00042253198056667,-0.0003457079841,-0.00026888398763333,-0.00019205999116667,-0.0001152359947,-3.8411998233333e-05,3.8411998233333e-05,0.0001152359947,0.00019205999116667,0.00026888398763333,0.0003457079841,0.00042253198056667,0.00049935597703333,0.0005761799735,0.00065300396996667,0.00072982796643333,0.0008066519629,0.00088347595936667,0.00096029995583333,0.0010371239523,0.0011139479487667,0.0011907719452333,0.0012675959417,0.0013444199381667,0.0014212439346333,0.0014980679311,0.0015748919275667,0.0016517159240333,0.0017285399205
maxStream-2-20180108-08:21:28-12608,2,SmallCompany.router4.ppp[0].queue,queueingTime:histogram,,,,,,,,counters,0,0,0,0,0,0,0,0,100240,50120,50120,64440,21480,21480,14320,50120,7160,42960,57280,21480,35800,42960,50120,14320,0,0,0,0,0,0,0,0
maxStream-2-20180108-08:21:28-12608,2,SmallCompany.router4.ppp[1].queue,queueingTime:histogram,0,,NaN,NaN,NaN,NaN,bins,-Inf,-0.5,-0.46666666666667,-0.43333333333333,-0.4,-0.36666666666667,-0.33333333333333,-0.3,-0.26666666666667,-0.23333333333333,-0.2,-0.16666666666667,-0.13333333333333,-0.1,-0.066666666666667,-0.033333333333333,-6.9388939039072e-18,0.033333333333333,0.066666666666667,0.1,0.13333333333333,0.16666666666667,0.2,0.23333333333333,0.26666666666667,0.3,0.33333333333333,0.36666666666667,0.4,0.43333333333333,0.46666666666667,0.5
maxStream-2-20180108-08:21:28-12608,2,SmallCompany.router4.ppp[1].queue,queueingTime:histogram,,,,,,,,counters,0,0,0,0,0,0,0,0,0,0,0,0,0,0,0,0,0,0,0,0,0,0,0,0,0,0,0,0,0,0,0,0
maxStream-2-20180108-08:21:28-12608,2,SmallCompany.router4.ppp[2].queue,queueingTime:histogram,1074000,,0.0022052009145669,0.0012538693896507,0,0.004067261831,bins,-Inf,-0.0019075189495,-0.0016531830895667,-0.0013988472296333,-0.0011445113697,-0.00089017550976667,-0.00063583964983333,-0.0003815037899,-0.00012716792996667,0.00012716792996667,0.0003815037899,0.00063583964983333,0.00089017550976667,0.0011445113697,0.0013988472296333,0.0016531830895667,0.0019075189495,0.0021618548094333,0.0024161906693667,0.0026705265293,0.0029248623892333,0.0031791982491667,0.0034335341091,0.0036878699690333,0.0039422058289667,0.0041965416889,0.0044508775488333,0.0047052134087667,0.0049595492687,0.0052138851286333,0.0054682209885667,0.0057225568485
maxStream-2-20180108-08:21:28-12608,2,SmallCompany.router4.ppp[2].queue,queueingTime:histogram,,,,,,,,counters,0,0,0,0,0,0,0,0,71600,28640,64440,42960,64440,57280,57280,50120,35800,85920,78760,78760,42960,71600,78760,78760,85920,0,0,0,0,0,0,0
maxStream-2-20180108-08:21:28-12608,2,SmallCompany.router5.ppp[0].queue,queueingTime:histogram,1074000,,0,0,0,0,bins,-Inf,-0.5,-0.46666666666667,-0.43333333333333,-0.4,-0.36666666666667,-0.33333333333333,-0.3,-0.26666666666667,-0.23333333333333,-0.2,-0.16666666666667,-0.13333333333333,-0.1,-0.066666666666667,-0.033333333333333,-6.9388939039072e-18,0.033333333333333,0.066666666666667,0.1,0.13333333333333,0.16666666666667,0.2,0.23333333333333,0.26666666666667,0.3,0.33333333333333,0.36666666666667,0.4,0.43333333333333,0.46666666666667,0.5
maxStream-2-20180108-08:21:28-12608,2,SmallCompany.router5.ppp[0].queue,queueingTime:histogram,,,,,,,,counters,0,0,0,0,0,0,0,0,0,0,0,0,0,0,0,0,1074000,0,0,0,0,0,0,0,0,0,0,0,0,0,0,0
maxStream-2-20180108-08:21:28-12608,2,SmallCompany.router5.ppp[1].queue,queueingTime:histogram,0,,NaN,NaN,NaN,NaN,bins,-Inf,-0.5,-0.46666666666667,-0.43333333333333,-0.4,-0.36666666666667,-0.33333333333333,-0.3,-0.26666666666667,-0.23333333333333,-0.2,-0.16666666666667,-0.13333333333333,-0.1,-0.066666666666667,-0.033333333333333,-6.9388939039072e-18,0.033333333333333,0.066666666666667,0.1,0.13333333333333,0.16666666666667,0.2,0.23333333333333,0.26666666666667,0.3,0.33333333333333,0.36666666666667,0.4,0.43333333333333,0.46666666666667,0.5
maxStream-2-20180108-08:21:28-12608,2,SmallCompany.router5.ppp[1].queue,queueingTime:histogram,,,,,,,,counters,0,0,0,0,0,0,0,0,0,0,0,0,0,0,0,0,0,0,0,0,0,0,0,0,0,0,0,0,0,0,0,0
maxStream-5-20180108-08:21:28-12611,5,SmallCompany.router1.ppp[0].queue,queueingTime:histogram,1718400,,1.0261540416674e-06,2.9729966896669e-06,0,2.1535297e-05,bins,-Inf,-1.07676485e-05,-9.3319620333333e-06,-7.8962755666667e-06,-6.4605891e-06,-5.0249026333333e-06,-3.5892161666667e-06,-2.1535297e-06,-7.1784323333333e-07,7.1784323333333e-07,2.1535297e-06,3.5892161666667e-06,5.0249026333333e-06,6.4605891e-06,7.8962755666667e-06,9.3319620333333e-06,1.07676485e-05,1.2203334966667e-05,1.3639021433333e-05,1.50747079e-05,1.6510394366667e-05,1.7946080833333e-05,1.93817673e-05,2.0817453766667e-05,2.2253140233333e-05,2.36888267e-05,2.5124513166667e-05,2.6560199633333e-05,2.79958861e-05,2.9431572566667e-05,3.0867259033333e-05,3.23029455e-05
maxStream-5-20180108-08:21:28-12611,5,SmallCompany.router1.ppp[0].queue,queueingTime:histogram,,,,,,,,counters,0,0,0,0,0,0,0,0,1424840,64440,42960,35800,50120,50120,7160,7160,7160,0,14320,0,0,0,0,14320,0,0,0,0,0,0,0,0
maxStream-5-20180108-08:21:28-12611,5,SmallCompany.router2.ppp[0].queue,queueingTime:histogram,0,,NaN,NaN,NaN,NaN,bins,-Inf,-0.5,-0.46666666666667,-0.43333333333333,-0.4,-0.36666666666667,-0.33333333333333,-0.3,-0.26666666666667,-0.23333333333333,-0.2,-0.16666666666667,-0.13333333333333,-0.1,-0.066666666666667,-0.033333333333333,-6.9388939039072e-18,0.033333333333333,0.066666666666667,0.1,0.13333333333333,0.16666666666667,0.2,0.23333333333333,0.26666666666667,0.3,0.33333333333333,0.36666666666667,0.4,0.43333333333333,0.46666666666667,0.5
maxStream-5-20180108-08:21:28-12611,5,SmallCompany.router2.ppp[0].queue,queueingTime:histogram,,,,,,,,counters,0,0,0,0,0,0,0,0,0,0,0,0,0,0,0,0,0,0,0,0,0,0,0,0,0,0,0,0,0,0,0,0
maxStream-5-20180108-08:21:28-12611,5,SmallCompany.router2.ppp[1].queue,queueingTime:histogram,1718400,,0,0,0,0,bins,-Inf,-0.5,-0.46666666666667,-0.43333333333333,-0.4,-0.36666666666667,-0.33333333333333,-0.3,-0.26666666666667,-0.23333333333333,-0.2,-0.16666666666667,-0.13333333333333,-0.1,-0.066666666666667,-0.033333333333333,-6.9388939039072e-18,0.033333333333333,0.066666666666667,0.1,0.13333333333333,0.16666666666667,0.2,0.23333333333333,0.26666666666667,0.3,0.33333333333333,0.36666666666667,0.4,0.43333333333333,0.46666666666667,0.5
maxStream-5-20180108-08:21:28-12611,5,SmallCompany.router2.ppp[1].queue,queueingTime:histogram,,,,,,,,counters,0,0,0,0,0,0,0,0,0,0,0,0,0,0,0,0,1718400,0,0,0,0,0,0,0,0,0,0,0,0,0,0,0
maxStream-5-20180108-08:21:28-12611,5,SmallCompany.router4.ppp[0].queue,queueingTime:histogram,644400,,0.00011992033475553,0.00015840824206892,0,0.000535719642,bins,-Inf,-0.000267859821,-0.0002321451782,-0.0001964305354,-0.0001607158926,-0.0001250012498,-8.9286607e-05,-5.35719642e-05,-1.78573214e-05,1.78573214e-05,5.35719642e-05,8.9286607e-05,0.0001250012498,0.0001607158926,0.0001964305354,0.0002321451782,0.000267859821,0.0003035744638,0.0003392891066,0.0003750037494,0.0004107183922,0.000446433035,0.0004821476778,0.0005178623206,0.0005535769634,0.0005892916062,0.000625006249,0.0006607208918,0.0006964355346,0.0007321501774,0.0007678648202,0.000803579463
maxStream-5-20180108-08:21:28-12611,5,SmallCompany.router4.ppp[0].queue,queueingTime:histogram,,,,,,,,counters,0,0,0,0,0,0,0,0,272080,64440,71600,35800,28640,21480,0,21480,21480,14320,14320,35800,0,7160,0,35800,0,0,0,0,0,0,0,0
maxStream-5-20180108-08:21:28-12611,5,SmallCompany.router4.ppp[1].queue,queueingTime:histogram,0,,NaN,NaN,NaN,NaN,bins,-Inf,-0.5,-0.46666666666667,-0.43333333333333,-0.4,-0.36666666666667,-0.33333333333333,-0.3,-0.26666666666667,-0.23333333333333,-0.2,-0.16666666666667,-0.13333333333333,-0.1,-0.066666666666667,-0.033333333333333,-6.9388939039072e-18,0.033333333333333,0.066666666666667,0.1,0.13333333333333,0.16666666666667,0.2,0.23333333333333,0.26666666666667,0.3,0.33333333333333,0.36666666666667,0.4,0.43333333333333,0.46666666666667,0.5
maxStream-5-20180108-08:21:28-12611,5,SmallCompany.router4.ppp[1].queue,queueingTime:histogram,,,,,,,,counters,0,0,0,0,0,0,0,0,0,0,0,0,0,0,0,0,0,0,0,0,0,0,0,0,0,0,0,0,0,0,0,0
maxStream-5-20180108-08:21:28-12611,5,SmallCompany.router4.ppp[2].queue,queueingTime:histogram,1074000,,0.0020099466699625,0.0010367471847795,0,0.003379115344,bins,-Inf,-0.001579344699,-0.0013687654058,-0.0011581861126,-0.0009476068194,-0.0007370275262,-0.000526448233,-0.0003158689398,-0.0001052896466,0.0001052896466,0.0003158689398,0.000526448233,0.0007370275262,0.0009476068194,0.0011581861126,0.0013687654058,0.001579344699,0.0017899239922,0.0020005032854,0.0022110825786,0.0024216618718,0.002632241165,0.0028428204582,0.0030533997514,0.0032639790446,0.0034745583378,0.003685137631,0.0038957169242,0.0041062962174,0.0043168755106,0.0045274548038,0.004738034097
maxStream-5-20180108-08:21:28-12611,5,SmallCompany.router4.ppp[2].queue,queueingTime:histogram,,,,,,,,counters,0,0,0,0,0,0,0,0,42960,35800,57280,35800,35800,42960,57280,78760,71600,50120,28640,42960,64440,85920,114560,171840,57280,0,0,0,0,0,0,0
maxStream-5-20180108-08:21:28-12611,5,SmallCompany.router5.ppp[0].queue,queueingTime:histogram,1074000,,0,0,0,0,bins,-Inf,-0.5,-0.46666666666667,-0.43333333333333,-0.4,-0.36666666666667,-0.33333333333333,-0.3,-0.26666666666667,-0.23333333333333,-0.2,-0.16666666666667,-0.13333333333333,-0.1,-0.066666666666667,-0.033333333333333,-6.9388939039072e-18,0.033333333333333,0.066666666666667,0.1,0.13333333333333,0.16666666666667,0.2,0.23333333333333,0.26666666666667,0.3,0.33333333333333,0.36666666666667,0.4,0.43333333333333,0.46666666666667,0.5
maxStream-5-20180108-08:21:28-12611,5,SmallCompany.router5.ppp[0].queue,queueingTime:histogram,,,,,,,,counters,0,0,0,0,0,0,0,0,0,0,0,0,0,0,0,0,1074000,0,0,0,0,0,0,0,0,0,0,0,0,0,0,0
maxStream-5-20180108-08:21:28-12611,5,SmallCompany.router5.ppp[1].queue,queueingTime:histogram,0,,NaN,NaN,NaN,NaN,bins,-Inf,-0.5,-0.46666666666667,-0.43333333333333,-0.4,-0.36666666666667,-0.33333333333333,-0.3,-0.26666666666667,-0.23333333333333,-0.2,-0.16666666666667,-0.13333333333333,-0.1,-0.066666666666667,-0.033333333333333,-6.9388939039072e-18,0.033333333333333,0.066666666666667,0.1,0.13333333333333,0.16666666666667,0.2,0.23333333333333,0.26666666666667,0.3,0.33333333333333,0.36666666666667,0.4,0.43333333333333,0.46666666666667,0.5
maxStream-5-20180108-08:21:28-12611,5,SmallCompany.router5.ppp[1].queue,queueingTime:histogram,,,,,,,,counters,0,0,0,0,0,0,0,0,0,0,0,0,0,0,0,0,0,0,0,0,0,0,0,0,0,0,0,0,0,0,0,0
maxStream-0-20180108-08:21:28-12610,0,SmallCompany.router1.ppp[0].queue,queueingTime:histogram,1718400,,9.3446847083403e-07,2.3525627030971e-06,0,1.3772226e-05,bins,-Inf,-3.4935985e-06,-3.0277853666667e-06,-2.5619722333333e-06,-2.0961591e-06,-1.6303459666667e-06,-1.1645328333333e-06,-6.987197e-07,-2.3290656666667e-07,2.3290656666667e-07,6.987197e-07,1.1645328333333e-06,1.6303459666667e-06,2.0961591e-06,2.5619722333333e-06,3.0277853666667e-06,3.4935985e-06,3.9594116333333e-06,4.4252247666667e-06,4.8910379e-06,5.3568510333333e-06,5.8226641666667e-06,6.2884773e-06,6.7542904333333e-06,7.2201035666667e-06,7.6859167e-06,8.1517298333333e-06,8.6175429666667e-06,9.0833561e-06,9.5491692333333e-06,1.0014982366667e-05,1.04807955e-05
maxStream-0-20180108-08:21:28-12610,0,SmallCompany.router1.ppp[0].queue,queueingTime:histogram,,,,,,,,counters,0,0,0,0,0,0,0,0,1424840,0,7160,7160,21480,28640,0,7160,7160,42960,21480,7160,28640,7160,7160,14320,21480,14320,0,28640,0,14320,0,7160
maxStream-0-20180108-08:21:28-12610,0,SmallCompany.router2.ppp[0].queue,queueingTime:histogram,0,,NaN,NaN,NaN,NaN,bins,-Inf,-0.5,-0.46666666666667,-0.43333333333333,-0.4,-0.36666666666667,-0.33333333333333,-0.3,-0.26666666666667,-0.23333333333333,-0.2,-0.16666666666667,-0.13333333333333,-0.1,-0.066666666666667,-0.033333333333333,-6.9388939039072e-18,0.033333333333333,0.066666666666667,0.1,0.13333333333333,0.16666666666667,0.2,0.23333333333333,0.26666666666667,0.3,0.33333333333333,0.36666666666667,0.4,0.43333333333333,0.46666666666667,0.5
maxStream-0-20180108-08:21:28-12610,0,SmallCompany.router2.ppp[0].queue,queueingTime:histogram,,,,,,,,counters,0,0,0,0,0,0,0,0,0,0,0,0,0,0,0,0,0,0,0,0,0,0,0,0,0,0,0,0,0,0,0,0
maxStream-0-20180108-08:21:28-12610,0,SmallCompany.router2.ppp[1].queue,queueingTime:histogram,1718400,,0,0,0,0,bins,-Inf,-0.5,-0.46666666666667,-0.43333333333333,-0.4,-0.36666666666667,-0.33333333333333,-0.3,-0.26666666666667,-0.23333333333333,-0.2,-0.16666666666667,-0.13333333333333,-0.1,-0.066666666666667,-0.033333333333333,-6.9388939039072e-18,0.033333333333333,0.066666666666667,0.1,0.13333333333333,0.16666666666667,0.2,0.23333333333333,0.26666666666667,0.3,0.33333333333333,0.36666666666667,0.4,0.43333333333333,0.46666666666667,0.5
maxStream-0-20180108-08:21:28-12610,0,SmallCompany.router2.ppp[1].queue,queueingTime:histogram,,,,,,,,counters,0,0,0,0,0,0,0,0,0,0,0,0,0,0,0,0,1718400,0,0,0,0,0,0,0,0,0,0,0,0,0,0,0
maxStream-0-20180108-08:21:28-12610,0,SmallCompany.router4.ppp[0].queue,queueingTime:histogram,644400,,0.00019400937401137,0.00016273988827818,0,0.000573871998,bins,-Inf,-0.000286935999,-0.0002486778658,-0.0002104197326,-0.0001721615994,-0.0001339034662,-9.5645333e-05,-5.73871998e-05,-1.91290666e-05,1.91290666e-05,5.73871998e-05,9.5645333e-05,0.0001339034662,0.0001721615994,0.0002104197326,0.0002486778658,0.000286935999,0.0003251941322,0.0003634522654,0.0004017103986,0.0004399685318,0.000478226665,0.0005164847982,0.0005547429314,0.0005930010646,0.0006312591978,0.000669517331,0.0007077754642,0.0007460335974,0.0007842917306,0.0008225498638,0.000860807997
maxStream-0-20180108-08:21:28-12610,0,SmallCompany.router4.ppp[0].queue,queueingTime:histogram,,,,,,,,counters,0,0,0,0,0,0,0,0,150360,21480,64440,28640,50120,71600,21480,42960,7160,50120,42960,35800,28640,21480,0,7160,0,0,0,0,0,0,0,0
maxStream-0-20180108-08:21:28-12610,0,SmallCompany.router4.ppp[1].queue,queueingTime:histogram,0,,NaN,NaN,NaN,NaN,bins,-Inf,-0.5,-0.46666666666667,-0.43333333333333,-0.4,-0.36666666666667,-0.33333333333333,-0.3,-0.26666666666667,-0.23333333333333,-0.2,-0.16666666666667,-0.13333333333333,-0.1,-0.066666666666667,-0.033333333333333,-6.9388939039072e-18,0.033333333333333,0.066666666666667,0.1,0.13333333333333,0.16666666666667,0.2,0.23333333333333,0.26666666666667,0.3,0.33333333333333,0.36666666666667,0.4,0.43333333333333,0.46666666666667,0.5
maxStream-0-20180108-08:21:28-12610,0,SmallCompany.router4.ppp[1].queue,queueingTime:histogram,,,,,,,,counters,0,0,0,0,0,0,0,0,0,0,0,0,0,0,0,0,0,0,0,0,0,0,0,0,0,0,0,0,0,0,0,0
maxStream-0-20180108-08:21:28-12610,0,SmallCompany.router4.ppp[2].queue,queueingTime:histogram,1074000,,0.0013877332743791,0.00096441703062649,0,0.002972117688,bins,-Inf,-0.001355119749,-0.0011744371158,-0.0009937544826,-0.0008130718494,-0.0006323892162,-0.000451706583,-0.0002710239498,-9.03413166e-05,9.03413166e-05,0.0002710239498,0.000451706583,0.0006323892162,0.0008130718494,0.0009937544826,0.0011744371158,0.001355119749,0.0015358023822,0.0017164850154,0.0018971676486,0.0020778502818,0.002258532915,0.0024392155482,0.0026198981814,0.0028005808146,0.0029812634478,0.003161946081,0.0033426287142,0.0035233113474,0.0037039939806,0.0038846766138,0.004065359247
maxStream-0-20180108-08:21:28-12610,0,SmallCompany.router4.ppp[2].queue,queueingTime:histogram,,,,,,,,counters,0,0,0,0,0,0,0,0,64440,85920,114560,93080,35800,57280,35800,42960,85920,57280,28640,35800,28640,42960,93080,121720,50120,0,0,0,0,0,0,0
maxStream-0-20180108-08:21:28-12610,0,SmallCompany.router5.ppp[0].queue,queueingTime:histogram,1074000,,0,0,0,0,bins,-Inf,-0.5,-0.46666666666667,-0.43333333333333,-0.4,-0.36666666666667,-0.33333333333333,-0.3,-0.26666666666667,-0.23333333333333,-0.2,-0.16666666666667,-0.13333333333333,-0.1,-0.066666666666667,-0.033333333333333,-6.9388939039072e-18,0.033333333333333,0.066666666666667,0.1,0.13333333333333,0.16666666666667,0.2,0.23333333333333,0.26666666666667,0.3,0.33333333333333,0.36666666666667,0.4,0.43333333333333,0.46666666666667,0.5
maxStream-0-20180108-08:21:28-12610,0,SmallCompany.router5.ppp[0].queue,queueingTime:histogram,,,,,,,,counters,0,0,0,0,0,0,0,0,0,0,0,0,0,0,0,0,1074000,0,0,0,0,0,0,0,0,0,0,0,0,0,0,0
maxStream-0-20180108-08:21:28-12610,0,SmallCompany.router5.ppp[1].queue,queueingTime:histogram,0,,NaN,NaN,NaN,NaN,bins,-Inf,-0.5,-0.46666666666667,-0.43333333333333,-0.4,-0.36666666666667,-0.33333333333333,-0.3,-0.26666666666667,-0.23333333333333,-0.2,-0.16666666666667,-0.13333333333333,-0.1,-0.066666666666667,-0.033333333333333,-6.9388939039072e-18,0.033333333333333,0.066666666666667,0.1,0.13333333333333,0.16666666666667,0.2,0.23333333333333,0.26666666666667,0.3,0.33333333333333,0.36666666666667,0.4,0.43333333333333,0.46666666666667,0.5
maxStream-0-20180108-08:21:28-12610,0,SmallCompany.router5.ppp[1].queue,queueingTime:histogram,,,,,,,,counters,0,0,0,0,0,0,0,0,0,0,0,0,0,0,0,0,0,0,0,0,0,0,0,0,0,0,0,0,0,0,0,0
maxStream-6-20180108-08:32:04-13225,6,SmallCompany.router1.ppp[0].queue,queueingTime:histogram,1718400,,8.6252324166713e-07,2.1063764436936e-06,0,7.980465e-06,bins,-Inf,-3.983628e-06,-3.4524776e-06,-2.9213272e-06,-2.3901768e-06,-1.8590264e-06,-1.327876e-06,-7.967256e-07,-2.655752e-07,2.655752e-07,7.967256e-07,1.327876e-06,1.8590264e-06,2.3901768e-06,2.9213272e-06,3.4524776e-06,3.983628e-06,4.5147784e-06,5.0459288e-06,5.5770792e-06,6.1082296e-06,6.63938e-06,7.1705304e-06,7.7016808e-06,8.2328312e-06,8.7639816e-06,9.295132e-06,9.8262824e-06,1.03574328e-05,1.08885832e-05,1.14197336e-05,1.1950884e-05
maxStream-6-20180108-08:32:04-13225,6,SmallCompany.router1.ppp[0].queue,queueingTime:histogram,,,,,,,,counters,0,0,0,0,0,0,0,0,1410520,7160,21480,7160,21480,35800,14320,7160,35800,14320,21480,7160,7160,28640,21480,57280,0,0,0,0,0,0,0,0
maxStream-6-20180108-08:32:04-13225,6,SmallCompany.router2.ppp[0].queue,queueingTime:histogram,0,,NaN,NaN,NaN,NaN,bins,-Inf,-0.5,-0.46666666666667,-0.43333333333333,-0.4,-0.36666666666667,-0.33333333333333,-0.3,-0.26666666666667,-0.23333333333333,-0.2,-0.16666666666667,-0.13333333333333,-0.1,-0.066666666666667,-0.033333333333333,-6.9388939039072e-18,0.033333333333333,0.066666666666667,0.1,0.13333333333333,0.16666666666667,0.2,0.23333333333333,0.26666666666667,0.3,0.33333333333333,0.36666666666667,0.4,0.43333333333333,0.46666666666667,0.5
maxStream-6-20180108-08:32:04-13225,6,SmallCompany.router2.ppp[0].queue,queueingTime:histogram,,,,,,,,counters,0,0,0,0,0,0,0,0,0,0,0,0,0,0,0,0,0,0,0,0,0,0,0,0,0,0,0,0,0,0,0,0
maxStream-6-20180108-08:32:04-13225,6,SmallCompany.router2.ppp[1].queue,queueingTime:histogram,1718400,,0,0,0,0,bins,-Inf,-0.5,-0.46666666666667,-0.43333333333333,-0.4,-0.36666666666667,-0.33333333333333,-0.3,-0.26666666666667,-0.23333333333333,-0.2,-0.16666666666667,-0.13333333333333,-0.1,-0.066666666666667,-0.033333333333333,-6.9388939039072e-18,0.033333333333333,0.066666666666667,0.1,0.13333333333333,0.16666666666667,0.2,0.23333333333333,0.26666666666667,0.3,0.33333333333333,0.36666666666667,0.4,0.43333333333333,0.46666666666667,0.5
maxStream-6-20180108-08:32:04-13225,6,SmallCompany.router2.ppp[1].queue,queueingTime:histogram,,,,,,,,counters,0,0,0,0,0,0,0,0,0,0,0,0,0,0,0,0,1718400,0,0,0,0,0,0,0,0,0,0,0,0,0,0,0
maxStream-6-20180108-08:32:04-13225,6,SmallCompany.router4.ppp[0].queue,queueingTime:histogram,644400,,0.00032745457596648,0.00036218340927273,0,0.001138367407,bins,-Inf,-0.0005691837035,-0.00049329254303333,-0.00041740138256667,-0.0003415102221,-0.00026561906163333,-0.00018972790116667,-0.0001138367407,-3.7945580233333e-05,3.7945580233333e-05,0.0001138367407,0.00018972790116667,0.00026561906163333,0.0003415102221,0.00041740138256667,0.00049329254303333,0.0005691837035,0.00064507486396667,0.00072096602443333,0.0007968571849,0.00087274834536667,0.00094863950583333,0.0010245306663,0.0011004218267667,0.0011763129872333,0.0012522041477,0.0013280953081667,0.0014039864686333,0.0014798776291,0.0015557687895667,0.0016316599500333,0.0017075511105
maxStream-6-20180108-08:32:04-13225,6,SmallCompany.router4.ppp[0].queue,queueingTime:histogram,,,,,,,,counters,0,0,0,0,0,0,0,0,186160,114560,50120,21480,7160,42960,57280,14320,14320,7160,14320,28640,21480,28640,28640,7160,0,0,0,0,0,0,0,0
maxStream-6-20180108-08:32:04-13225,6,SmallCompany.router4.ppp[1].queue,queueingTime:histogram,0,,NaN,NaN,NaN,NaN,bins,-Inf,-0.5,-0.46666666666667,-0.43333333333333,-0.4,-0.36666666666667,-0.33333333333333,-0.3,-0.26666666666667,-0.23333333333333,-0.2,-0.16666666666667,-0.13333333333333,-0.1,-0.066666666666667,-0.033333333333333,-6.9388939039072e-18,0.033333333333333,0.066666666666667,0.1,0.13333333333333,0.16666666666667,0.2,0.23333333333333,0.26666666666667,0.3,0.33333333333333,0.36666666666667,0.4,0.43333333333333,0.46666666666667,0.5
maxStream-6-20180108-08:32:04-13225,6,SmallCompany.router4.ppp[1].queue,queueingTime:histogram,,,,,,,,counters,0,0,0,0,0,0,0,0,0,0,0,0,0,0,0,0,0,0,0,0,0,0,0,0,0,0,0,0,0,0,0,0
maxStream-6-20180108-08:32:04-13225,6,SmallCompany.router4.ppp[2].queue,queueingTime:histogram,1074000,,0.0021196532895808,0.0011334806380569,0,0.003592263973,bins,-Inf,-0.001589616211,-0.0013776673828667,-0.0011657185547333,-0.0009537697266,-0.00074182089846667,-0.00052987207033333,-0.0003179232422,-0.00010597441406667,0.00010597441406667,0.0003179232422,0.00052987207033333,0.00074182089846667,0.0009537697266,0.0011657185547333,0.0013776673828667,0.001589616211,0.0018015650391333,0.0020135138672667,0.0022254626954,0.0024374115235333,0.0026493603516667,0.0028613091798,0.0030732580079333,0.0032852068360667,0.0034971556642,0.0037091044923333,0.0039210533204667,0.0041330021486,0.0043449509767333,0.0045568998048667,0.004768848633
maxStream-6-20180108-08:32:04-13225,6,SmallCompany.router4.ppp[2].queue,queueingTime:histogram,,,,,,,,counters,0,0,0,0,0,0,0,0,64440,42960,50120,35800,28640,57280,50120,21480,35800,50120,57280,57280,28640,78760,114560,136040,136040,28640,0,0,0,0,0,0
maxStream-6-20180108-08:32:04-13225,6,SmallCompany.router5.ppp[0].queue,queueingTime:histogram,1074000,,0,0,0,0,bins,-Inf,-0.5,-0.46666666666667,-0.43333333333333,-0.4,-0.36666666666667,-0.33333333333333,-0.3,-0.26666666666667,-0.23333333333333,-0.2,-0.16666666666667,-0.13333333333333,-0.1,-0.066666666666667,-0.033333333333333,-6.9388939039072e-18,0.033333333333333,0.066666666666667,0.1,0.13333333333333,0.16666666666667,0.2,0.23333333333333,0.26666666666667,0.3,0.33333333333333,0.36666666666667,0.4,0.43333333333333,0.46666666666667,0.5
maxStream-6-20180108-08:32:04-13225,6,SmallCompany.router5.ppp[0].queue,queueingTime:histogram,,,,,,,,counters,0,0,0,0,0,0,0,0,0,0,0,0,0,0,0,0,1074000,0,0,0,0,0,0,0,0,0,0,0,0,0,0,0
maxStream-6-20180108-08:32:04-13225,6,SmallCompany.router5.ppp[1].queue,queueingTime:histogram,0,,NaN,NaN,NaN,NaN,bins,-Inf,-0.5,-0.46666666666667,-0.43333333333333,-0.4,-0.36666666666667,-0.33333333333333,-0.3,-0.26666666666667,-0.23333333333333,-0.2,-0.16666666666667,-0.13333333333333,-0.1,-0.066666666666667,-0.033333333333333,-6.9388939039072e-18,0.033333333333333,0.066666666666667,0.1,0.13333333333333,0.16666666666667,0.2,0.23333333333333,0.26666666666667,0.3,0.33333333333333,0.36666666666667,0.4,0.43333333333333,0.46666666666667,0.5
maxStream-6-20180108-08:32:04-13225,6,SmallCompany.router5.ppp[1].queue,queueingTime:histogram,,,,,,,,counters,0,0,0,0,0,0,0,0,0,0,0,0,0,0,0,0,0,0,0,0,0,0,0,0,0,0,0,0,0,0,0,0
maxStream-9-20180108-08:33:35-13329,9,SmallCompany.router1.ppp[0].queue,queueingTime:histogram,1718400,,9.4419958749953e-07,2.8069320399976e-06,0,1.9506137e-05,bins,-Inf,-9.7530685e-06,-8.4526593666667e-06,-7.1522502333333e-06,-5.8518411e-06,-4.5514319666667e-06,-3.2510228333333e-06,-1.9506137e-06,-6.5020456666667e-07,6.5020456666667e-07,1.9506137e-06,3.2510228333333e-06,4.5514319666667e-06,5.8518411e-06,7.1522502333333e-06,8.4526593666667e-06,9.7530685e-06,1.1053477633333e-05,1.2353886766667e-05,1.36542959e-05,1.4954705033333e-05,1.6255114166667e-05,1.75555233e-05,1.8855932433333e-05,2.0156341566667e-05,2.14567507e-05,2.2757159833333e-05,2.4057568966667e-05,2.53579781e-05,2.6658387233333e-05,2.7958796366667e-05,2.92592055e-05
maxStream-9-20180108-08:33:35-13329,9,SmallCompany.router1.ppp[0].queue,queueingTime:histogram,,,,,,,,counters,0,0,0,0,0,0,0,0,1453480,42960,35800,42960,35800,28640,28640,7160,0,14320,14320,0,0,0,7160,7160,0,0,0,0,0,0,0,0
maxStream-9-20180108-08:33:35-13329,9,SmallCompany.router2.ppp[0].queue,queueingTime:histogram,0,,NaN,NaN,NaN,NaN,bins,-Inf,-0.5,-0.46666666666667,-0.43333333333333,-0.4,-0.36666666666667,-0.33333333333333,-0.3,-0.26666666666667,-0.23333333333333,-0.2,-0.16666666666667,-0.13333333333333,-0.1,-0.066666666666667,-0.033333333333333,-6.9388939039072e-18,0.033333333333333,0.066666666666667,0.1,0.13333333333333,0.16666666666667,0.2,0.23333333333333,0.26666666666667,0.3,0.33333333333333,0.36666666666667,0.4,0.43333333333333,0.46666666666667,0.5
maxStream-9-20180108-08:33:35-13329,9,SmallCompany.router2.ppp[0].queue,queueingTime:histogram,,,,,,,,counters,0,0,0,0,0,0,0,0,0,0,0,0,0,0,0,0,0,0,0,0,0,0,0,0,0,0,0,0,0,0,0,0
maxStream-9-20180108-08:33:35-13329,9,SmallCompany.router2.ppp[1].queue,queueingTime:histogram,1718400,,0,0,0,0,bins,-Inf,-0.5,-0.46666666666667,-0.43333333333333,-0.4,-0.36666666666667,-0.33333333333333,-0.3,-0.26666666666667,-0.23333333333333,-0.2,-0.16666666666667,-0.13333333333333,-0.1,-0.066666666666667,-0.033333333333333,-6.9388939039072e-18,0.033333333333333,0.066666666666667,0.1,0.13333333333333,0.16666666666667,0.2,0.23333333333333,0.26666666666667,0.3,0.33333333333333,0.36666666666667,0.4,0.43333333333333,0.46666666666667,0.5
maxStream-9-20180108-08:33:35-13329,9,SmallCompany.router2.ppp[1].queue,queueingTime:histogram,,,,,,,,counters,0,0,0,0,0,0,0,0,0,0,0,0,0,0,0,0,1718400,0,0,0,0,0,0,0,0,0,0,0,0,0,0,0
maxStream-9-20180108-08:33:35-13329,9,SmallCompany.router4.ppp[0].queue,queueingTime:histogram,644400,,0.00011899773261106,0.00015506970113076,0,0.00056876791,bins,-Inf,-0.000284383955,-0.00024646609433333,-0.00020854823366667,-0.000170630373,-0.00013271251233333,-9.4794651666667e-05,-5.6876791e-05,-1.8958930333333e-05,1.8958930333333e-05,5.6876791e-05,9.4794651666667e-05,0.00013271251233333,0.000170630373,0.00020854823366667,0.00024646609433333,0.000284383955,0.00032230181566667,0.00036021967633333,0.000398137537,0.00043605539766667,0.00047397325833333,0.000511891119,0.00054980897966667,0.00058772684033333,0.000625644701,0.00066356256166667,0.00070148042233333,0.000739398283,0.00077731614366667,0.00081523400433333,0.000853151865
maxStream-9-20180108-08:33:35-13329,9,SmallCompany.router4.ppp[0].queue,queueingTime:histogram,,,,,,,,counters,0,0,0,0,0,0,0,0,236280,64440,100240,64440,35800,14320,14320,14320,14320,14320,0,14320,21480,14320,7160,14320,0,0,0,0,0,0,0,0
maxStream-9-20180108-08:33:35-13329,9,SmallCompany.router4.ppp[1].queue,queueingTime:histogram,0,,NaN,NaN,NaN,NaN,bins,-Inf,-0.5,-0.46666666666667,-0.43333333333333,-0.4,-0.36666666666667,-0.33333333333333,-0.3,-0.26666666666667,-0.23333333333333,-0.2,-0.16666666666667,-0.13333333333333,-0.1,-0.066666666666667,-0.033333333333333,-6.9388939039072e-18,0.033333333333333,0.066666666666667,0.1,0.13333333333333,0.16666666666667,0.2,0.23333333333333,0.26666666666667,0.3,0.33333333333333,0.36666666666667,0.4,0.43333333333333,0.46666666666667,0.5
maxStream-9-20180108-08:33:35-13329,9,SmallCompany.router4.ppp[1].queue,queueingTime:histogram,,,,,,,,counters,0,0,0,0,0,0,0,0,0,0,0,0,0,0,0,0,0,0,0,0,0,0,0,0,0,0,0,0,0,0,0,0
maxStream-9-20180108-08:33:35-13329,9,SmallCompany.router4.ppp[2].queue,queueingTime:histogram,1074000,,0.0023237748640621,0.0013736414839531,0,0.004512681999,bins,-Inf,-0.0020727147505,-0.0017963527837667,-0.0015199908170333,-0.0012436288503,-0.00096726688356667,-0.00069090491683333,-0.0004145429501,-0.00013818098336667,0.00013818098336667,0.0004145429501,0.00069090491683333,0.00096726688356667,0.0012436288503,0.0015199908170333,0.0017963527837667,0.0020727147505,0.0023490767172333,0.0026254386839667,0.0029018006507,0.0031781626174333,0.0034545245841667,0.0037308865509,0.0040072485176333,0.0042836104843667,0.0045599724511,0.0048363344178333,0.0051126963845667,0.0053890583513,0.0056654203180333,0.0059417822847667,0.0062181442515
maxStream-9-20180108-08:33:35-13329,9,SmallCompany.router4.ppp[2].queue,queueingTime:histogram,,,,,,,,counters,0,0,0,0,0,0,0,0,78760,50120,57280,57280,28640,42960,85920,93080,35800,50120,50120,57280,93080,78760,85920,78760,50120,0,0,0,0,0,0,0
maxStream-9-20180108-08:33:35-13329,9,SmallCompany.router5.ppp[0].queue,queueingTime:histogram,1074000,,0,0,0,0,bins,-Inf,-0.5,-0.46666666666667,-0.43333333333333,-0.4,-0.36666666666667,-0.33333333333333,-0.3,-0.26666666666667,-0.23333333333333,-0.2,-0.16666666666667,-0.13333333333333,-0.1,-0.066666666666667,-0.033333333333333,-6.9388939039072e-18,0.033333333333333,0.066666666666667,0.1,0.13333333333333,0.16666666666667,0.2,0.23333333333333,0.26666666666667,0.3,0.33333333333333,0.36666666666667,0.4,0.43333333333333,0.46666666666667,0.5
maxStream-9-20180108-08:33:35-13329,9,SmallCompany.router5.ppp[0].queue,queueingTime:histogram,,,,,,,,counters,0,0,0,0,0,0,0,0,0,0,0,0,0,0,0,0,1074000,0,0,0,0,0,0,0,0,0,0,0,0,0,0,0
maxStream-9-20180108-08:33:35-13329,9,SmallCompany.router5.ppp[1].queue,queueingTime:histogram,0,,NaN,NaN,NaN,NaN,bins,-Inf,-0.5,-0.46666666666667,-0.43333333333333,-0.4,-0.36666666666667,-0.33333333333333,-0.3,-0.26666666666667,-0.23333333333333,-0.2,-0.16666666666667,-0.13333333333333,-0.1,-0.066666666666667,-0.033333333333333,-6.9388939039072e-18,0.033333333333333,0.066666666666667,0.1,0.13333333333333,0.16666666666667,0.2,0.23333333333333,0.26666666666667,0.3,0.33333333333333,0.36666666666667,0.4,0.43333333333333,0.46666666666667,0.5
maxStream-9-20180108-08:33:35-13329,9,SmallCompany.router5.ppp[1].queue,queueingTime:histogram,,,,,,,,counters,0,0,0,0,0,0,0,0,0,0,0,0,0,0,0,0,0,0,0,0,0,0,0,0,0,0,0,0,0,0,0,0
