
**** SCALARS ****
run,repetition,Module,dropPk:count,dropPk:sum(packetBytes),queueLength:max,queueLength:timeavg,rcvdPk:count,rcvdPk:sum(packetBytes)
minStream-4-20180107-14:42:36-9095,4,SmallCompany.router1.ppp[0].queue,0,0,NaN,NaN,71600,73604800
minStream-4-20180107-14:42:36-9095,4,SmallCompany.router2.ppp[0].queue,0,0,NaN,NaN,0,0
minStream-4-20180107-14:42:36-9095,4,SmallCompany.router2.ppp[1].queue,0,0,NaN,NaN,35800,36802400
minStream-4-20180107-14:42:36-9095,4,SmallCompany.router2.ppp[2].queue,0,0,NaN,NaN,35800,36802400
minStream-4-20180107-14:42:36-9095,4,SmallCompany.router3.ppp[0].queue,0,0,NaN,NaN,0,0
minStream-4-20180107-14:42:36-9095,4,SmallCompany.router3.ppp[1].queue,0,0,NaN,NaN,35800,36802400
minStream-4-20180107-14:42:36-9095,4,SmallCompany.router4.ppp[0].queue,0,0,NaN,NaN,35800,36802400
minStream-4-20180107-14:42:36-9095,4,SmallCompany.router4.ppp[1].queue,0,0,NaN,NaN,0,0
minStream-4-20180107-14:42:36-9095,4,SmallCompany.router4.ppp[2].queue,0,0,NaN,NaN,0,0
minStream-4-20180107-14:42:36-9095,4,SmallCompany.router5.ppp[0].queue,0,0,NaN,NaN,35800,36802400
minStream-4-20180107-14:42:36-9095,4,SmallCompany.router5.ppp[1].queue,0,0,NaN,NaN,0,0
minStream-4-20180107-14:42:36-9095,4,SmallCompany.router5.ppp[2].queue,0,0,NaN,NaN,0,0
minStream-3-20180107-14:42:36-9094,3,SmallCompany.router1.ppp[0].queue,0,0,1,4.8623310248954e-06,71600,73604800
minStream-3-20180107-14:42:36-9094,3,SmallCompany.router2.ppp[0].queue,0,0,NaN,NaN,0,0
minStream-3-20180107-14:42:36-9094,3,SmallCompany.router2.ppp[1].queue,0,0,NaN,NaN,35800,36802400
minStream-3-20180107-14:42:36-9094,3,SmallCompany.router2.ppp[2].queue,0,0,NaN,NaN,35800,36802400
minStream-3-20180107-14:42:36-9094,3,SmallCompany.router3.ppp[0].queue,0,0,NaN,NaN,0,0
minStream-3-20180107-14:42:36-9094,3,SmallCompany.router3.ppp[1].queue,0,0,NaN,NaN,35800,36802400
minStream-3-20180107-14:42:36-9094,3,SmallCompany.router4.ppp[0].queue,0,0,NaN,NaN,35800,36802400
minStream-3-20180107-14:42:36-9094,3,SmallCompany.router4.ppp[1].queue,0,0,NaN,NaN,0,0
minStream-3-20180107-14:42:36-9094,3,SmallCompany.router4.ppp[2].queue,0,0,NaN,NaN,0,0
minStream-3-20180107-14:42:36-9094,3,SmallCompany.router5.ppp[0].queue,0,0,NaN,NaN,35800,36802400
minStream-3-20180107-14:42:36-9094,3,SmallCompany.router5.ppp[1].queue,0,0,NaN,NaN,0,0
minStream-3-20180107-14:42:36-9094,3,SmallCompany.router5.ppp[2].queue,0,0,NaN,NaN,0,0
minStream-7-20180107-14:42:42-9198,7,SmallCompany.router1.ppp[0].queue,0,0,NaN,NaN,71600,73604800
minStream-7-20180107-14:42:42-9198,7,SmallCompany.router2.ppp[0].queue,0,0,NaN,NaN,0,0
minStream-7-20180107-14:42:42-9198,7,SmallCompany.router2.ppp[1].queue,0,0,NaN,NaN,35800,36802400
minStream-7-20180107-14:42:42-9198,7,SmallCompany.router2.ppp[2].queue,0,0,NaN,NaN,35800,36802400
minStream-7-20180107-14:42:42-9198,7,SmallCompany.router3.ppp[0].queue,0,0,NaN,NaN,0,0
minStream-7-20180107-14:42:42-9198,7,SmallCompany.router3.ppp[1].queue,0,0,NaN,NaN,35800,36802400
minStream-7-20180107-14:42:42-9198,7,SmallCompany.router4.ppp[0].queue,0,0,NaN,NaN,35800,36802400
minStream-7-20180107-14:42:42-9198,7,SmallCompany.router4.ppp[1].queue,0,0,NaN,NaN,0,0
minStream-7-20180107-14:42:42-9198,7,SmallCompany.router4.ppp[2].queue,0,0,NaN,NaN,0,0
minStream-7-20180107-14:42:42-9198,7,SmallCompany.router5.ppp[0].queue,0,0,NaN,NaN,35800,36802400
minStream-7-20180107-14:42:42-9198,7,SmallCompany.router5.ppp[1].queue,0,0,NaN,NaN,0,0
minStream-7-20180107-14:42:42-9198,7,SmallCompany.router5.ppp[2].queue,0,0,NaN,NaN,0,0
minStream-1-20180107-14:42:36-9093,1,SmallCompany.router1.ppp[0].queue,0,0,NaN,NaN,71600,73604800
minStream-1-20180107-14:42:36-9093,1,SmallCompany.router2.ppp[0].queue,0,0,NaN,NaN,0,0
minStream-1-20180107-14:42:36-9093,1,SmallCompany.router2.ppp[1].queue,0,0,NaN,NaN,35800,36802400
minStream-1-20180107-14:42:36-9093,1,SmallCompany.router2.ppp[2].queue,0,0,NaN,NaN,35800,36802400
minStream-1-20180107-14:42:36-9093,1,SmallCompany.router3.ppp[0].queue,0,0,NaN,NaN,0,0
minStream-1-20180107-14:42:36-9093,1,SmallCompany.router3.ppp[1].queue,0,0,NaN,NaN,35800,36802400
minStream-1-20180107-14:42:36-9093,1,SmallCompany.router4.ppp[0].queue,0,0,NaN,NaN,35800,36802400
minStream-1-20180107-14:42:36-9093,1,SmallCompany.router4.ppp[1].queue,0,0,NaN,NaN,0,0
minStream-1-20180107-14:42:36-9093,1,SmallCompany.router4.ppp[2].queue,0,0,NaN,NaN,0,0
minStream-1-20180107-14:42:36-9093,1,SmallCompany.router5.ppp[0].queue,0,0,NaN,NaN,35800,36802400
minStream-1-20180107-14:42:36-9093,1,SmallCompany.router5.ppp[1].queue,0,0,NaN,NaN,0,0
minStream-1-20180107-14:42:36-9093,1,SmallCompany.router5.ppp[2].queue,0,0,NaN,NaN,0,0
minStream-8-20180107-14:42:44-9210,8,SmallCompany.router1.ppp[0].queue,0,0,NaN,NaN,71600,73604800
minStream-8-20180107-14:42:44-9210,8,SmallCompany.router2.ppp[0].queue,0,0,NaN,NaN,0,0
minStream-8-20180107-14:42:44-9210,8,SmallCompany.router2.ppp[1].queue,0,0,NaN,NaN,35800,36802400
minStream-8-20180107-14:42:44-9210,8,SmallCompany.router2.ppp[2].queue,0,0,NaN,NaN,35800,36802400
minStream-8-20180107-14:42:44-9210,8,SmallCompany.router3.ppp[0].queue,0,0,NaN,NaN,0,0
minStream-8-20180107-14:42:44-9210,8,SmallCompany.router3.ppp[1].queue,0,0,NaN,NaN,35800,36802400
minStream-8-20180107-14:42:44-9210,8,SmallCompany.router4.ppp[0].queue,0,0,NaN,NaN,35800,36802400
minStream-8-20180107-14:42:44-9210,8,SmallCompany.router4.ppp[1].queue,0,0,NaN,NaN,0,0
minStream-8-20180107-14:42:44-9210,8,SmallCompany.router4.ppp[2].queue,0,0,NaN,NaN,0,0
minStream-8-20180107-14:42:44-9210,8,SmallCompany.router5.ppp[0].queue,0,0,NaN,NaN,35800,36802400
minStream-8-20180107-14:42:44-9210,8,SmallCompany.router5.ppp[1].queue,0,0,NaN,NaN,0,0
minStream-8-20180107-14:42:44-9210,8,SmallCompany.router5.ppp[2].queue,0,0,NaN,NaN,0,0
minStream-2-20180107-14:42:36-9091,2,SmallCompany.router1.ppp[0].queue,0,0,NaN,NaN,71600,73604800
minStream-2-20180107-14:42:36-9091,2,SmallCompany.router2.ppp[0].queue,0,0,NaN,NaN,0,0
minStream-2-20180107-14:42:36-9091,2,SmallCompany.router2.ppp[1].queue,0,0,NaN,NaN,35800,36802400
minStream-2-20180107-14:42:36-9091,2,SmallCompany.router2.ppp[2].queue,0,0,NaN,NaN,35800,36802400
minStream-2-20180107-14:42:36-9091,2,SmallCompany.router3.ppp[0].queue,0,0,NaN,NaN,0,0
minStream-2-20180107-14:42:36-9091,2,SmallCompany.router3.ppp[1].queue,0,0,NaN,NaN,35800,36802400
minStream-2-20180107-14:42:36-9091,2,SmallCompany.router4.ppp[0].queue,0,0,NaN,NaN,35800,36802400
minStream-2-20180107-14:42:36-9091,2,SmallCompany.router4.ppp[1].queue,0,0,NaN,NaN,0,0
minStream-2-20180107-14:42:36-9091,2,SmallCompany.router4.ppp[2].queue,0,0,NaN,NaN,0,0
minStream-2-20180107-14:42:36-9091,2,SmallCompany.router5.ppp[0].queue,0,0,NaN,NaN,35800,36802400
minStream-2-20180107-14:42:36-9091,2,SmallCompany.router5.ppp[1].queue,0,0,NaN,NaN,0,0
minStream-2-20180107-14:42:36-9091,2,SmallCompany.router5.ppp[2].queue,0,0,NaN,NaN,0,0
minStream-5-20180107-14:42:36-9096,5,SmallCompany.router1.ppp[0].queue,0,0,NaN,NaN,71600,73604800
minStream-5-20180107-14:42:36-9096,5,SmallCompany.router2.ppp[0].queue,0,0,NaN,NaN,0,0
minStream-5-20180107-14:42:36-9096,5,SmallCompany.router2.ppp[1].queue,0,0,NaN,NaN,35800,36802400
minStream-5-20180107-14:42:36-9096,5,SmallCompany.router2.ppp[2].queue,0,0,NaN,NaN,35800,36802400
minStream-5-20180107-14:42:36-9096,5,SmallCompany.router3.ppp[0].queue,0,0,NaN,NaN,0,0
minStream-5-20180107-14:42:36-9096,5,SmallCompany.router3.ppp[1].queue,0,0,NaN,NaN,35800,36802400
minStream-5-20180107-14:42:36-9096,5,SmallCompany.router4.ppp[0].queue,0,0,NaN,NaN,35800,36802400
minStream-5-20180107-14:42:36-9096,5,SmallCompany.router4.ppp[1].queue,0,0,NaN,NaN,0,0
minStream-5-20180107-14:42:36-9096,5,SmallCompany.router4.ppp[2].queue,0,0,NaN,NaN,0,0
minStream-5-20180107-14:42:36-9096,5,SmallCompany.router5.ppp[0].queue,0,0,NaN,NaN,35800,36802400
minStream-5-20180107-14:42:36-9096,5,SmallCompany.router5.ppp[1].queue,0,0,NaN,NaN,0,0
minStream-5-20180107-14:42:36-9096,5,SmallCompany.router5.ppp[2].queue,0,0,NaN,NaN,0,0
minStream-0-20180107-14:42:36-9092,0,SmallCompany.router1.ppp[0].queue,0,0,NaN,NaN,71600,73604800
minStream-0-20180107-14:42:36-9092,0,SmallCompany.router2.ppp[0].queue,0,0,NaN,NaN,0,0
minStream-0-20180107-14:42:36-9092,0,SmallCompany.router2.ppp[1].queue,0,0,NaN,NaN,35800,36802400
minStream-0-20180107-14:42:36-9092,0,SmallCompany.router2.ppp[2].queue,0,0,NaN,NaN,35800,36802400
minStream-0-20180107-14:42:36-9092,0,SmallCompany.router3.ppp[0].queue,0,0,NaN,NaN,0,0
minStream-0-20180107-14:42:36-9092,0,SmallCompany.router3.ppp[1].queue,0,0,NaN,NaN,35800,36802400
minStream-0-20180107-14:42:36-9092,0,SmallCompany.router4.ppp[0].queue,0,0,NaN,NaN,35800,36802400
minStream-0-20180107-14:42:36-9092,0,SmallCompany.router4.ppp[1].queue,0,0,NaN,NaN,0,0
minStream-0-20180107-14:42:36-9092,0,SmallCompany.router4.ppp[2].queue,0,0,NaN,NaN,0,0
minStream-0-20180107-14:42:36-9092,0,SmallCompany.router5.ppp[0].queue,0,0,NaN,NaN,35800,36802400
minStream-0-20180107-14:42:36-9092,0,SmallCompany.router5.ppp[1].queue,0,0,NaN,NaN,0,0
minStream-0-20180107-14:42:36-9092,0,SmallCompany.router5.ppp[2].queue,0,0,NaN,NaN,0,0
minStream-6-20180107-14:42:42-9186,6,SmallCompany.router1.ppp[0].queue,0,0,NaN,NaN,71600,73604800
minStream-6-20180107-14:42:42-9186,6,SmallCompany.router2.ppp[0].queue,0,0,NaN,NaN,0,0
minStream-6-20180107-14:42:42-9186,6,SmallCompany.router2.ppp[1].queue,0,0,NaN,NaN,35800,36802400
minStream-6-20180107-14:42:42-9186,6,SmallCompany.router2.ppp[2].queue,0,0,NaN,NaN,35800,36802400
minStream-6-20180107-14:42:42-9186,6,SmallCompany.router3.ppp[0].queue,0,0,NaN,NaN,0,0
minStream-6-20180107-14:42:42-9186,6,SmallCompany.router3.ppp[1].queue,0,0,NaN,NaN,35800,36802400
minStream-6-20180107-14:42:42-9186,6,SmallCompany.router4.ppp[0].queue,0,0,NaN,NaN,35800,36802400
minStream-6-20180107-14:42:42-9186,6,SmallCompany.router4.ppp[1].queue,0,0,NaN,NaN,0,0
minStream-6-20180107-14:42:42-9186,6,SmallCompany.router4.ppp[2].queue,0,0,NaN,NaN,0,0
minStream-6-20180107-14:42:42-9186,6,SmallCompany.router5.ppp[0].queue,0,0,NaN,NaN,35800,36802400
minStream-6-20180107-14:42:42-9186,6,SmallCompany.router5.ppp[1].queue,0,0,NaN,NaN,0,0
minStream-6-20180107-14:42:42-9186,6,SmallCompany.router5.ppp[2].queue,0,0,NaN,NaN,0,0
minStream-9-20180107-14:42:45-9222,9,SmallCompany.router1.ppp[0].queue,0,0,NaN,NaN,71600,73604800
minStream-9-20180107-14:42:45-9222,9,SmallCompany.router2.ppp[0].queue,0,0,NaN,NaN,0,0
minStream-9-20180107-14:42:45-9222,9,SmallCompany.router2.ppp[1].queue,0,0,NaN,NaN,35800,36802400
minStream-9-20180107-14:42:45-9222,9,SmallCompany.router2.ppp[2].queue,0,0,NaN,NaN,35800,36802400
minStream-9-20180107-14:42:45-9222,9,SmallCompany.router3.ppp[0].queue,0,0,NaN,NaN,0,0
minStream-9-20180107-14:42:45-9222,9,SmallCompany.router3.ppp[1].queue,0,0,NaN,NaN,35800,36802400
minStream-9-20180107-14:42:45-9222,9,SmallCompany.router4.ppp[0].queue,0,0,NaN,NaN,35800,36802400
minStream-9-20180107-14:42:45-9222,9,SmallCompany.router4.ppp[1].queue,0,0,NaN,NaN,0,0
minStream-9-20180107-14:42:45-9222,9,SmallCompany.router4.ppp[2].queue,0,0,NaN,NaN,0,0
minStream-9-20180107-14:42:45-9222,9,SmallCompany.router5.ppp[0].queue,0,0,NaN,NaN,35800,36802400
minStream-9-20180107-14:42:45-9222,9,SmallCompany.router5.ppp[1].queue,0,0,NaN,NaN,0,0
minStream-9-20180107-14:42:45-9222,9,SmallCompany.router5.ppp[2].queue,0,0,NaN,NaN,0,0

**** HISTOGRAMS ****
run,repetition,module,name,count,sumweights,mean,stddev,min,max,rowtype,data...
minStream-4-20180107-14:42:36-9095,4,SmallCompany.router1.ppp[0].queue,queueingTime:histogram,71600,,0,0,0,0,bins,-Inf,-0.5,-0.46666666666667,-0.43333333333333,-0.4,-0.36666666666667,-0.33333333333333,-0.3,-0.26666666666667,-0.23333333333333,-0.2,-0.16666666666667,-0.13333333333333,-0.1,-0.066666666666667,-0.033333333333333,-6.9388939039072e-18,0.033333333333333,0.066666666666667,0.1,0.13333333333333,0.16666666666667,0.2,0.23333333333333,0.26666666666667,0.3,0.33333333333333,0.36666666666667,0.4,0.43333333333333,0.46666666666667,0.5
minStream-4-20180107-14:42:36-9095,4,SmallCompany.router1.ppp[0].queue,queueingTime:histogram,,,,,,,,counters,0,0,0,0,0,0,0,0,0,0,0,0,0,0,0,0,71600,0,0,0,0,0,0,0,0,0,0,0,0,0,0,0
minStream-4-20180107-14:42:36-9095,4,SmallCompany.router2.ppp[0].queue,queueingTime:histogram,0,,NaN,NaN,NaN,NaN,bins,-Inf,-0.5,-0.46666666666667,-0.43333333333333,-0.4,-0.36666666666667,-0.33333333333333,-0.3,-0.26666666666667,-0.23333333333333,-0.2,-0.16666666666667,-0.13333333333333,-0.1,-0.066666666666667,-0.033333333333333,-6.9388939039072e-18,0.033333333333333,0.066666666666667,0.1,0.13333333333333,0.16666666666667,0.2,0.23333333333333,0.26666666666667,0.3,0.33333333333333,0.36666666666667,0.4,0.43333333333333,0.46666666666667,0.5
minStream-4-20180107-14:42:36-9095,4,SmallCompany.router2.ppp[0].queue,queueingTime:histogram,,,,,,,,counters,0,0,0,0,0,0,0,0,0,0,0,0,0,0,0,0,0,0,0,0,0,0,0,0,0,0,0,0,0,0,0,0
minStream-4-20180107-14:42:36-9095,4,SmallCompany.router2.ppp[1].queue,queueingTime:histogram,35800,,0,0,0,0,bins,-Inf,-0.5,-0.46666666666667,-0.43333333333333,-0.4,-0.36666666666667,-0.33333333333333,-0.3,-0.26666666666667,-0.23333333333333,-0.2,-0.16666666666667,-0.13333333333333,-0.1,-0.066666666666667,-0.033333333333333,-6.9388939039072e-18,0.033333333333333,0.066666666666667,0.1,0.13333333333333,0.16666666666667,0.2,0.23333333333333,0.26666666666667,0.3,0.33333333333333,0.36666666666667,0.4,0.43333333333333,0.46666666666667,0.5
minStream-4-20180107-14:42:36-9095,4,SmallCompany.router2.ppp[1].queue,queueingTime:histogram,,,,,,,,counters,0,0,0,0,0,0,0,0,0,0,0,0,0,0,0,0,35800,0,0,0,0,0,0,0,0,0,0,0,0,0,0,0
minStream-4-20180107-14:42:36-9095,4,SmallCompany.router2.ppp[2].queue,queueingTime:histogram,35800,,0,0,0,0,bins,-Inf,-0.5,-0.46666666666667,-0.43333333333333,-0.4,-0.36666666666667,-0.33333333333333,-0.3,-0.26666666666667,-0.23333333333333,-0.2,-0.16666666666667,-0.13333333333333,-0.1,-0.066666666666667,-0.033333333333333,-6.9388939039072e-18,0.033333333333333,0.066666666666667,0.1,0.13333333333333,0.16666666666667,0.2,0.23333333333333,0.26666666666667,0.3,0.33333333333333,0.36666666666667,0.4,0.43333333333333,0.46666666666667,0.5
minStream-4-20180107-14:42:36-9095,4,SmallCompany.router2.ppp[2].queue,queueingTime:histogram,,,,,,,,counters,0,0,0,0,0,0,0,0,0,0,0,0,0,0,0,0,35800,0,0,0,0,0,0,0,0,0,0,0,0,0,0,0
minStream-4-20180107-14:42:36-9095,4,SmallCompany.router3.ppp[0].queue,queueingTime:histogram,0,,NaN,NaN,NaN,NaN,bins,-Inf,-0.5,-0.46666666666667,-0.43333333333333,-0.4,-0.36666666666667,-0.33333333333333,-0.3,-0.26666666666667,-0.23333333333333,-0.2,-0.16666666666667,-0.13333333333333,-0.1,-0.066666666666667,-0.033333333333333,-6.9388939039072e-18,0.033333333333333,0.066666666666667,0.1,0.13333333333333,0.16666666666667,0.2,0.23333333333333,0.26666666666667,0.3,0.33333333333333,0.36666666666667,0.4,0.43333333333333,0.46666666666667,0.5
minStream-4-20180107-14:42:36-9095,4,SmallCompany.router3.ppp[0].queue,queueingTime:histogram,,,,,,,,counters,0,0,0,0,0,0,0,0,0,0,0,0,0,0,0,0,0,0,0,0,0,0,0,0,0,0,0,0,0,0,0,0
minStream-4-20180107-14:42:36-9095,4,SmallCompany.router3.ppp[1].queue,queueingTime:histogram,35800,,0,0,0,0,bins,-Inf,-0.5,-0.46666666666667,-0.43333333333333,-0.4,-0.36666666666667,-0.33333333333333,-0.3,-0.26666666666667,-0.23333333333333,-0.2,-0.16666666666667,-0.13333333333333,-0.1,-0.066666666666667,-0.033333333333333,-6.9388939039072e-18,0.033333333333333,0.066666666666667,0.1,0.13333333333333,0.16666666666667,0.2,0.23333333333333,0.26666666666667,0.3,0.33333333333333,0.36666666666667,0.4,0.43333333333333,0.46666666666667,0.5
minStream-4-20180107-14:42:36-9095,4,SmallCompany.router3.ppp[1].queue,queueingTime:histogram,,,,,,,,counters,0,0,0,0,0,0,0,0,0,0,0,0,0,0,0,0,35800,0,0,0,0,0,0,0,0,0,0,0,0,0,0,0
minStream-4-20180107-14:42:36-9095,4,SmallCompany.router4.ppp[0].queue,queueingTime:histogram,35800,,0,0,0,0,bins,-Inf,-0.5,-0.46666666666667,-0.43333333333333,-0.4,-0.36666666666667,-0.33333333333333,-0.3,-0.26666666666667,-0.23333333333333,-0.2,-0.16666666666667,-0.13333333333333,-0.1,-0.066666666666667,-0.033333333333333,-6.9388939039072e-18,0.033333333333333,0.066666666666667,0.1,0.13333333333333,0.16666666666667,0.2,0.23333333333333,0.26666666666667,0.3,0.33333333333333,0.36666666666667,0.4,0.43333333333333,0.46666666666667,0.5
minStream-4-20180107-14:42:36-9095,4,SmallCompany.router4.ppp[0].queue,queueingTime:histogram,,,,,,,,counters,0,0,0,0,0,0,0,0,0,0,0,0,0,0,0,0,35800,0,0,0,0,0,0,0,0,0,0,0,0,0,0,0
minStream-4-20180107-14:42:36-9095,4,SmallCompany.router4.ppp[1].queue,queueingTime:histogram,0,,NaN,NaN,NaN,NaN,bins,-Inf,-0.5,-0.46666666666667,-0.43333333333333,-0.4,-0.36666666666667,-0.33333333333333,-0.3,-0.26666666666667,-0.23333333333333,-0.2,-0.16666666666667,-0.13333333333333,-0.1,-0.066666666666667,-0.033333333333333,-6.9388939039072e-18,0.033333333333333,0.066666666666667,0.1,0.13333333333333,0.16666666666667,0.2,0.23333333333333,0.26666666666667,0.3,0.33333333333333,0.36666666666667,0.4,0.43333333333333,0.46666666666667,0.5
minStream-4-20180107-14:42:36-9095,4,SmallCompany.router4.ppp[1].queue,queueingTime:histogram,,,,,,,,counters,0,0,0,0,0,0,0,0,0,0,0,0,0,0,0,0,0,0,0,0,0,0,0,0,0,0,0,0,0,0,0,0
minStream-4-20180107-14:42:36-9095,4,SmallCompany.router4.ppp[2].queue,queueingTime:histogram,0,,NaN,NaN,NaN,NaN,bins,-Inf,-0.5,-0.46666666666667,-0.43333333333333,-0.4,-0.36666666666667,-0.33333333333333,-0.3,-0.26666666666667,-0.23333333333333,-0.2,-0.16666666666667,-0.13333333333333,-0.1,-0.066666666666667,-0.033333333333333,-6.9388939039072e-18,0.033333333333333,0.066666666666667,0.1,0.13333333333333,0.16666666666667,0.2,0.23333333333333,0.26666666666667,0.3,0.33333333333333,0.36666666666667,0.4,0.43333333333333,0.46666666666667,0.5
minStream-4-20180107-14:42:36-9095,4,SmallCompany.router4.ppp[2].queue,queueingTime:histogram,,,,,,,,counters,0,0,0,0,0,0,0,0,0,0,0,0,0,0,0,0,0,0,0,0,0,0,0,0,0,0,0,0,0,0,0,0
minStream-4-20180107-14:42:36-9095,4,SmallCompany.router5.ppp[0].queue,queueingTime:histogram,35800,,0,0,0,0,bins,-Inf,-0.5,-0.46666666666667,-0.43333333333333,-0.4,-0.36666666666667,-0.33333333333333,-0.3,-0.26666666666667,-0.23333333333333,-0.2,-0.16666666666667,-0.13333333333333,-0.1,-0.066666666666667,-0.033333333333333,-6.9388939039072e-18,0.033333333333333,0.066666666666667,0.1,0.13333333333333,0.16666666666667,0.2,0.23333333333333,0.26666666666667,0.3,0.33333333333333,0.36666666666667,0.4,0.43333333333333,0.46666666666667,0.5
minStream-4-20180107-14:42:36-9095,4,SmallCompany.router5.ppp[0].queue,queueingTime:histogram,,,,,,,,counters,0,0,0,0,0,0,0,0,0,0,0,0,0,0,0,0,35800,0,0,0,0,0,0,0,0,0,0,0,0,0,0,0
minStream-4-20180107-14:42:36-9095,4,SmallCompany.router5.ppp[1].queue,queueingTime:histogram,0,,NaN,NaN,NaN,NaN,bins,-Inf,-0.5,-0.46666666666667,-0.43333333333333,-0.4,-0.36666666666667,-0.33333333333333,-0.3,-0.26666666666667,-0.23333333333333,-0.2,-0.16666666666667,-0.13333333333333,-0.1,-0.066666666666667,-0.033333333333333,-6.9388939039072e-18,0.033333333333333,0.066666666666667,0.1,0.13333333333333,0.16666666666667,0.2,0.23333333333333,0.26666666666667,0.3,0.33333333333333,0.36666666666667,0.4,0.43333333333333,0.46666666666667,0.5
minStream-4-20180107-14:42:36-9095,4,SmallCompany.router5.ppp[1].queue,queueingTime:histogram,,,,,,,,counters,0,0,0,0,0,0,0,0,0,0,0,0,0,0,0,0,0,0,0,0,0,0,0,0,0,0,0,0,0,0,0,0
minStream-4-20180107-14:42:36-9095,4,SmallCompany.router5.ppp[2].queue,queueingTime:histogram,0,,NaN,NaN,NaN,NaN,bins,-Inf,-0.5,-0.46666666666667,-0.43333333333333,-0.4,-0.36666666666667,-0.33333333333333,-0.3,-0.26666666666667,-0.23333333333333,-0.2,-0.16666666666667,-0.13333333333333,-0.1,-0.066666666666667,-0.033333333333333,-6.9388939039072e-18,0.033333333333333,0.066666666666667,0.1,0.13333333333333,0.16666666666667,0.2,0.23333333333333,0.26666666666667,0.3,0.33333333333333,0.36666666666667,0.4,0.43333333333333,0.46666666666667,0.5
minStream-4-20180107-14:42:36-9095,4,SmallCompany.router5.ppp[2].queue,queueingTime:histogram,,,,,,,,counters,0,0,0,0,0,0,0,0,0,0,0,0,0,0,0,0,0,0,0,0,0,0,0,0,0,0,0,0,0,0,0,0
minStream-3-20180107-14:42:36-9094,3,SmallCompany.router1.ppp[0].queue,queueingTime:histogram,71600,,2.431161e-07,7.2935339326778e-07,0,2.431161e-06,bins,-Inf,-1.2155805e-06,-1.0535031e-06,-8.914257e-07,-7.293483e-07,-5.672709e-07,-4.051935e-07,-2.431161e-07,-8.10387e-08,8.10387e-08,2.431161e-07,4.051935e-07,5.672709e-07,7.293483e-07,8.914257e-07,1.0535031e-06,1.2155805e-06,1.3776579e-06,1.5397353e-06,1.7018127e-06,1.8638901e-06,2.0259675e-06,2.1880449e-06,2.3501223e-06,2.5121997e-06,2.6742771e-06,2.8363545e-06,2.9984319e-06,3.1605093e-06,3.3225867e-06,3.4846641e-06,3.6467415e-06
minStream-3-20180107-14:42:36-9094,3,SmallCompany.router1.ppp[0].queue,queueingTime:histogram,,,,,,,,counters,0,0,0,0,0,0,0,0,64440,0,0,0,0,0,0,0,0,0,0,0,0,0,0,7160,0,0,0,0,0,0,0,0
minStream-3-20180107-14:42:36-9094,3,SmallCompany.router2.ppp[0].queue,queueingTime:histogram,0,,NaN,NaN,NaN,NaN,bins,-Inf,-0.5,-0.46666666666667,-0.43333333333333,-0.4,-0.36666666666667,-0.33333333333333,-0.3,-0.26666666666667,-0.23333333333333,-0.2,-0.16666666666667,-0.13333333333333,-0.1,-0.066666666666667,-0.033333333333333,-6.9388939039072e-18,0.033333333333333,0.066666666666667,0.1,0.13333333333333,0.16666666666667,0.2,0.23333333333333,0.26666666666667,0.3,0.33333333333333,0.36666666666667,0.4,0.43333333333333,0.46666666666667,0.5
minStream-3-20180107-14:42:36-9094,3,SmallCompany.router2.ppp[0].queue,queueingTime:histogram,,,,,,,,counters,0,0,0,0,0,0,0,0,0,0,0,0,0,0,0,0,0,0,0,0,0,0,0,0,0,0,0,0,0,0,0,0
minStream-3-20180107-14:42:36-9094,3,SmallCompany.router2.ppp[1].queue,queueingTime:histogram,35800,,0,0,0,0,bins,-Inf,-0.5,-0.46666666666667,-0.43333333333333,-0.4,-0.36666666666667,-0.33333333333333,-0.3,-0.26666666666667,-0.23333333333333,-0.2,-0.16666666666667,-0.13333333333333,-0.1,-0.066666666666667,-0.033333333333333,-6.9388939039072e-18,0.033333333333333,0.066666666666667,0.1,0.13333333333333,0.16666666666667,0.2,0.23333333333333,0.26666666666667,0.3,0.33333333333333,0.36666666666667,0.4,0.43333333333333,0.46666666666667,0.5
minStream-3-20180107-14:42:36-9094,3,SmallCompany.router2.ppp[1].queue,queueingTime:histogram,,,,,,,,counters,0,0,0,0,0,0,0,0,0,0,0,0,0,0,0,0,35800,0,0,0,0,0,0,0,0,0,0,0,0,0,0,0
minStream-3-20180107-14:42:36-9094,3,SmallCompany.router2.ppp[2].queue,queueingTime:histogram,35800,,0,0,0,0,bins,-Inf,-0.5,-0.46666666666667,-0.43333333333333,-0.4,-0.36666666666667,-0.33333333333333,-0.3,-0.26666666666667,-0.23333333333333,-0.2,-0.16666666666667,-0.13333333333333,-0.1,-0.066666666666667,-0.033333333333333,-6.9388939039072e-18,0.033333333333333,0.066666666666667,0.1,0.13333333333333,0.16666666666667,0.2,0.23333333333333,0.26666666666667,0.3,0.33333333333333,0.36666666666667,0.4,0.43333333333333,0.46666666666667,0.5
minStream-3-20180107-14:42:36-9094,3,SmallCompany.router2.ppp[2].queue,queueingTime:histogram,,,,,,,,counters,0,0,0,0,0,0,0,0,0,0,0,0,0,0,0,0,35800,0,0,0,0,0,0,0,0,0,0,0,0,0,0,0
minStream-3-20180107-14:42:36-9094,3,SmallCompany.router3.ppp[0].queue,queueingTime:histogram,0,,NaN,NaN,NaN,NaN,bins,-Inf,-0.5,-0.46666666666667,-0.43333333333333,-0.4,-0.36666666666667,-0.33333333333333,-0.3,-0.26666666666667,-0.23333333333333,-0.2,-0.16666666666667,-0.13333333333333,-0.1,-0.066666666666667,-0.033333333333333,-6.9388939039072e-18,0.033333333333333,0.066666666666667,0.1,0.13333333333333,0.16666666666667,0.2,0.23333333333333,0.26666666666667,0.3,0.33333333333333,0.36666666666667,0.4,0.43333333333333,0.46666666666667,0.5
minStream-3-20180107-14:42:36-9094,3,SmallCompany.router3.ppp[0].queue,queueingTime:histogram,,,,,,,,counters,0,0,0,0,0,0,0,0,0,0,0,0,0,0,0,0,0,0,0,0,0,0,0,0,0,0,0,0,0,0,0,0
minStream-3-20180107-14:42:36-9094,3,SmallCompany.router3.ppp[1].queue,queueingTime:histogram,35800,,0,0,0,0,bins,-Inf,-0.5,-0.46666666666667,-0.43333333333333,-0.4,-0.36666666666667,-0.33333333333333,-0.3,-0.26666666666667,-0.23333333333333,-0.2,-0.16666666666667,-0.13333333333333,-0.1,-0.066666666666667,-0.033333333333333,-6.9388939039072e-18,0.033333333333333,0.066666666666667,0.1,0.13333333333333,0.16666666666667,0.2,0.23333333333333,0.26666666666667,0.3,0.33333333333333,0.36666666666667,0.4,0.43333333333333,0.46666666666667,0.5
minStream-3-20180107-14:42:36-9094,3,SmallCompany.router3.ppp[1].queue,queueingTime:histogram,,,,,,,,counters,0,0,0,0,0,0,0,0,0,0,0,0,0,0,0,0,35800,0,0,0,0,0,0,0,0,0,0,0,0,0,0,0
minStream-3-20180107-14:42:36-9094,3,SmallCompany.router4.ppp[0].queue,queueingTime:histogram,35800,,0,0,0,0,bins,-Inf,-0.5,-0.46666666666667,-0.43333333333333,-0.4,-0.36666666666667,-0.33333333333333,-0.3,-0.26666666666667,-0.23333333333333,-0.2,-0.16666666666667,-0.13333333333333,-0.1,-0.066666666666667,-0.033333333333333,-6.9388939039072e-18,0.033333333333333,0.066666666666667,0.1,0.13333333333333,0.16666666666667,0.2,0.23333333333333,0.26666666666667,0.3,0.33333333333333,0.36666666666667,0.4,0.43333333333333,0.46666666666667,0.5
minStream-3-20180107-14:42:36-9094,3,SmallCompany.router4.ppp[0].queue,queueingTime:histogram,,,,,,,,counters,0,0,0,0,0,0,0,0,0,0,0,0,0,0,0,0,35800,0,0,0,0,0,0,0,0,0,0,0,0,0,0,0
minStream-3-20180107-14:42:36-9094,3,SmallCompany.router4.ppp[1].queue,queueingTime:histogram,0,,NaN,NaN,NaN,NaN,bins,-Inf,-0.5,-0.46666666666667,-0.43333333333333,-0.4,-0.36666666666667,-0.33333333333333,-0.3,-0.26666666666667,-0.23333333333333,-0.2,-0.16666666666667,-0.13333333333333,-0.1,-0.066666666666667,-0.033333333333333,-6.9388939039072e-18,0.033333333333333,0.066666666666667,0.1,0.13333333333333,0.16666666666667,0.2,0.23333333333333,0.26666666666667,0.3,0.33333333333333,0.36666666666667,0.4,0.43333333333333,0.46666666666667,0.5
minStream-3-20180107-14:42:36-9094,3,SmallCompany.router4.ppp[1].queue,queueingTime:histogram,,,,,,,,counters,0,0,0,0,0,0,0,0,0,0,0,0,0,0,0,0,0,0,0,0,0,0,0,0,0,0,0,0,0,0,0,0
minStream-3-20180107-14:42:36-9094,3,SmallCompany.router4.ppp[2].queue,queueingTime:histogram,0,,NaN,NaN,NaN,NaN,bins,-Inf,-0.5,-0.46666666666667,-0.43333333333333,-0.4,-0.36666666666667,-0.33333333333333,-0.3,-0.26666666666667,-0.23333333333333,-0.2,-0.16666666666667,-0.13333333333333,-0.1,-0.066666666666667,-0.033333333333333,-6.9388939039072e-18,0.033333333333333,0.066666666666667,0.1,0.13333333333333,0.16666666666667,0.2,0.23333333333333,0.26666666666667,0.3,0.33333333333333,0.36666666666667,0.4,0.43333333333333,0.46666666666667,0.5
minStream-3-20180107-14:42:36-9094,3,SmallCompany.router4.ppp[2].queue,queueingTime:histogram,,,,,,,,counters,0,0,0,0,0,0,0,0,0,0,0,0,0,0,0,0,0,0,0,0,0,0,0,0,0,0,0,0,0,0,0,0
minStream-3-20180107-14:42:36-9094,3,SmallCompany.router5.ppp[0].queue,queueingTime:histogram,35800,,0,0,0,0,bins,-Inf,-0.5,-0.46666666666667,-0.43333333333333,-0.4,-0.36666666666667,-0.33333333333333,-0.3,-0.26666666666667,-0.23333333333333,-0.2,-0.16666666666667,-0.13333333333333,-0.1,-0.066666666666667,-0.033333333333333,-6.9388939039072e-18,0.033333333333333,0.066666666666667,0.1,0.13333333333333,0.16666666666667,0.2,0.23333333333333,0.26666666666667,0.3,0.33333333333333,0.36666666666667,0.4,0.43333333333333,0.46666666666667,0.5
minStream-3-20180107-14:42:36-9094,3,SmallCompany.router5.ppp[0].queue,queueingTime:histogram,,,,,,,,counters,0,0,0,0,0,0,0,0,0,0,0,0,0,0,0,0,35800,0,0,0,0,0,0,0,0,0,0,0,0,0,0,0
minStream-3-20180107-14:42:36-9094,3,SmallCompany.router5.ppp[1].queue,queueingTime:histogram,0,,NaN,NaN,NaN,NaN,bins,-Inf,-0.5,-0.46666666666667,-0.43333333333333,-0.4,-0.36666666666667,-0.33333333333333,-0.3,-0.26666666666667,-0.23333333333333,-0.2,-0.16666666666667,-0.13333333333333,-0.1,-0.066666666666667,-0.033333333333333,-6.9388939039072e-18,0.033333333333333,0.066666666666667,0.1,0.13333333333333,0.16666666666667,0.2,0.23333333333333,0.26666666666667,0.3,0.33333333333333,0.36666666666667,0.4,0.43333333333333,0.46666666666667,0.5
minStream-3-20180107-14:42:36-9094,3,SmallCompany.router5.ppp[1].queue,queueingTime:histogram,,,,,,,,counters,0,0,0,0,0,0,0,0,0,0,0,0,0,0,0,0,0,0,0,0,0,0,0,0,0,0,0,0,0,0,0,0
minStream-3-20180107-14:42:36-9094,3,SmallCompany.router5.ppp[2].queue,queueingTime:histogram,0,,NaN,NaN,NaN,NaN,bins,-Inf,-0.5,-0.46666666666667,-0.43333333333333,-0.4,-0.36666666666667,-0.33333333333333,-0.3,-0.26666666666667,-0.23333333333333,-0.2,-0.16666666666667,-0.13333333333333,-0.1,-0.066666666666667,-0.033333333333333,-6.9388939039072e-18,0.033333333333333,0.066666666666667,0.1,0.13333333333333,0.16666666666667,0.2,0.23333333333333,0.26666666666667,0.3,0.33333333333333,0.36666666666667,0.4,0.43333333333333,0.46666666666667,0.5
minStream-3-20180107-14:42:36-9094,3,SmallCompany.router5.ppp[2].queue,queueingTime:histogram,,,,,,,,counters,0,0,0,0,0,0,0,0,0,0,0,0,0,0,0,0,0,0,0,0,0,0,0,0,0,0,0,0,0,0,0,0
minStream-7-20180107-14:42:42-9198,7,SmallCompany.router1.ppp[0].queue,queueingTime:histogram,71600,,0,0,0,0,bins,-Inf,-0.5,-0.46666666666667,-0.43333333333333,-0.4,-0.36666666666667,-0.33333333333333,-0.3,-0.26666666666667,-0.23333333333333,-0.2,-0.16666666666667,-0.13333333333333,-0.1,-0.066666666666667,-0.033333333333333,-6.9388939039072e-18,0.033333333333333,0.066666666666667,0.1,0.13333333333333,0.16666666666667,0.2,0.23333333333333,0.26666666666667,0.3,0.33333333333333,0.36666666666667,0.4,0.43333333333333,0.46666666666667,0.5
minStream-7-20180107-14:42:42-9198,7,SmallCompany.router1.ppp[0].queue,queueingTime:histogram,,,,,,,,counters,0,0,0,0,0,0,0,0,0,0,0,0,0,0,0,0,71600,0,0,0,0,0,0,0,0,0,0,0,0,0,0,0
minStream-7-20180107-14:42:42-9198,7,SmallCompany.router2.ppp[0].queue,queueingTime:histogram,0,,NaN,NaN,NaN,NaN,bins,-Inf,-0.5,-0.46666666666667,-0.43333333333333,-0.4,-0.36666666666667,-0.33333333333333,-0.3,-0.26666666666667,-0.23333333333333,-0.2,-0.16666666666667,-0.13333333333333,-0.1,-0.066666666666667,-0.033333333333333,-6.9388939039072e-18,0.033333333333333,0.066666666666667,0.1,0.13333333333333,0.16666666666667,0.2,0.23333333333333,0.26666666666667,0.3,0.33333333333333,0.36666666666667,0.4,0.43333333333333,0.46666666666667,0.5
minStream-7-20180107-14:42:42-9198,7,SmallCompany.router2.ppp[0].queue,queueingTime:histogram,,,,,,,,counters,0,0,0,0,0,0,0,0,0,0,0,0,0,0,0,0,0,0,0,0,0,0,0,0,0,0,0,0,0,0,0,0
minStream-7-20180107-14:42:42-9198,7,SmallCompany.router2.ppp[1].queue,queueingTime:histogram,35800,,0,0,0,0,bins,-Inf,-0.5,-0.46666666666667,-0.43333333333333,-0.4,-0.36666666666667,-0.33333333333333,-0.3,-0.26666666666667,-0.23333333333333,-0.2,-0.16666666666667,-0.13333333333333,-0.1,-0.066666666666667,-0.033333333333333,-6.9388939039072e-18,0.033333333333333,0.066666666666667,0.1,0.13333333333333,0.16666666666667,0.2,0.23333333333333,0.26666666666667,0.3,0.33333333333333,0.36666666666667,0.4,0.43333333333333,0.46666666666667,0.5
minStream-7-20180107-14:42:42-9198,7,SmallCompany.router2.ppp[1].queue,queueingTime:histogram,,,,,,,,counters,0,0,0,0,0,0,0,0,0,0,0,0,0,0,0,0,35800,0,0,0,0,0,0,0,0,0,0,0,0,0,0,0
minStream-7-20180107-14:42:42-9198,7,SmallCompany.router2.ppp[2].queue,queueingTime:histogram,35800,,0,0,0,0,bins,-Inf,-0.5,-0.46666666666667,-0.43333333333333,-0.4,-0.36666666666667,-0.33333333333333,-0.3,-0.26666666666667,-0.23333333333333,-0.2,-0.16666666666667,-0.13333333333333,-0.1,-0.066666666666667,-0.033333333333333,-6.9388939039072e-18,0.033333333333333,0.066666666666667,0.1,0.13333333333333,0.16666666666667,0.2,0.23333333333333,0.26666666666667,0.3,0.33333333333333,0.36666666666667,0.4,0.43333333333333,0.46666666666667,0.5
minStream-7-20180107-14:42:42-9198,7,SmallCompany.router2.ppp[2].queue,queueingTime:histogram,,,,,,,,counters,0,0,0,0,0,0,0,0,0,0,0,0,0,0,0,0,35800,0,0,0,0,0,0,0,0,0,0,0,0,0,0,0
minStream-7-20180107-14:42:42-9198,7,SmallCompany.router3.ppp[0].queue,queueingTime:histogram,0,,NaN,NaN,NaN,NaN,bins,-Inf,-0.5,-0.46666666666667,-0.43333333333333,-0.4,-0.36666666666667,-0.33333333333333,-0.3,-0.26666666666667,-0.23333333333333,-0.2,-0.16666666666667,-0.13333333333333,-0.1,-0.066666666666667,-0.033333333333333,-6.9388939039072e-18,0.033333333333333,0.066666666666667,0.1,0.13333333333333,0.16666666666667,0.2,0.23333333333333,0.26666666666667,0.3,0.33333333333333,0.36666666666667,0.4,0.43333333333333,0.46666666666667,0.5
minStream-7-20180107-14:42:42-9198,7,SmallCompany.router3.ppp[0].queue,queueingTime:histogram,,,,,,,,counters,0,0,0,0,0,0,0,0,0,0,0,0,0,0,0,0,0,0,0,0,0,0,0,0,0,0,0,0,0,0,0,0
minStream-7-20180107-14:42:42-9198,7,SmallCompany.router3.ppp[1].queue,queueingTime:histogram,35800,,0,0,0,0,bins,-Inf,-0.5,-0.46666666666667,-0.43333333333333,-0.4,-0.36666666666667,-0.33333333333333,-0.3,-0.26666666666667,-0.23333333333333,-0.2,-0.16666666666667,-0.13333333333333,-0.1,-0.066666666666667,-0.033333333333333,-6.9388939039072e-18,0.033333333333333,0.066666666666667,0.1,0.13333333333333,0.16666666666667,0.2,0.23333333333333,0.26666666666667,0.3,0.33333333333333,0.36666666666667,0.4,0.43333333333333,0.46666666666667,0.5
minStream-7-20180107-14:42:42-9198,7,SmallCompany.router3.ppp[1].queue,queueingTime:histogram,,,,,,,,counters,0,0,0,0,0,0,0,0,0,0,0,0,0,0,0,0,35800,0,0,0,0,0,0,0,0,0,0,0,0,0,0,0
minStream-7-20180107-14:42:42-9198,7,SmallCompany.router4.ppp[0].queue,queueingTime:histogram,35800,,0,0,0,0,bins,-Inf,-0.5,-0.46666666666667,-0.43333333333333,-0.4,-0.36666666666667,-0.33333333333333,-0.3,-0.26666666666667,-0.23333333333333,-0.2,-0.16666666666667,-0.13333333333333,-0.1,-0.066666666666667,-0.033333333333333,-6.9388939039072e-18,0.033333333333333,0.066666666666667,0.1,0.13333333333333,0.16666666666667,0.2,0.23333333333333,0.26666666666667,0.3,0.33333333333333,0.36666666666667,0.4,0.43333333333333,0.46666666666667,0.5
minStream-7-20180107-14:42:42-9198,7,SmallCompany.router4.ppp[0].queue,queueingTime:histogram,,,,,,,,counters,0,0,0,0,0,0,0,0,0,0,0,0,0,0,0,0,35800,0,0,0,0,0,0,0,0,0,0,0,0,0,0,0
minStream-7-20180107-14:42:42-9198,7,SmallCompany.router4.ppp[1].queue,queueingTime:histogram,0,,NaN,NaN,NaN,NaN,bins,-Inf,-0.5,-0.46666666666667,-0.43333333333333,-0.4,-0.36666666666667,-0.33333333333333,-0.3,-0.26666666666667,-0.23333333333333,-0.2,-0.16666666666667,-0.13333333333333,-0.1,-0.066666666666667,-0.033333333333333,-6.9388939039072e-18,0.033333333333333,0.066666666666667,0.1,0.13333333333333,0.16666666666667,0.2,0.23333333333333,0.26666666666667,0.3,0.33333333333333,0.36666666666667,0.4,0.43333333333333,0.46666666666667,0.5
minStream-7-20180107-14:42:42-9198,7,SmallCompany.router4.ppp[1].queue,queueingTime:histogram,,,,,,,,counters,0,0,0,0,0,0,0,0,0,0,0,0,0,0,0,0,0,0,0,0,0,0,0,0,0,0,0,0,0,0,0,0
minStream-7-20180107-14:42:42-9198,7,SmallCompany.router4.ppp[2].queue,queueingTime:histogram,0,,NaN,NaN,NaN,NaN,bins,-Inf,-0.5,-0.46666666666667,-0.43333333333333,-0.4,-0.36666666666667,-0.33333333333333,-0.3,-0.26666666666667,-0.23333333333333,-0.2,-0.16666666666667,-0.13333333333333,-0.1,-0.066666666666667,-0.033333333333333,-6.9388939039072e-18,0.033333333333333,0.066666666666667,0.1,0.13333333333333,0.16666666666667,0.2,0.23333333333333,0.26666666666667,0.3,0.33333333333333,0.36666666666667,0.4,0.43333333333333,0.46666666666667,0.5
minStream-7-20180107-14:42:42-9198,7,SmallCompany.router4.ppp[2].queue,queueingTime:histogram,,,,,,,,counters,0,0,0,0,0,0,0,0,0,0,0,0,0,0,0,0,0,0,0,0,0,0,0,0,0,0,0,0,0,0,0,0
minStream-7-20180107-14:42:42-9198,7,SmallCompany.router5.ppp[0].queue,queueingTime:histogram,35800,,0,0,0,0,bins,-Inf,-0.5,-0.46666666666667,-0.43333333333333,-0.4,-0.36666666666667,-0.33333333333333,-0.3,-0.26666666666667,-0.23333333333333,-0.2,-0.16666666666667,-0.13333333333333,-0.1,-0.066666666666667,-0.033333333333333,-6.9388939039072e-18,0.033333333333333,0.066666666666667,0.1,0.13333333333333,0.16666666666667,0.2,0.23333333333333,0.26666666666667,0.3,0.33333333333333,0.36666666666667,0.4,0.43333333333333,0.46666666666667,0.5
minStream-7-20180107-14:42:42-9198,7,SmallCompany.router5.ppp[0].queue,queueingTime:histogram,,,,,,,,counters,0,0,0,0,0,0,0,0,0,0,0,0,0,0,0,0,35800,0,0,0,0,0,0,0,0,0,0,0,0,0,0,0
minStream-7-20180107-14:42:42-9198,7,SmallCompany.router5.ppp[1].queue,queueingTime:histogram,0,,NaN,NaN,NaN,NaN,bins,-Inf,-0.5,-0.46666666666667,-0.43333333333333,-0.4,-0.36666666666667,-0.33333333333333,-0.3,-0.26666666666667,-0.23333333333333,-0.2,-0.16666666666667,-0.13333333333333,-0.1,-0.066666666666667,-0.033333333333333,-6.9388939039072e-18,0.033333333333333,0.066666666666667,0.1,0.13333333333333,0.16666666666667,0.2,0.23333333333333,0.26666666666667,0.3,0.33333333333333,0.36666666666667,0.4,0.43333333333333,0.46666666666667,0.5
minStream-7-20180107-14:42:42-9198,7,SmallCompany.router5.ppp[1].queue,queueingTime:histogram,,,,,,,,counters,0,0,0,0,0,0,0,0,0,0,0,0,0,0,0,0,0,0,0,0,0,0,0,0,0,0,0,0,0,0,0,0
minStream-7-20180107-14:42:42-9198,7,SmallCompany.router5.ppp[2].queue,queueingTime:histogram,0,,NaN,NaN,NaN,NaN,bins,-Inf,-0.5,-0.46666666666667,-0.43333333333333,-0.4,-0.36666666666667,-0.33333333333333,-0.3,-0.26666666666667,-0.23333333333333,-0.2,-0.16666666666667,-0.13333333333333,-0.1,-0.066666666666667,-0.033333333333333,-6.9388939039072e-18,0.033333333333333,0.066666666666667,0.1,0.13333333333333,0.16666666666667,0.2,0.23333333333333,0.26666666666667,0.3,0.33333333333333,0.36666666666667,0.4,0.43333333333333,0.46666666666667,0.5
minStream-7-20180107-14:42:42-9198,7,SmallCompany.router5.ppp[2].queue,queueingTime:histogram,,,,,,,,counters,0,0,0,0,0,0,0,0,0,0,0,0,0,0,0,0,0,0,0,0,0,0,0,0,0,0,0,0,0,0,0,0
minStream-1-20180107-14:42:36-9093,1,SmallCompany.router1.ppp[0].queue,queueingTime:histogram,71600,,0,0,0,0,bins,-Inf,-0.5,-0.46666666666667,-0.43333333333333,-0.4,-0.36666666666667,-0.33333333333333,-0.3,-0.26666666666667,-0.23333333333333,-0.2,-0.16666666666667,-0.13333333333333,-0.1,-0.066666666666667,-0.033333333333333,-6.9388939039072e-18,0.033333333333333,0.066666666666667,0.1,0.13333333333333,0.16666666666667,0.2,0.23333333333333,0.26666666666667,0.3,0.33333333333333,0.36666666666667,0.4,0.43333333333333,0.46666666666667,0.5
minStream-1-20180107-14:42:36-9093,1,SmallCompany.router1.ppp[0].queue,queueingTime:histogram,,,,,,,,counters,0,0,0,0,0,0,0,0,0,0,0,0,0,0,0,0,71600,0,0,0,0,0,0,0,0,0,0,0,0,0,0,0
minStream-1-20180107-14:42:36-9093,1,SmallCompany.router2.ppp[0].queue,queueingTime:histogram,0,,NaN,NaN,NaN,NaN,bins,-Inf,-0.5,-0.46666666666667,-0.43333333333333,-0.4,-0.36666666666667,-0.33333333333333,-0.3,-0.26666666666667,-0.23333333333333,-0.2,-0.16666666666667,-0.13333333333333,-0.1,-0.066666666666667,-0.033333333333333,-6.9388939039072e-18,0.033333333333333,0.066666666666667,0.1,0.13333333333333,0.16666666666667,0.2,0.23333333333333,0.26666666666667,0.3,0.33333333333333,0.36666666666667,0.4,0.43333333333333,0.46666666666667,0.5
minStream-1-20180107-14:42:36-9093,1,SmallCompany.router2.ppp[0].queue,queueingTime:histogram,,,,,,,,counters,0,0,0,0,0,0,0,0,0,0,0,0,0,0,0,0,0,0,0,0,0,0,0,0,0,0,0,0,0,0,0,0
minStream-1-20180107-14:42:36-9093,1,SmallCompany.router2.ppp[1].queue,queueingTime:histogram,35800,,0,0,0,0,bins,-Inf,-0.5,-0.46666666666667,-0.43333333333333,-0.4,-0.36666666666667,-0.33333333333333,-0.3,-0.26666666666667,-0.23333333333333,-0.2,-0.16666666666667,-0.13333333333333,-0.1,-0.066666666666667,-0.033333333333333,-6.9388939039072e-18,0.033333333333333,0.066666666666667,0.1,0.13333333333333,0.16666666666667,0.2,0.23333333333333,0.26666666666667,0.3,0.33333333333333,0.36666666666667,0.4,0.43333333333333,0.46666666666667,0.5
minStream-1-20180107-14:42:36-9093,1,SmallCompany.router2.ppp[1].queue,queueingTime:histogram,,,,,,,,counters,0,0,0,0,0,0,0,0,0,0,0,0,0,0,0,0,35800,0,0,0,0,0,0,0,0,0,0,0,0,0,0,0
minStream-1-20180107-14:42:36-9093,1,SmallCompany.router2.ppp[2].queue,queueingTime:histogram,35800,,0,0,0,0,bins,-Inf,-0.5,-0.46666666666667,-0.43333333333333,-0.4,-0.36666666666667,-0.33333333333333,-0.3,-0.26666666666667,-0.23333333333333,-0.2,-0.16666666666667,-0.13333333333333,-0.1,-0.066666666666667,-0.033333333333333,-6.9388939039072e-18,0.033333333333333,0.066666666666667,0.1,0.13333333333333,0.16666666666667,0.2,0.23333333333333,0.26666666666667,0.3,0.33333333333333,0.36666666666667,0.4,0.43333333333333,0.46666666666667,0.5
minStream-1-20180107-14:42:36-9093,1,SmallCompany.router2.ppp[2].queue,queueingTime:histogram,,,,,,,,counters,0,0,0,0,0,0,0,0,0,0,0,0,0,0,0,0,35800,0,0,0,0,0,0,0,0,0,0,0,0,0,0,0
minStream-1-20180107-14:42:36-9093,1,SmallCompany.router3.ppp[0].queue,queueingTime:histogram,0,,NaN,NaN,NaN,NaN,bins,-Inf,-0.5,-0.46666666666667,-0.43333333333333,-0.4,-0.36666666666667,-0.33333333333333,-0.3,-0.26666666666667,-0.23333333333333,-0.2,-0.16666666666667,-0.13333333333333,-0.1,-0.066666666666667,-0.033333333333333,-6.9388939039072e-18,0.033333333333333,0.066666666666667,0.1,0.13333333333333,0.16666666666667,0.2,0.23333333333333,0.26666666666667,0.3,0.33333333333333,0.36666666666667,0.4,0.43333333333333,0.46666666666667,0.5
minStream-1-20180107-14:42:36-9093,1,SmallCompany.router3.ppp[0].queue,queueingTime:histogram,,,,,,,,counters,0,0,0,0,0,0,0,0,0,0,0,0,0,0,0,0,0,0,0,0,0,0,0,0,0,0,0,0,0,0,0,0
minStream-1-20180107-14:42:36-9093,1,SmallCompany.router3.ppp[1].queue,queueingTime:histogram,35800,,0,0,0,0,bins,-Inf,-0.5,-0.46666666666667,-0.43333333333333,-0.4,-0.36666666666667,-0.33333333333333,-0.3,-0.26666666666667,-0.23333333333333,-0.2,-0.16666666666667,-0.13333333333333,-0.1,-0.066666666666667,-0.033333333333333,-6.9388939039072e-18,0.033333333333333,0.066666666666667,0.1,0.13333333333333,0.16666666666667,0.2,0.23333333333333,0.26666666666667,0.3,0.33333333333333,0.36666666666667,0.4,0.43333333333333,0.46666666666667,0.5
minStream-1-20180107-14:42:36-9093,1,SmallCompany.router3.ppp[1].queue,queueingTime:histogram,,,,,,,,counters,0,0,0,0,0,0,0,0,0,0,0,0,0,0,0,0,35800,0,0,0,0,0,0,0,0,0,0,0,0,0,0,0
minStream-1-20180107-14:42:36-9093,1,SmallCompany.router4.ppp[0].queue,queueingTime:histogram,35800,,0,0,0,0,bins,-Inf,-0.5,-0.46666666666667,-0.43333333333333,-0.4,-0.36666666666667,-0.33333333333333,-0.3,-0.26666666666667,-0.23333333333333,-0.2,-0.16666666666667,-0.13333333333333,-0.1,-0.066666666666667,-0.033333333333333,-6.9388939039072e-18,0.033333333333333,0.066666666666667,0.1,0.13333333333333,0.16666666666667,0.2,0.23333333333333,0.26666666666667,0.3,0.33333333333333,0.36666666666667,0.4,0.43333333333333,0.46666666666667,0.5
minStream-1-20180107-14:42:36-9093,1,SmallCompany.router4.ppp[0].queue,queueingTime:histogram,,,,,,,,counters,0,0,0,0,0,0,0,0,0,0,0,0,0,0,0,0,35800,0,0,0,0,0,0,0,0,0,0,0,0,0,0,0
minStream-1-20180107-14:42:36-9093,1,SmallCompany.router4.ppp[1].queue,queueingTime:histogram,0,,NaN,NaN,NaN,NaN,bins,-Inf,-0.5,-0.46666666666667,-0.43333333333333,-0.4,-0.36666666666667,-0.33333333333333,-0.3,-0.26666666666667,-0.23333333333333,-0.2,-0.16666666666667,-0.13333333333333,-0.1,-0.066666666666667,-0.033333333333333,-6.9388939039072e-18,0.033333333333333,0.066666666666667,0.1,0.13333333333333,0.16666666666667,0.2,0.23333333333333,0.26666666666667,0.3,0.33333333333333,0.36666666666667,0.4,0.43333333333333,0.46666666666667,0.5
minStream-1-20180107-14:42:36-9093,1,SmallCompany.router4.ppp[1].queue,queueingTime:histogram,,,,,,,,counters,0,0,0,0,0,0,0,0,0,0,0,0,0,0,0,0,0,0,0,0,0,0,0,0,0,0,0,0,0,0,0,0
minStream-1-20180107-14:42:36-9093,1,SmallCompany.router4.ppp[2].queue,queueingTime:histogram,0,,NaN,NaN,NaN,NaN,bins,-Inf,-0.5,-0.46666666666667,-0.43333333333333,-0.4,-0.36666666666667,-0.33333333333333,-0.3,-0.26666666666667,-0.23333333333333,-0.2,-0.16666666666667,-0.13333333333333,-0.1,-0.066666666666667,-0.033333333333333,-6.9388939039072e-18,0.033333333333333,0.066666666666667,0.1,0.13333333333333,0.16666666666667,0.2,0.23333333333333,0.26666666666667,0.3,0.33333333333333,0.36666666666667,0.4,0.43333333333333,0.46666666666667,0.5
minStream-1-20180107-14:42:36-9093,1,SmallCompany.router4.ppp[2].queue,queueingTime:histogram,,,,,,,,counters,0,0,0,0,0,0,0,0,0,0,0,0,0,0,0,0,0,0,0,0,0,0,0,0,0,0,0,0,0,0,0,0
minStream-1-20180107-14:42:36-9093,1,SmallCompany.router5.ppp[0].queue,queueingTime:histogram,35800,,0,0,0,0,bins,-Inf,-0.5,-0.46666666666667,-0.43333333333333,-0.4,-0.36666666666667,-0.33333333333333,-0.3,-0.26666666666667,-0.23333333333333,-0.2,-0.16666666666667,-0.13333333333333,-0.1,-0.066666666666667,-0.033333333333333,-6.9388939039072e-18,0.033333333333333,0.066666666666667,0.1,0.13333333333333,0.16666666666667,0.2,0.23333333333333,0.26666666666667,0.3,0.33333333333333,0.36666666666667,0.4,0.43333333333333,0.46666666666667,0.5
minStream-1-20180107-14:42:36-9093,1,SmallCompany.router5.ppp[0].queue,queueingTime:histogram,,,,,,,,counters,0,0,0,0,0,0,0,0,0,0,0,0,0,0,0,0,35800,0,0,0,0,0,0,0,0,0,0,0,0,0,0,0
minStream-1-20180107-14:42:36-9093,1,SmallCompany.router5.ppp[1].queue,queueingTime:histogram,0,,NaN,NaN,NaN,NaN,bins,-Inf,-0.5,-0.46666666666667,-0.43333333333333,-0.4,-0.36666666666667,-0.33333333333333,-0.3,-0.26666666666667,-0.23333333333333,-0.2,-0.16666666666667,-0.13333333333333,-0.1,-0.066666666666667,-0.033333333333333,-6.9388939039072e-18,0.033333333333333,0.066666666666667,0.1,0.13333333333333,0.16666666666667,0.2,0.23333333333333,0.26666666666667,0.3,0.33333333333333,0.36666666666667,0.4,0.43333333333333,0.46666666666667,0.5
minStream-1-20180107-14:42:36-9093,1,SmallCompany.router5.ppp[1].queue,queueingTime:histogram,,,,,,,,counters,0,0,0,0,0,0,0,0,0,0,0,0,0,0,0,0,0,0,0,0,0,0,0,0,0,0,0,0,0,0,0,0
minStream-1-20180107-14:42:36-9093,1,SmallCompany.router5.ppp[2].queue,queueingTime:histogram,0,,NaN,NaN,NaN,NaN,bins,-Inf,-0.5,-0.46666666666667,-0.43333333333333,-0.4,-0.36666666666667,-0.33333333333333,-0.3,-0.26666666666667,-0.23333333333333,-0.2,-0.16666666666667,-0.13333333333333,-0.1,-0.066666666666667,-0.033333333333333,-6.9388939039072e-18,0.033333333333333,0.066666666666667,0.1,0.13333333333333,0.16666666666667,0.2,0.23333333333333,0.26666666666667,0.3,0.33333333333333,0.36666666666667,0.4,0.43333333333333,0.46666666666667,0.5
minStream-1-20180107-14:42:36-9093,1,SmallCompany.router5.ppp[2].queue,queueingTime:histogram,,,,,,,,counters,0,0,0,0,0,0,0,0,0,0,0,0,0,0,0,0,0,0,0,0,0,0,0,0,0,0,0,0,0,0,0,0
minStream-8-20180107-14:42:44-9210,8,SmallCompany.router1.ppp[0].queue,queueingTime:histogram,71600,,0,0,0,0,bins,-Inf,-0.5,-0.46666666666667,-0.43333333333333,-0.4,-0.36666666666667,-0.33333333333333,-0.3,-0.26666666666667,-0.23333333333333,-0.2,-0.16666666666667,-0.13333333333333,-0.1,-0.066666666666667,-0.033333333333333,-6.9388939039072e-18,0.033333333333333,0.066666666666667,0.1,0.13333333333333,0.16666666666667,0.2,0.23333333333333,0.26666666666667,0.3,0.33333333333333,0.36666666666667,0.4,0.43333333333333,0.46666666666667,0.5
minStream-8-20180107-14:42:44-9210,8,SmallCompany.router1.ppp[0].queue,queueingTime:histogram,,,,,,,,counters,0,0,0,0,0,0,0,0,0,0,0,0,0,0,0,0,71600,0,0,0,0,0,0,0,0,0,0,0,0,0,0,0
minStream-8-20180107-14:42:44-9210,8,SmallCompany.router2.ppp[0].queue,queueingTime:histogram,0,,NaN,NaN,NaN,NaN,bins,-Inf,-0.5,-0.46666666666667,-0.43333333333333,-0.4,-0.36666666666667,-0.33333333333333,-0.3,-0.26666666666667,-0.23333333333333,-0.2,-0.16666666666667,-0.13333333333333,-0.1,-0.066666666666667,-0.033333333333333,-6.9388939039072e-18,0.033333333333333,0.066666666666667,0.1,0.13333333333333,0.16666666666667,0.2,0.23333333333333,0.26666666666667,0.3,0.33333333333333,0.36666666666667,0.4,0.43333333333333,0.46666666666667,0.5
minStream-8-20180107-14:42:44-9210,8,SmallCompany.router2.ppp[0].queue,queueingTime:histogram,,,,,,,,counters,0,0,0,0,0,0,0,0,0,0,0,0,0,0,0,0,0,0,0,0,0,0,0,0,0,0,0,0,0,0,0,0
minStream-8-20180107-14:42:44-9210,8,SmallCompany.router2.ppp[1].queue,queueingTime:histogram,35800,,0,0,0,0,bins,-Inf,-0.5,-0.46666666666667,-0.43333333333333,-0.4,-0.36666666666667,-0.33333333333333,-0.3,-0.26666666666667,-0.23333333333333,-0.2,-0.16666666666667,-0.13333333333333,-0.1,-0.066666666666667,-0.033333333333333,-6.9388939039072e-18,0.033333333333333,0.066666666666667,0.1,0.13333333333333,0.16666666666667,0.2,0.23333333333333,0.26666666666667,0.3,0.33333333333333,0.36666666666667,0.4,0.43333333333333,0.46666666666667,0.5
minStream-8-20180107-14:42:44-9210,8,SmallCompany.router2.ppp[1].queue,queueingTime:histogram,,,,,,,,counters,0,0,0,0,0,0,0,0,0,0,0,0,0,0,0,0,35800,0,0,0,0,0,0,0,0,0,0,0,0,0,0,0
minStream-8-20180107-14:42:44-9210,8,SmallCompany.router2.ppp[2].queue,queueingTime:histogram,35800,,0,0,0,0,bins,-Inf,-0.5,-0.46666666666667,-0.43333333333333,-0.4,-0.36666666666667,-0.33333333333333,-0.3,-0.26666666666667,-0.23333333333333,-0.2,-0.16666666666667,-0.13333333333333,-0.1,-0.066666666666667,-0.033333333333333,-6.9388939039072e-18,0.033333333333333,0.066666666666667,0.1,0.13333333333333,0.16666666666667,0.2,0.23333333333333,0.26666666666667,0.3,0.33333333333333,0.36666666666667,0.4,0.43333333333333,0.46666666666667,0.5
minStream-8-20180107-14:42:44-9210,8,SmallCompany.router2.ppp[2].queue,queueingTime:histogram,,,,,,,,counters,0,0,0,0,0,0,0,0,0,0,0,0,0,0,0,0,35800,0,0,0,0,0,0,0,0,0,0,0,0,0,0,0
minStream-8-20180107-14:42:44-9210,8,SmallCompany.router3.ppp[0].queue,queueingTime:histogram,0,,NaN,NaN,NaN,NaN,bins,-Inf,-0.5,-0.46666666666667,-0.43333333333333,-0.4,-0.36666666666667,-0.33333333333333,-0.3,-0.26666666666667,-0.23333333333333,-0.2,-0.16666666666667,-0.13333333333333,-0.1,-0.066666666666667,-0.033333333333333,-6.9388939039072e-18,0.033333333333333,0.066666666666667,0.1,0.13333333333333,0.16666666666667,0.2,0.23333333333333,0.26666666666667,0.3,0.33333333333333,0.36666666666667,0.4,0.43333333333333,0.46666666666667,0.5
minStream-8-20180107-14:42:44-9210,8,SmallCompany.router3.ppp[0].queue,queueingTime:histogram,,,,,,,,counters,0,0,0,0,0,0,0,0,0,0,0,0,0,0,0,0,0,0,0,0,0,0,0,0,0,0,0,0,0,0,0,0
minStream-8-20180107-14:42:44-9210,8,SmallCompany.router3.ppp[1].queue,queueingTime:histogram,35800,,0,0,0,0,bins,-Inf,-0.5,-0.46666666666667,-0.43333333333333,-0.4,-0.36666666666667,-0.33333333333333,-0.3,-0.26666666666667,-0.23333333333333,-0.2,-0.16666666666667,-0.13333333333333,-0.1,-0.066666666666667,-0.033333333333333,-6.9388939039072e-18,0.033333333333333,0.066666666666667,0.1,0.13333333333333,0.16666666666667,0.2,0.23333333333333,0.26666666666667,0.3,0.33333333333333,0.36666666666667,0.4,0.43333333333333,0.46666666666667,0.5
minStream-8-20180107-14:42:44-9210,8,SmallCompany.router3.ppp[1].queue,queueingTime:histogram,,,,,,,,counters,0,0,0,0,0,0,0,0,0,0,0,0,0,0,0,0,35800,0,0,0,0,0,0,0,0,0,0,0,0,0,0,0
minStream-8-20180107-14:42:44-9210,8,SmallCompany.router4.ppp[0].queue,queueingTime:histogram,35800,,0,0,0,0,bins,-Inf,-0.5,-0.46666666666667,-0.43333333333333,-0.4,-0.36666666666667,-0.33333333333333,-0.3,-0.26666666666667,-0.23333333333333,-0.2,-0.16666666666667,-0.13333333333333,-0.1,-0.066666666666667,-0.033333333333333,-6.9388939039072e-18,0.033333333333333,0.066666666666667,0.1,0.13333333333333,0.16666666666667,0.2,0.23333333333333,0.26666666666667,0.3,0.33333333333333,0.36666666666667,0.4,0.43333333333333,0.46666666666667,0.5
minStream-8-20180107-14:42:44-9210,8,SmallCompany.router4.ppp[0].queue,queueingTime:histogram,,,,,,,,counters,0,0,0,0,0,0,0,0,0,0,0,0,0,0,0,0,35800,0,0,0,0,0,0,0,0,0,0,0,0,0,0,0
minStream-8-20180107-14:42:44-9210,8,SmallCompany.router4.ppp[1].queue,queueingTime:histogram,0,,NaN,NaN,NaN,NaN,bins,-Inf,-0.5,-0.46666666666667,-0.43333333333333,-0.4,-0.36666666666667,-0.33333333333333,-0.3,-0.26666666666667,-0.23333333333333,-0.2,-0.16666666666667,-0.13333333333333,-0.1,-0.066666666666667,-0.033333333333333,-6.9388939039072e-18,0.033333333333333,0.066666666666667,0.1,0.13333333333333,0.16666666666667,0.2,0.23333333333333,0.26666666666667,0.3,0.33333333333333,0.36666666666667,0.4,0.43333333333333,0.46666666666667,0.5
minStream-8-20180107-14:42:44-9210,8,SmallCompany.router4.ppp[1].queue,queueingTime:histogram,,,,,,,,counters,0,0,0,0,0,0,0,0,0,0,0,0,0,0,0,0,0,0,0,0,0,0,0,0,0,0,0,0,0,0,0,0
minStream-8-20180107-14:42:44-9210,8,SmallCompany.router4.ppp[2].queue,queueingTime:histogram,0,,NaN,NaN,NaN,NaN,bins,-Inf,-0.5,-0.46666666666667,-0.43333333333333,-0.4,-0.36666666666667,-0.33333333333333,-0.3,-0.26666666666667,-0.23333333333333,-0.2,-0.16666666666667,-0.13333333333333,-0.1,-0.066666666666667,-0.033333333333333,-6.9388939039072e-18,0.033333333333333,0.066666666666667,0.1,0.13333333333333,0.16666666666667,0.2,0.23333333333333,0.26666666666667,0.3,0.33333333333333,0.36666666666667,0.4,0.43333333333333,0.46666666666667,0.5
minStream-8-20180107-14:42:44-9210,8,SmallCompany.router4.ppp[2].queue,queueingTime:histogram,,,,,,,,counters,0,0,0,0,0,0,0,0,0,0,0,0,0,0,0,0,0,0,0,0,0,0,0,0,0,0,0,0,0,0,0,0
minStream-8-20180107-14:42:44-9210,8,SmallCompany.router5.ppp[0].queue,queueingTime:histogram,35800,,0,0,0,0,bins,-Inf,-0.5,-0.46666666666667,-0.43333333333333,-0.4,-0.36666666666667,-0.33333333333333,-0.3,-0.26666666666667,-0.23333333333333,-0.2,-0.16666666666667,-0.13333333333333,-0.1,-0.066666666666667,-0.033333333333333,-6.9388939039072e-18,0.033333333333333,0.066666666666667,0.1,0.13333333333333,0.16666666666667,0.2,0.23333333333333,0.26666666666667,0.3,0.33333333333333,0.36666666666667,0.4,0.43333333333333,0.46666666666667,0.5
minStream-8-20180107-14:42:44-9210,8,SmallCompany.router5.ppp[0].queue,queueingTime:histogram,,,,,,,,counters,0,0,0,0,0,0,0,0,0,0,0,0,0,0,0,0,35800,0,0,0,0,0,0,0,0,0,0,0,0,0,0,0
minStream-8-20180107-14:42:44-9210,8,SmallCompany.router5.ppp[1].queue,queueingTime:histogram,0,,NaN,NaN,NaN,NaN,bins,-Inf,-0.5,-0.46666666666667,-0.43333333333333,-0.4,-0.36666666666667,-0.33333333333333,-0.3,-0.26666666666667,-0.23333333333333,-0.2,-0.16666666666667,-0.13333333333333,-0.1,-0.066666666666667,-0.033333333333333,-6.9388939039072e-18,0.033333333333333,0.066666666666667,0.1,0.13333333333333,0.16666666666667,0.2,0.23333333333333,0.26666666666667,0.3,0.33333333333333,0.36666666666667,0.4,0.43333333333333,0.46666666666667,0.5
minStream-8-20180107-14:42:44-9210,8,SmallCompany.router5.ppp[1].queue,queueingTime:histogram,,,,,,,,counters,0,0,0,0,0,0,0,0,0,0,0,0,0,0,0,0,0,0,0,0,0,0,0,0,0,0,0,0,0,0,0,0
minStream-8-20180107-14:42:44-9210,8,SmallCompany.router5.ppp[2].queue,queueingTime:histogram,0,,NaN,NaN,NaN,NaN,bins,-Inf,-0.5,-0.46666666666667,-0.43333333333333,-0.4,-0.36666666666667,-0.33333333333333,-0.3,-0.26666666666667,-0.23333333333333,-0.2,-0.16666666666667,-0.13333333333333,-0.1,-0.066666666666667,-0.033333333333333,-6.9388939039072e-18,0.033333333333333,0.066666666666667,0.1,0.13333333333333,0.16666666666667,0.2,0.23333333333333,0.26666666666667,0.3,0.33333333333333,0.36666666666667,0.4,0.43333333333333,0.46666666666667,0.5
minStream-8-20180107-14:42:44-9210,8,SmallCompany.router5.ppp[2].queue,queueingTime:histogram,,,,,,,,counters,0,0,0,0,0,0,0,0,0,0,0,0,0,0,0,0,0,0,0,0,0,0,0,0,0,0,0,0,0,0,0,0
minStream-2-20180107-14:42:36-9091,2,SmallCompany.router1.ppp[0].queue,queueingTime:histogram,71600,,0,0,0,0,bins,-Inf,-0.5,-0.46666666666667,-0.43333333333333,-0.4,-0.36666666666667,-0.33333333333333,-0.3,-0.26666666666667,-0.23333333333333,-0.2,-0.16666666666667,-0.13333333333333,-0.1,-0.066666666666667,-0.033333333333333,-6.9388939039072e-18,0.033333333333333,0.066666666666667,0.1,0.13333333333333,0.16666666666667,0.2,0.23333333333333,0.26666666666667,0.3,0.33333333333333,0.36666666666667,0.4,0.43333333333333,0.46666666666667,0.5
minStream-2-20180107-14:42:36-9091,2,SmallCompany.router1.ppp[0].queue,queueingTime:histogram,,,,,,,,counters,0,0,0,0,0,0,0,0,0,0,0,0,0,0,0,0,71600,0,0,0,0,0,0,0,0,0,0,0,0,0,0,0
minStream-2-20180107-14:42:36-9091,2,SmallCompany.router2.ppp[0].queue,queueingTime:histogram,0,,NaN,NaN,NaN,NaN,bins,-Inf,-0.5,-0.46666666666667,-0.43333333333333,-0.4,-0.36666666666667,-0.33333333333333,-0.3,-0.26666666666667,-0.23333333333333,-0.2,-0.16666666666667,-0.13333333333333,-0.1,-0.066666666666667,-0.033333333333333,-6.9388939039072e-18,0.033333333333333,0.066666666666667,0.1,0.13333333333333,0.16666666666667,0.2,0.23333333333333,0.26666666666667,0.3,0.33333333333333,0.36666666666667,0.4,0.43333333333333,0.46666666666667,0.5
minStream-2-20180107-14:42:36-9091,2,SmallCompany.router2.ppp[0].queue,queueingTime:histogram,,,,,,,,counters,0,0,0,0,0,0,0,0,0,0,0,0,0,0,0,0,0,0,0,0,0,0,0,0,0,0,0,0,0,0,0,0
minStream-2-20180107-14:42:36-9091,2,SmallCompany.router2.ppp[1].queue,queueingTime:histogram,35800,,0,0,0,0,bins,-Inf,-0.5,-0.46666666666667,-0.43333333333333,-0.4,-0.36666666666667,-0.33333333333333,-0.3,-0.26666666666667,-0.23333333333333,-0.2,-0.16666666666667,-0.13333333333333,-0.1,-0.066666666666667,-0.033333333333333,-6.9388939039072e-18,0.033333333333333,0.066666666666667,0.1,0.13333333333333,0.16666666666667,0.2,0.23333333333333,0.26666666666667,0.3,0.33333333333333,0.36666666666667,0.4,0.43333333333333,0.46666666666667,0.5
minStream-2-20180107-14:42:36-9091,2,SmallCompany.router2.ppp[1].queue,queueingTime:histogram,,,,,,,,counters,0,0,0,0,0,0,0,0,0,0,0,0,0,0,0,0,35800,0,0,0,0,0,0,0,0,0,0,0,0,0,0,0
minStream-2-20180107-14:42:36-9091,2,SmallCompany.router2.ppp[2].queue,queueingTime:histogram,35800,,0,0,0,0,bins,-Inf,-0.5,-0.46666666666667,-0.43333333333333,-0.4,-0.36666666666667,-0.33333333333333,-0.3,-0.26666666666667,-0.23333333333333,-0.2,-0.16666666666667,-0.13333333333333,-0.1,-0.066666666666667,-0.033333333333333,-6.9388939039072e-18,0.033333333333333,0.066666666666667,0.1,0.13333333333333,0.16666666666667,0.2,0.23333333333333,0.26666666666667,0.3,0.33333333333333,0.36666666666667,0.4,0.43333333333333,0.46666666666667,0.5
minStream-2-20180107-14:42:36-9091,2,SmallCompany.router2.ppp[2].queue,queueingTime:histogram,,,,,,,,counters,0,0,0,0,0,0,0,0,0,0,0,0,0,0,0,0,35800,0,0,0,0,0,0,0,0,0,0,0,0,0,0,0
minStream-2-20180107-14:42:36-9091,2,SmallCompany.router3.ppp[0].queue,queueingTime:histogram,0,,NaN,NaN,NaN,NaN,bins,-Inf,-0.5,-0.46666666666667,-0.43333333333333,-0.4,-0.36666666666667,-0.33333333333333,-0.3,-0.26666666666667,-0.23333333333333,-0.2,-0.16666666666667,-0.13333333333333,-0.1,-0.066666666666667,-0.033333333333333,-6.9388939039072e-18,0.033333333333333,0.066666666666667,0.1,0.13333333333333,0.16666666666667,0.2,0.23333333333333,0.26666666666667,0.3,0.33333333333333,0.36666666666667,0.4,0.43333333333333,0.46666666666667,0.5
minStream-2-20180107-14:42:36-9091,2,SmallCompany.router3.ppp[0].queue,queueingTime:histogram,,,,,,,,counters,0,0,0,0,0,0,0,0,0,0,0,0,0,0,0,0,0,0,0,0,0,0,0,0,0,0,0,0,0,0,0,0
minStream-2-20180107-14:42:36-9091,2,SmallCompany.router3.ppp[1].queue,queueingTime:histogram,35800,,0,0,0,0,bins,-Inf,-0.5,-0.46666666666667,-0.43333333333333,-0.4,-0.36666666666667,-0.33333333333333,-0.3,-0.26666666666667,-0.23333333333333,-0.2,-0.16666666666667,-0.13333333333333,-0.1,-0.066666666666667,-0.033333333333333,-6.9388939039072e-18,0.033333333333333,0.066666666666667,0.1,0.13333333333333,0.16666666666667,0.2,0.23333333333333,0.26666666666667,0.3,0.33333333333333,0.36666666666667,0.4,0.43333333333333,0.46666666666667,0.5
minStream-2-20180107-14:42:36-9091,2,SmallCompany.router3.ppp[1].queue,queueingTime:histogram,,,,,,,,counters,0,0,0,0,0,0,0,0,0,0,0,0,0,0,0,0,35800,0,0,0,0,0,0,0,0,0,0,0,0,0,0,0
minStream-2-20180107-14:42:36-9091,2,SmallCompany.router4.ppp[0].queue,queueingTime:histogram,35800,,0,0,0,0,bins,-Inf,-0.5,-0.46666666666667,-0.43333333333333,-0.4,-0.36666666666667,-0.33333333333333,-0.3,-0.26666666666667,-0.23333333333333,-0.2,-0.16666666666667,-0.13333333333333,-0.1,-0.066666666666667,-0.033333333333333,-6.9388939039072e-18,0.033333333333333,0.066666666666667,0.1,0.13333333333333,0.16666666666667,0.2,0.23333333333333,0.26666666666667,0.3,0.33333333333333,0.36666666666667,0.4,0.43333333333333,0.46666666666667,0.5
minStream-2-20180107-14:42:36-9091,2,SmallCompany.router4.ppp[0].queue,queueingTime:histogram,,,,,,,,counters,0,0,0,0,0,0,0,0,0,0,0,0,0,0,0,0,35800,0,0,0,0,0,0,0,0,0,0,0,0,0,0,0
minStream-2-20180107-14:42:36-9091,2,SmallCompany.router4.ppp[1].queue,queueingTime:histogram,0,,NaN,NaN,NaN,NaN,bins,-Inf,-0.5,-0.46666666666667,-0.43333333333333,-0.4,-0.36666666666667,-0.33333333333333,-0.3,-0.26666666666667,-0.23333333333333,-0.2,-0.16666666666667,-0.13333333333333,-0.1,-0.066666666666667,-0.033333333333333,-6.9388939039072e-18,0.033333333333333,0.066666666666667,0.1,0.13333333333333,0.16666666666667,0.2,0.23333333333333,0.26666666666667,0.3,0.33333333333333,0.36666666666667,0.4,0.43333333333333,0.46666666666667,0.5
minStream-2-20180107-14:42:36-9091,2,SmallCompany.router4.ppp[1].queue,queueingTime:histogram,,,,,,,,counters,0,0,0,0,0,0,0,0,0,0,0,0,0,0,0,0,0,0,0,0,0,0,0,0,0,0,0,0,0,0,0,0
minStream-2-20180107-14:42:36-9091,2,SmallCompany.router4.ppp[2].queue,queueingTime:histogram,0,,NaN,NaN,NaN,NaN,bins,-Inf,-0.5,-0.46666666666667,-0.43333333333333,-0.4,-0.36666666666667,-0.33333333333333,-0.3,-0.26666666666667,-0.23333333333333,-0.2,-0.16666666666667,-0.13333333333333,-0.1,-0.066666666666667,-0.033333333333333,-6.9388939039072e-18,0.033333333333333,0.066666666666667,0.1,0.13333333333333,0.16666666666667,0.2,0.23333333333333,0.26666666666667,0.3,0.33333333333333,0.36666666666667,0.4,0.43333333333333,0.46666666666667,0.5
minStream-2-20180107-14:42:36-9091,2,SmallCompany.router4.ppp[2].queue,queueingTime:histogram,,,,,,,,counters,0,0,0,0,0,0,0,0,0,0,0,0,0,0,0,0,0,0,0,0,0,0,0,0,0,0,0,0,0,0,0,0
minStream-2-20180107-14:42:36-9091,2,SmallCompany.router5.ppp[0].queue,queueingTime:histogram,35800,,0,0,0,0,bins,-Inf,-0.5,-0.46666666666667,-0.43333333333333,-0.4,-0.36666666666667,-0.33333333333333,-0.3,-0.26666666666667,-0.23333333333333,-0.2,-0.16666666666667,-0.13333333333333,-0.1,-0.066666666666667,-0.033333333333333,-6.9388939039072e-18,0.033333333333333,0.066666666666667,0.1,0.13333333333333,0.16666666666667,0.2,0.23333333333333,0.26666666666667,0.3,0.33333333333333,0.36666666666667,0.4,0.43333333333333,0.46666666666667,0.5
minStream-2-20180107-14:42:36-9091,2,SmallCompany.router5.ppp[0].queue,queueingTime:histogram,,,,,,,,counters,0,0,0,0,0,0,0,0,0,0,0,0,0,0,0,0,35800,0,0,0,0,0,0,0,0,0,0,0,0,0,0,0
minStream-2-20180107-14:42:36-9091,2,SmallCompany.router5.ppp[1].queue,queueingTime:histogram,0,,NaN,NaN,NaN,NaN,bins,-Inf,-0.5,-0.46666666666667,-0.43333333333333,-0.4,-0.36666666666667,-0.33333333333333,-0.3,-0.26666666666667,-0.23333333333333,-0.2,-0.16666666666667,-0.13333333333333,-0.1,-0.066666666666667,-0.033333333333333,-6.9388939039072e-18,0.033333333333333,0.066666666666667,0.1,0.13333333333333,0.16666666666667,0.2,0.23333333333333,0.26666666666667,0.3,0.33333333333333,0.36666666666667,0.4,0.43333333333333,0.46666666666667,0.5
minStream-2-20180107-14:42:36-9091,2,SmallCompany.router5.ppp[1].queue,queueingTime:histogram,,,,,,,,counters,0,0,0,0,0,0,0,0,0,0,0,0,0,0,0,0,0,0,0,0,0,0,0,0,0,0,0,0,0,0,0,0
minStream-2-20180107-14:42:36-9091,2,SmallCompany.router5.ppp[2].queue,queueingTime:histogram,0,,NaN,NaN,NaN,NaN,bins,-Inf,-0.5,-0.46666666666667,-0.43333333333333,-0.4,-0.36666666666667,-0.33333333333333,-0.3,-0.26666666666667,-0.23333333333333,-0.2,-0.16666666666667,-0.13333333333333,-0.1,-0.066666666666667,-0.033333333333333,-6.9388939039072e-18,0.033333333333333,0.066666666666667,0.1,0.13333333333333,0.16666666666667,0.2,0.23333333333333,0.26666666666667,0.3,0.33333333333333,0.36666666666667,0.4,0.43333333333333,0.46666666666667,0.5
minStream-2-20180107-14:42:36-9091,2,SmallCompany.router5.ppp[2].queue,queueingTime:histogram,,,,,,,,counters,0,0,0,0,0,0,0,0,0,0,0,0,0,0,0,0,0,0,0,0,0,0,0,0,0,0,0,0,0,0,0,0
minStream-5-20180107-14:42:36-9096,5,SmallCompany.router1.ppp[0].queue,queueingTime:histogram,71600,,0,0,0,0,bins,-Inf,-0.5,-0.46666666666667,-0.43333333333333,-0.4,-0.36666666666667,-0.33333333333333,-0.3,-0.26666666666667,-0.23333333333333,-0.2,-0.16666666666667,-0.13333333333333,-0.1,-0.066666666666667,-0.033333333333333,-6.9388939039072e-18,0.033333333333333,0.066666666666667,0.1,0.13333333333333,0.16666666666667,0.2,0.23333333333333,0.26666666666667,0.3,0.33333333333333,0.36666666666667,0.4,0.43333333333333,0.46666666666667,0.5
minStream-5-20180107-14:42:36-9096,5,SmallCompany.router1.ppp[0].queue,queueingTime:histogram,,,,,,,,counters,0,0,0,0,0,0,0,0,0,0,0,0,0,0,0,0,71600,0,0,0,0,0,0,0,0,0,0,0,0,0,0,0
minStream-5-20180107-14:42:36-9096,5,SmallCompany.router2.ppp[0].queue,queueingTime:histogram,0,,NaN,NaN,NaN,NaN,bins,-Inf,-0.5,-0.46666666666667,-0.43333333333333,-0.4,-0.36666666666667,-0.33333333333333,-0.3,-0.26666666666667,-0.23333333333333,-0.2,-0.16666666666667,-0.13333333333333,-0.1,-0.066666666666667,-0.033333333333333,-6.9388939039072e-18,0.033333333333333,0.066666666666667,0.1,0.13333333333333,0.16666666666667,0.2,0.23333333333333,0.26666666666667,0.3,0.33333333333333,0.36666666666667,0.4,0.43333333333333,0.46666666666667,0.5
minStream-5-20180107-14:42:36-9096,5,SmallCompany.router2.ppp[0].queue,queueingTime:histogram,,,,,,,,counters,0,0,0,0,0,0,0,0,0,0,0,0,0,0,0,0,0,0,0,0,0,0,0,0,0,0,0,0,0,0,0,0
minStream-5-20180107-14:42:36-9096,5,SmallCompany.router2.ppp[1].queue,queueingTime:histogram,35800,,0,0,0,0,bins,-Inf,-0.5,-0.46666666666667,-0.43333333333333,-0.4,-0.36666666666667,-0.33333333333333,-0.3,-0.26666666666667,-0.23333333333333,-0.2,-0.16666666666667,-0.13333333333333,-0.1,-0.066666666666667,-0.033333333333333,-6.9388939039072e-18,0.033333333333333,0.066666666666667,0.1,0.13333333333333,0.16666666666667,0.2,0.23333333333333,0.26666666666667,0.3,0.33333333333333,0.36666666666667,0.4,0.43333333333333,0.46666666666667,0.5
minStream-5-20180107-14:42:36-9096,5,SmallCompany.router2.ppp[1].queue,queueingTime:histogram,,,,,,,,counters,0,0,0,0,0,0,0,0,0,0,0,0,0,0,0,0,35800,0,0,0,0,0,0,0,0,0,0,0,0,0,0,0
minStream-5-20180107-14:42:36-9096,5,SmallCompany.router2.ppp[2].queue,queueingTime:histogram,35800,,0,0,0,0,bins,-Inf,-0.5,-0.46666666666667,-0.43333333333333,-0.4,-0.36666666666667,-0.33333333333333,-0.3,-0.26666666666667,-0.23333333333333,-0.2,-0.16666666666667,-0.13333333333333,-0.1,-0.066666666666667,-0.033333333333333,-6.9388939039072e-18,0.033333333333333,0.066666666666667,0.1,0.13333333333333,0.16666666666667,0.2,0.23333333333333,0.26666666666667,0.3,0.33333333333333,0.36666666666667,0.4,0.43333333333333,0.46666666666667,0.5
minStream-5-20180107-14:42:36-9096,5,SmallCompany.router2.ppp[2].queue,queueingTime:histogram,,,,,,,,counters,0,0,0,0,0,0,0,0,0,0,0,0,0,0,0,0,35800,0,0,0,0,0,0,0,0,0,0,0,0,0,0,0
minStream-5-20180107-14:42:36-9096,5,SmallCompany.router3.ppp[0].queue,queueingTime:histogram,0,,NaN,NaN,NaN,NaN,bins,-Inf,-0.5,-0.46666666666667,-0.43333333333333,-0.4,-0.36666666666667,-0.33333333333333,-0.3,-0.26666666666667,-0.23333333333333,-0.2,-0.16666666666667,-0.13333333333333,-0.1,-0.066666666666667,-0.033333333333333,-6.9388939039072e-18,0.033333333333333,0.066666666666667,0.1,0.13333333333333,0.16666666666667,0.2,0.23333333333333,0.26666666666667,0.3,0.33333333333333,0.36666666666667,0.4,0.43333333333333,0.46666666666667,0.5
minStream-5-20180107-14:42:36-9096,5,SmallCompany.router3.ppp[0].queue,queueingTime:histogram,,,,,,,,counters,0,0,0,0,0,0,0,0,0,0,0,0,0,0,0,0,0,0,0,0,0,0,0,0,0,0,0,0,0,0,0,0
minStream-5-20180107-14:42:36-9096,5,SmallCompany.router3.ppp[1].queue,queueingTime:histogram,35800,,0,0,0,0,bins,-Inf,-0.5,-0.46666666666667,-0.43333333333333,-0.4,-0.36666666666667,-0.33333333333333,-0.3,-0.26666666666667,-0.23333333333333,-0.2,-0.16666666666667,-0.13333333333333,-0.1,-0.066666666666667,-0.033333333333333,-6.9388939039072e-18,0.033333333333333,0.066666666666667,0.1,0.13333333333333,0.16666666666667,0.2,0.23333333333333,0.26666666666667,0.3,0.33333333333333,0.36666666666667,0.4,0.43333333333333,0.46666666666667,0.5
minStream-5-20180107-14:42:36-9096,5,SmallCompany.router3.ppp[1].queue,queueingTime:histogram,,,,,,,,counters,0,0,0,0,0,0,0,0,0,0,0,0,0,0,0,0,35800,0,0,0,0,0,0,0,0,0,0,0,0,0,0,0
minStream-5-20180107-14:42:36-9096,5,SmallCompany.router4.ppp[0].queue,queueingTime:histogram,35800,,0,0,0,0,bins,-Inf,-0.5,-0.46666666666667,-0.43333333333333,-0.4,-0.36666666666667,-0.33333333333333,-0.3,-0.26666666666667,-0.23333333333333,-0.2,-0.16666666666667,-0.13333333333333,-0.1,-0.066666666666667,-0.033333333333333,-6.9388939039072e-18,0.033333333333333,0.066666666666667,0.1,0.13333333333333,0.16666666666667,0.2,0.23333333333333,0.26666666666667,0.3,0.33333333333333,0.36666666666667,0.4,0.43333333333333,0.46666666666667,0.5
minStream-5-20180107-14:42:36-9096,5,SmallCompany.router4.ppp[0].queue,queueingTime:histogram,,,,,,,,counters,0,0,0,0,0,0,0,0,0,0,0,0,0,0,0,0,35800,0,0,0,0,0,0,0,0,0,0,0,0,0,0,0
minStream-5-20180107-14:42:36-9096,5,SmallCompany.router4.ppp[1].queue,queueingTime:histogram,0,,NaN,NaN,NaN,NaN,bins,-Inf,-0.5,-0.46666666666667,-0.43333333333333,-0.4,-0.36666666666667,-0.33333333333333,-0.3,-0.26666666666667,-0.23333333333333,-0.2,-0.16666666666667,-0.13333333333333,-0.1,-0.066666666666667,-0.033333333333333,-6.9388939039072e-18,0.033333333333333,0.066666666666667,0.1,0.13333333333333,0.16666666666667,0.2,0.23333333333333,0.26666666666667,0.3,0.33333333333333,0.36666666666667,0.4,0.43333333333333,0.46666666666667,0.5
minStream-5-20180107-14:42:36-9096,5,SmallCompany.router4.ppp[1].queue,queueingTime:histogram,,,,,,,,counters,0,0,0,0,0,0,0,0,0,0,0,0,0,0,0,0,0,0,0,0,0,0,0,0,0,0,0,0,0,0,0,0
minStream-5-20180107-14:42:36-9096,5,SmallCompany.router4.ppp[2].queue,queueingTime:histogram,0,,NaN,NaN,NaN,NaN,bins,-Inf,-0.5,-0.46666666666667,-0.43333333333333,-0.4,-0.36666666666667,-0.33333333333333,-0.3,-0.26666666666667,-0.23333333333333,-0.2,-0.16666666666667,-0.13333333333333,-0.1,-0.066666666666667,-0.033333333333333,-6.9388939039072e-18,0.033333333333333,0.066666666666667,0.1,0.13333333333333,0.16666666666667,0.2,0.23333333333333,0.26666666666667,0.3,0.33333333333333,0.36666666666667,0.4,0.43333333333333,0.46666666666667,0.5
minStream-5-20180107-14:42:36-9096,5,SmallCompany.router4.ppp[2].queue,queueingTime:histogram,,,,,,,,counters,0,0,0,0,0,0,0,0,0,0,0,0,0,0,0,0,0,0,0,0,0,0,0,0,0,0,0,0,0,0,0,0
minStream-5-20180107-14:42:36-9096,5,SmallCompany.router5.ppp[0].queue,queueingTime:histogram,35800,,0,0,0,0,bins,-Inf,-0.5,-0.46666666666667,-0.43333333333333,-0.4,-0.36666666666667,-0.33333333333333,-0.3,-0.26666666666667,-0.23333333333333,-0.2,-0.16666666666667,-0.13333333333333,-0.1,-0.066666666666667,-0.033333333333333,-6.9388939039072e-18,0.033333333333333,0.066666666666667,0.1,0.13333333333333,0.16666666666667,0.2,0.23333333333333,0.26666666666667,0.3,0.33333333333333,0.36666666666667,0.4,0.43333333333333,0.46666666666667,0.5
minStream-5-20180107-14:42:36-9096,5,SmallCompany.router5.ppp[0].queue,queueingTime:histogram,,,,,,,,counters,0,0,0,0,0,0,0,0,0,0,0,0,0,0,0,0,35800,0,0,0,0,0,0,0,0,0,0,0,0,0,0,0
minStream-5-20180107-14:42:36-9096,5,SmallCompany.router5.ppp[1].queue,queueingTime:histogram,0,,NaN,NaN,NaN,NaN,bins,-Inf,-0.5,-0.46666666666667,-0.43333333333333,-0.4,-0.36666666666667,-0.33333333333333,-0.3,-0.26666666666667,-0.23333333333333,-0.2,-0.16666666666667,-0.13333333333333,-0.1,-0.066666666666667,-0.033333333333333,-6.9388939039072e-18,0.033333333333333,0.066666666666667,0.1,0.13333333333333,0.16666666666667,0.2,0.23333333333333,0.26666666666667,0.3,0.33333333333333,0.36666666666667,0.4,0.43333333333333,0.46666666666667,0.5
minStream-5-20180107-14:42:36-9096,5,SmallCompany.router5.ppp[1].queue,queueingTime:histogram,,,,,,,,counters,0,0,0,0,0,0,0,0,0,0,0,0,0,0,0,0,0,0,0,0,0,0,0,0,0,0,0,0,0,0,0,0
minStream-5-20180107-14:42:36-9096,5,SmallCompany.router5.ppp[2].queue,queueingTime:histogram,0,,NaN,NaN,NaN,NaN,bins,-Inf,-0.5,-0.46666666666667,-0.43333333333333,-0.4,-0.36666666666667,-0.33333333333333,-0.3,-0.26666666666667,-0.23333333333333,-0.2,-0.16666666666667,-0.13333333333333,-0.1,-0.066666666666667,-0.033333333333333,-6.9388939039072e-18,0.033333333333333,0.066666666666667,0.1,0.13333333333333,0.16666666666667,0.2,0.23333333333333,0.26666666666667,0.3,0.33333333333333,0.36666666666667,0.4,0.43333333333333,0.46666666666667,0.5
minStream-5-20180107-14:42:36-9096,5,SmallCompany.router5.ppp[2].queue,queueingTime:histogram,,,,,,,,counters,0,0,0,0,0,0,0,0,0,0,0,0,0,0,0,0,0,0,0,0,0,0,0,0,0,0,0,0,0,0,0,0
minStream-0-20180107-14:42:36-9092,0,SmallCompany.router1.ppp[0].queue,queueingTime:histogram,71600,,0,0,0,0,bins,-Inf,-0.5,-0.46666666666667,-0.43333333333333,-0.4,-0.36666666666667,-0.33333333333333,-0.3,-0.26666666666667,-0.23333333333333,-0.2,-0.16666666666667,-0.13333333333333,-0.1,-0.066666666666667,-0.033333333333333,-6.9388939039072e-18,0.033333333333333,0.066666666666667,0.1,0.13333333333333,0.16666666666667,0.2,0.23333333333333,0.26666666666667,0.3,0.33333333333333,0.36666666666667,0.4,0.43333333333333,0.46666666666667,0.5
minStream-0-20180107-14:42:36-9092,0,SmallCompany.router1.ppp[0].queue,queueingTime:histogram,,,,,,,,counters,0,0,0,0,0,0,0,0,0,0,0,0,0,0,0,0,71600,0,0,0,0,0,0,0,0,0,0,0,0,0,0,0
minStream-0-20180107-14:42:36-9092,0,SmallCompany.router2.ppp[0].queue,queueingTime:histogram,0,,NaN,NaN,NaN,NaN,bins,-Inf,-0.5,-0.46666666666667,-0.43333333333333,-0.4,-0.36666666666667,-0.33333333333333,-0.3,-0.26666666666667,-0.23333333333333,-0.2,-0.16666666666667,-0.13333333333333,-0.1,-0.066666666666667,-0.033333333333333,-6.9388939039072e-18,0.033333333333333,0.066666666666667,0.1,0.13333333333333,0.16666666666667,0.2,0.23333333333333,0.26666666666667,0.3,0.33333333333333,0.36666666666667,0.4,0.43333333333333,0.46666666666667,0.5
minStream-0-20180107-14:42:36-9092,0,SmallCompany.router2.ppp[0].queue,queueingTime:histogram,,,,,,,,counters,0,0,0,0,0,0,0,0,0,0,0,0,0,0,0,0,0,0,0,0,0,0,0,0,0,0,0,0,0,0,0,0
minStream-0-20180107-14:42:36-9092,0,SmallCompany.router2.ppp[1].queue,queueingTime:histogram,35800,,0,0,0,0,bins,-Inf,-0.5,-0.46666666666667,-0.43333333333333,-0.4,-0.36666666666667,-0.33333333333333,-0.3,-0.26666666666667,-0.23333333333333,-0.2,-0.16666666666667,-0.13333333333333,-0.1,-0.066666666666667,-0.033333333333333,-6.9388939039072e-18,0.033333333333333,0.066666666666667,0.1,0.13333333333333,0.16666666666667,0.2,0.23333333333333,0.26666666666667,0.3,0.33333333333333,0.36666666666667,0.4,0.43333333333333,0.46666666666667,0.5
minStream-0-20180107-14:42:36-9092,0,SmallCompany.router2.ppp[1].queue,queueingTime:histogram,,,,,,,,counters,0,0,0,0,0,0,0,0,0,0,0,0,0,0,0,0,35800,0,0,0,0,0,0,0,0,0,0,0,0,0,0,0
minStream-0-20180107-14:42:36-9092,0,SmallCompany.router2.ppp[2].queue,queueingTime:histogram,35800,,0,0,0,0,bins,-Inf,-0.5,-0.46666666666667,-0.43333333333333,-0.4,-0.36666666666667,-0.33333333333333,-0.3,-0.26666666666667,-0.23333333333333,-0.2,-0.16666666666667,-0.13333333333333,-0.1,-0.066666666666667,-0.033333333333333,-6.9388939039072e-18,0.033333333333333,0.066666666666667,0.1,0.13333333333333,0.16666666666667,0.2,0.23333333333333,0.26666666666667,0.3,0.33333333333333,0.36666666666667,0.4,0.43333333333333,0.46666666666667,0.5
minStream-0-20180107-14:42:36-9092,0,SmallCompany.router2.ppp[2].queue,queueingTime:histogram,,,,,,,,counters,0,0,0,0,0,0,0,0,0,0,0,0,0,0,0,0,35800,0,0,0,0,0,0,0,0,0,0,0,0,0,0,0
minStream-0-20180107-14:42:36-9092,0,SmallCompany.router3.ppp[0].queue,queueingTime:histogram,0,,NaN,NaN,NaN,NaN,bins,-Inf,-0.5,-0.46666666666667,-0.43333333333333,-0.4,-0.36666666666667,-0.33333333333333,-0.3,-0.26666666666667,-0.23333333333333,-0.2,-0.16666666666667,-0.13333333333333,-0.1,-0.066666666666667,-0.033333333333333,-6.9388939039072e-18,0.033333333333333,0.066666666666667,0.1,0.13333333333333,0.16666666666667,0.2,0.23333333333333,0.26666666666667,0.3,0.33333333333333,0.36666666666667,0.4,0.43333333333333,0.46666666666667,0.5
minStream-0-20180107-14:42:36-9092,0,SmallCompany.router3.ppp[0].queue,queueingTime:histogram,,,,,,,,counters,0,0,0,0,0,0,0,0,0,0,0,0,0,0,0,0,0,0,0,0,0,0,0,0,0,0,0,0,0,0,0,0
minStream-0-20180107-14:42:36-9092,0,SmallCompany.router3.ppp[1].queue,queueingTime:histogram,35800,,0,0,0,0,bins,-Inf,-0.5,-0.46666666666667,-0.43333333333333,-0.4,-0.36666666666667,-0.33333333333333,-0.3,-0.26666666666667,-0.23333333333333,-0.2,-0.16666666666667,-0.13333333333333,-0.1,-0.066666666666667,-0.033333333333333,-6.9388939039072e-18,0.033333333333333,0.066666666666667,0.1,0.13333333333333,0.16666666666667,0.2,0.23333333333333,0.26666666666667,0.3,0.33333333333333,0.36666666666667,0.4,0.43333333333333,0.46666666666667,0.5
minStream-0-20180107-14:42:36-9092,0,SmallCompany.router3.ppp[1].queue,queueingTime:histogram,,,,,,,,counters,0,0,0,0,0,0,0,0,0,0,0,0,0,0,0,0,35800,0,0,0,0,0,0,0,0,0,0,0,0,0,0,0
minStream-0-20180107-14:42:36-9092,0,SmallCompany.router4.ppp[0].queue,queueingTime:histogram,35800,,0,0,0,0,bins,-Inf,-0.5,-0.46666666666667,-0.43333333333333,-0.4,-0.36666666666667,-0.33333333333333,-0.3,-0.26666666666667,-0.23333333333333,-0.2,-0.16666666666667,-0.13333333333333,-0.1,-0.066666666666667,-0.033333333333333,-6.9388939039072e-18,0.033333333333333,0.066666666666667,0.1,0.13333333333333,0.16666666666667,0.2,0.23333333333333,0.26666666666667,0.3,0.33333333333333,0.36666666666667,0.4,0.43333333333333,0.46666666666667,0.5
minStream-0-20180107-14:42:36-9092,0,SmallCompany.router4.ppp[0].queue,queueingTime:histogram,,,,,,,,counters,0,0,0,0,0,0,0,0,0,0,0,0,0,0,0,0,35800,0,0,0,0,0,0,0,0,0,0,0,0,0,0,0
minStream-0-20180107-14:42:36-9092,0,SmallCompany.router4.ppp[1].queue,queueingTime:histogram,0,,NaN,NaN,NaN,NaN,bins,-Inf,-0.5,-0.46666666666667,-0.43333333333333,-0.4,-0.36666666666667,-0.33333333333333,-0.3,-0.26666666666667,-0.23333333333333,-0.2,-0.16666666666667,-0.13333333333333,-0.1,-0.066666666666667,-0.033333333333333,-6.9388939039072e-18,0.033333333333333,0.066666666666667,0.1,0.13333333333333,0.16666666666667,0.2,0.23333333333333,0.26666666666667,0.3,0.33333333333333,0.36666666666667,0.4,0.43333333333333,0.46666666666667,0.5
minStream-0-20180107-14:42:36-9092,0,SmallCompany.router4.ppp[1].queue,queueingTime:histogram,,,,,,,,counters,0,0,0,0,0,0,0,0,0,0,0,0,0,0,0,0,0,0,0,0,0,0,0,0,0,0,0,0,0,0,0,0
minStream-0-20180107-14:42:36-9092,0,SmallCompany.router4.ppp[2].queue,queueingTime:histogram,0,,NaN,NaN,NaN,NaN,bins,-Inf,-0.5,-0.46666666666667,-0.43333333333333,-0.4,-0.36666666666667,-0.33333333333333,-0.3,-0.26666666666667,-0.23333333333333,-0.2,-0.16666666666667,-0.13333333333333,-0.1,-0.066666666666667,-0.033333333333333,-6.9388939039072e-18,0.033333333333333,0.066666666666667,0.1,0.13333333333333,0.16666666666667,0.2,0.23333333333333,0.26666666666667,0.3,0.33333333333333,0.36666666666667,0.4,0.43333333333333,0.46666666666667,0.5
minStream-0-20180107-14:42:36-9092,0,SmallCompany.router4.ppp[2].queue,queueingTime:histogram,,,,,,,,counters,0,0,0,0,0,0,0,0,0,0,0,0,0,0,0,0,0,0,0,0,0,0,0,0,0,0,0,0,0,0,0,0
minStream-0-20180107-14:42:36-9092,0,SmallCompany.router5.ppp[0].queue,queueingTime:histogram,35800,,0,0,0,0,bins,-Inf,-0.5,-0.46666666666667,-0.43333333333333,-0.4,-0.36666666666667,-0.33333333333333,-0.3,-0.26666666666667,-0.23333333333333,-0.2,-0.16666666666667,-0.13333333333333,-0.1,-0.066666666666667,-0.033333333333333,-6.9388939039072e-18,0.033333333333333,0.066666666666667,0.1,0.13333333333333,0.16666666666667,0.2,0.23333333333333,0.26666666666667,0.3,0.33333333333333,0.36666666666667,0.4,0.43333333333333,0.46666666666667,0.5
minStream-0-20180107-14:42:36-9092,0,SmallCompany.router5.ppp[0].queue,queueingTime:histogram,,,,,,,,counters,0,0,0,0,0,0,0,0,0,0,0,0,0,0,0,0,35800,0,0,0,0,0,0,0,0,0,0,0,0,0,0,0
minStream-0-20180107-14:42:36-9092,0,SmallCompany.router5.ppp[1].queue,queueingTime:histogram,0,,NaN,NaN,NaN,NaN,bins,-Inf,-0.5,-0.46666666666667,-0.43333333333333,-0.4,-0.36666666666667,-0.33333333333333,-0.3,-0.26666666666667,-0.23333333333333,-0.2,-0.16666666666667,-0.13333333333333,-0.1,-0.066666666666667,-0.033333333333333,-6.9388939039072e-18,0.033333333333333,0.066666666666667,0.1,0.13333333333333,0.16666666666667,0.2,0.23333333333333,0.26666666666667,0.3,0.33333333333333,0.36666666666667,0.4,0.43333333333333,0.46666666666667,0.5
minStream-0-20180107-14:42:36-9092,0,SmallCompany.router5.ppp[1].queue,queueingTime:histogram,,,,,,,,counters,0,0,0,0,0,0,0,0,0,0,0,0,0,0,0,0,0,0,0,0,0,0,0,0,0,0,0,0,0,0,0,0
minStream-0-20180107-14:42:36-9092,0,SmallCompany.router5.ppp[2].queue,queueingTime:histogram,0,,NaN,NaN,NaN,NaN,bins,-Inf,-0.5,-0.46666666666667,-0.43333333333333,-0.4,-0.36666666666667,-0.33333333333333,-0.3,-0.26666666666667,-0.23333333333333,-0.2,-0.16666666666667,-0.13333333333333,-0.1,-0.066666666666667,-0.033333333333333,-6.9388939039072e-18,0.033333333333333,0.066666666666667,0.1,0.13333333333333,0.16666666666667,0.2,0.23333333333333,0.26666666666667,0.3,0.33333333333333,0.36666666666667,0.4,0.43333333333333,0.46666666666667,0.5
minStream-0-20180107-14:42:36-9092,0,SmallCompany.router5.ppp[2].queue,queueingTime:histogram,,,,,,,,counters,0,0,0,0,0,0,0,0,0,0,0,0,0,0,0,0,0,0,0,0,0,0,0,0,0,0,0,0,0,0,0,0
minStream-6-20180107-14:42:42-9186,6,SmallCompany.router1.ppp[0].queue,queueingTime:histogram,71600,,0,0,0,0,bins,-Inf,-0.5,-0.46666666666667,-0.43333333333333,-0.4,-0.36666666666667,-0.33333333333333,-0.3,-0.26666666666667,-0.23333333333333,-0.2,-0.16666666666667,-0.13333333333333,-0.1,-0.066666666666667,-0.033333333333333,-6.9388939039072e-18,0.033333333333333,0.066666666666667,0.1,0.13333333333333,0.16666666666667,0.2,0.23333333333333,0.26666666666667,0.3,0.33333333333333,0.36666666666667,0.4,0.43333333333333,0.46666666666667,0.5
minStream-6-20180107-14:42:42-9186,6,SmallCompany.router1.ppp[0].queue,queueingTime:histogram,,,,,,,,counters,0,0,0,0,0,0,0,0,0,0,0,0,0,0,0,0,71600,0,0,0,0,0,0,0,0,0,0,0,0,0,0,0
minStream-6-20180107-14:42:42-9186,6,SmallCompany.router2.ppp[0].queue,queueingTime:histogram,0,,NaN,NaN,NaN,NaN,bins,-Inf,-0.5,-0.46666666666667,-0.43333333333333,-0.4,-0.36666666666667,-0.33333333333333,-0.3,-0.26666666666667,-0.23333333333333,-0.2,-0.16666666666667,-0.13333333333333,-0.1,-0.066666666666667,-0.033333333333333,-6.9388939039072e-18,0.033333333333333,0.066666666666667,0.1,0.13333333333333,0.16666666666667,0.2,0.23333333333333,0.26666666666667,0.3,0.33333333333333,0.36666666666667,0.4,0.43333333333333,0.46666666666667,0.5
minStream-6-20180107-14:42:42-9186,6,SmallCompany.router2.ppp[0].queue,queueingTime:histogram,,,,,,,,counters,0,0,0,0,0,0,0,0,0,0,0,0,0,0,0,0,0,0,0,0,0,0,0,0,0,0,0,0,0,0,0,0
minStream-6-20180107-14:42:42-9186,6,SmallCompany.router2.ppp[1].queue,queueingTime:histogram,35800,,0,0,0,0,bins,-Inf,-0.5,-0.46666666666667,-0.43333333333333,-0.4,-0.36666666666667,-0.33333333333333,-0.3,-0.26666666666667,-0.23333333333333,-0.2,-0.16666666666667,-0.13333333333333,-0.1,-0.066666666666667,-0.033333333333333,-6.9388939039072e-18,0.033333333333333,0.066666666666667,0.1,0.13333333333333,0.16666666666667,0.2,0.23333333333333,0.26666666666667,0.3,0.33333333333333,0.36666666666667,0.4,0.43333333333333,0.46666666666667,0.5
minStream-6-20180107-14:42:42-9186,6,SmallCompany.router2.ppp[1].queue,queueingTime:histogram,,,,,,,,counters,0,0,0,0,0,0,0,0,0,0,0,0,0,0,0,0,35800,0,0,0,0,0,0,0,0,0,0,0,0,0,0,0
minStream-6-20180107-14:42:42-9186,6,SmallCompany.router2.ppp[2].queue,queueingTime:histogram,35800,,0,0,0,0,bins,-Inf,-0.5,-0.46666666666667,-0.43333333333333,-0.4,-0.36666666666667,-0.33333333333333,-0.3,-0.26666666666667,-0.23333333333333,-0.2,-0.16666666666667,-0.13333333333333,-0.1,-0.066666666666667,-0.033333333333333,-6.9388939039072e-18,0.033333333333333,0.066666666666667,0.1,0.13333333333333,0.16666666666667,0.2,0.23333333333333,0.26666666666667,0.3,0.33333333333333,0.36666666666667,0.4,0.43333333333333,0.46666666666667,0.5
minStream-6-20180107-14:42:42-9186,6,SmallCompany.router2.ppp[2].queue,queueingTime:histogram,,,,,,,,counters,0,0,0,0,0,0,0,0,0,0,0,0,0,0,0,0,35800,0,0,0,0,0,0,0,0,0,0,0,0,0,0,0
minStream-6-20180107-14:42:42-9186,6,SmallCompany.router3.ppp[0].queue,queueingTime:histogram,0,,NaN,NaN,NaN,NaN,bins,-Inf,-0.5,-0.46666666666667,-0.43333333333333,-0.4,-0.36666666666667,-0.33333333333333,-0.3,-0.26666666666667,-0.23333333333333,-0.2,-0.16666666666667,-0.13333333333333,-0.1,-0.066666666666667,-0.033333333333333,-6.9388939039072e-18,0.033333333333333,0.066666666666667,0.1,0.13333333333333,0.16666666666667,0.2,0.23333333333333,0.26666666666667,0.3,0.33333333333333,0.36666666666667,0.4,0.43333333333333,0.46666666666667,0.5
minStream-6-20180107-14:42:42-9186,6,SmallCompany.router3.ppp[0].queue,queueingTime:histogram,,,,,,,,counters,0,0,0,0,0,0,0,0,0,0,0,0,0,0,0,0,0,0,0,0,0,0,0,0,0,0,0,0,0,0,0,0
minStream-6-20180107-14:42:42-9186,6,SmallCompany.router3.ppp[1].queue,queueingTime:histogram,35800,,0,0,0,0,bins,-Inf,-0.5,-0.46666666666667,-0.43333333333333,-0.4,-0.36666666666667,-0.33333333333333,-0.3,-0.26666666666667,-0.23333333333333,-0.2,-0.16666666666667,-0.13333333333333,-0.1,-0.066666666666667,-0.033333333333333,-6.9388939039072e-18,0.033333333333333,0.066666666666667,0.1,0.13333333333333,0.16666666666667,0.2,0.23333333333333,0.26666666666667,0.3,0.33333333333333,0.36666666666667,0.4,0.43333333333333,0.46666666666667,0.5
minStream-6-20180107-14:42:42-9186,6,SmallCompany.router3.ppp[1].queue,queueingTime:histogram,,,,,,,,counters,0,0,0,0,0,0,0,0,0,0,0,0,0,0,0,0,35800,0,0,0,0,0,0,0,0,0,0,0,0,0,0,0
minStream-6-20180107-14:42:42-9186,6,SmallCompany.router4.ppp[0].queue,queueingTime:histogram,35800,,0,0,0,0,bins,-Inf,-0.5,-0.46666666666667,-0.43333333333333,-0.4,-0.36666666666667,-0.33333333333333,-0.3,-0.26666666666667,-0.23333333333333,-0.2,-0.16666666666667,-0.13333333333333,-0.1,-0.066666666666667,-0.033333333333333,-6.9388939039072e-18,0.033333333333333,0.066666666666667,0.1,0.13333333333333,0.16666666666667,0.2,0.23333333333333,0.26666666666667,0.3,0.33333333333333,0.36666666666667,0.4,0.43333333333333,0.46666666666667,0.5
minStream-6-20180107-14:42:42-9186,6,SmallCompany.router4.ppp[0].queue,queueingTime:histogram,,,,,,,,counters,0,0,0,0,0,0,0,0,0,0,0,0,0,0,0,0,35800,0,0,0,0,0,0,0,0,0,0,0,0,0,0,0
minStream-6-20180107-14:42:42-9186,6,SmallCompany.router4.ppp[1].queue,queueingTime:histogram,0,,NaN,NaN,NaN,NaN,bins,-Inf,-0.5,-0.46666666666667,-0.43333333333333,-0.4,-0.36666666666667,-0.33333333333333,-0.3,-0.26666666666667,-0.23333333333333,-0.2,-0.16666666666667,-0.13333333333333,-0.1,-0.066666666666667,-0.033333333333333,-6.9388939039072e-18,0.033333333333333,0.066666666666667,0.1,0.13333333333333,0.16666666666667,0.2,0.23333333333333,0.26666666666667,0.3,0.33333333333333,0.36666666666667,0.4,0.43333333333333,0.46666666666667,0.5
minStream-6-20180107-14:42:42-9186,6,SmallCompany.router4.ppp[1].queue,queueingTime:histogram,,,,,,,,counters,0,0,0,0,0,0,0,0,0,0,0,0,0,0,0,0,0,0,0,0,0,0,0,0,0,0,0,0,0,0,0,0
minStream-6-20180107-14:42:42-9186,6,SmallCompany.router4.ppp[2].queue,queueingTime:histogram,0,,NaN,NaN,NaN,NaN,bins,-Inf,-0.5,-0.46666666666667,-0.43333333333333,-0.4,-0.36666666666667,-0.33333333333333,-0.3,-0.26666666666667,-0.23333333333333,-0.2,-0.16666666666667,-0.13333333333333,-0.1,-0.066666666666667,-0.033333333333333,-6.9388939039072e-18,0.033333333333333,0.066666666666667,0.1,0.13333333333333,0.16666666666667,0.2,0.23333333333333,0.26666666666667,0.3,0.33333333333333,0.36666666666667,0.4,0.43333333333333,0.46666666666667,0.5
minStream-6-20180107-14:42:42-9186,6,SmallCompany.router4.ppp[2].queue,queueingTime:histogram,,,,,,,,counters,0,0,0,0,0,0,0,0,0,0,0,0,0,0,0,0,0,0,0,0,0,0,0,0,0,0,0,0,0,0,0,0
minStream-6-20180107-14:42:42-9186,6,SmallCompany.router5.ppp[0].queue,queueingTime:histogram,35800,,0,0,0,0,bins,-Inf,-0.5,-0.46666666666667,-0.43333333333333,-0.4,-0.36666666666667,-0.33333333333333,-0.3,-0.26666666666667,-0.23333333333333,-0.2,-0.16666666666667,-0.13333333333333,-0.1,-0.066666666666667,-0.033333333333333,-6.9388939039072e-18,0.033333333333333,0.066666666666667,0.1,0.13333333333333,0.16666666666667,0.2,0.23333333333333,0.26666666666667,0.3,0.33333333333333,0.36666666666667,0.4,0.43333333333333,0.46666666666667,0.5
minStream-6-20180107-14:42:42-9186,6,SmallCompany.router5.ppp[0].queue,queueingTime:histogram,,,,,,,,counters,0,0,0,0,0,0,0,0,0,0,0,0,0,0,0,0,35800,0,0,0,0,0,0,0,0,0,0,0,0,0,0,0
minStream-6-20180107-14:42:42-9186,6,SmallCompany.router5.ppp[1].queue,queueingTime:histogram,0,,NaN,NaN,NaN,NaN,bins,-Inf,-0.5,-0.46666666666667,-0.43333333333333,-0.4,-0.36666666666667,-0.33333333333333,-0.3,-0.26666666666667,-0.23333333333333,-0.2,-0.16666666666667,-0.13333333333333,-0.1,-0.066666666666667,-0.033333333333333,-6.9388939039072e-18,0.033333333333333,0.066666666666667,0.1,0.13333333333333,0.16666666666667,0.2,0.23333333333333,0.26666666666667,0.3,0.33333333333333,0.36666666666667,0.4,0.43333333333333,0.46666666666667,0.5
minStream-6-20180107-14:42:42-9186,6,SmallCompany.router5.ppp[1].queue,queueingTime:histogram,,,,,,,,counters,0,0,0,0,0,0,0,0,0,0,0,0,0,0,0,0,0,0,0,0,0,0,0,0,0,0,0,0,0,0,0,0
minStream-6-20180107-14:42:42-9186,6,SmallCompany.router5.ppp[2].queue,queueingTime:histogram,0,,NaN,NaN,NaN,NaN,bins,-Inf,-0.5,-0.46666666666667,-0.43333333333333,-0.4,-0.36666666666667,-0.33333333333333,-0.3,-0.26666666666667,-0.23333333333333,-0.2,-0.16666666666667,-0.13333333333333,-0.1,-0.066666666666667,-0.033333333333333,-6.9388939039072e-18,0.033333333333333,0.066666666666667,0.1,0.13333333333333,0.16666666666667,0.2,0.23333333333333,0.26666666666667,0.3,0.33333333333333,0.36666666666667,0.4,0.43333333333333,0.46666666666667,0.5
minStream-6-20180107-14:42:42-9186,6,SmallCompany.router5.ppp[2].queue,queueingTime:histogram,,,,,,,,counters,0,0,0,0,0,0,0,0,0,0,0,0,0,0,0,0,0,0,0,0,0,0,0,0,0,0,0,0,0,0,0,0
minStream-9-20180107-14:42:45-9222,9,SmallCompany.router1.ppp[0].queue,queueingTime:histogram,71600,,0,0,0,0,bins,-Inf,-0.5,-0.46666666666667,-0.43333333333333,-0.4,-0.36666666666667,-0.33333333333333,-0.3,-0.26666666666667,-0.23333333333333,-0.2,-0.16666666666667,-0.13333333333333,-0.1,-0.066666666666667,-0.033333333333333,-6.9388939039072e-18,0.033333333333333,0.066666666666667,0.1,0.13333333333333,0.16666666666667,0.2,0.23333333333333,0.26666666666667,0.3,0.33333333333333,0.36666666666667,0.4,0.43333333333333,0.46666666666667,0.5
minStream-9-20180107-14:42:45-9222,9,SmallCompany.router1.ppp[0].queue,queueingTime:histogram,,,,,,,,counters,0,0,0,0,0,0,0,0,0,0,0,0,0,0,0,0,71600,0,0,0,0,0,0,0,0,0,0,0,0,0,0,0
minStream-9-20180107-14:42:45-9222,9,SmallCompany.router2.ppp[0].queue,queueingTime:histogram,0,,NaN,NaN,NaN,NaN,bins,-Inf,-0.5,-0.46666666666667,-0.43333333333333,-0.4,-0.36666666666667,-0.33333333333333,-0.3,-0.26666666666667,-0.23333333333333,-0.2,-0.16666666666667,-0.13333333333333,-0.1,-0.066666666666667,-0.033333333333333,-6.9388939039072e-18,0.033333333333333,0.066666666666667,0.1,0.13333333333333,0.16666666666667,0.2,0.23333333333333,0.26666666666667,0.3,0.33333333333333,0.36666666666667,0.4,0.43333333333333,0.46666666666667,0.5
minStream-9-20180107-14:42:45-9222,9,SmallCompany.router2.ppp[0].queue,queueingTime:histogram,,,,,,,,counters,0,0,0,0,0,0,0,0,0,0,0,0,0,0,0,0,0,0,0,0,0,0,0,0,0,0,0,0,0,0,0,0
minStream-9-20180107-14:42:45-9222,9,SmallCompany.router2.ppp[1].queue,queueingTime:histogram,35800,,0,0,0,0,bins,-Inf,-0.5,-0.46666666666667,-0.43333333333333,-0.4,-0.36666666666667,-0.33333333333333,-0.3,-0.26666666666667,-0.23333333333333,-0.2,-0.16666666666667,-0.13333333333333,-0.1,-0.066666666666667,-0.033333333333333,-6.9388939039072e-18,0.033333333333333,0.066666666666667,0.1,0.13333333333333,0.16666666666667,0.2,0.23333333333333,0.26666666666667,0.3,0.33333333333333,0.36666666666667,0.4,0.43333333333333,0.46666666666667,0.5
minStream-9-20180107-14:42:45-9222,9,SmallCompany.router2.ppp[1].queue,queueingTime:histogram,,,,,,,,counters,0,0,0,0,0,0,0,0,0,0,0,0,0,0,0,0,35800,0,0,0,0,0,0,0,0,0,0,0,0,0,0,0
minStream-9-20180107-14:42:45-9222,9,SmallCompany.router2.ppp[2].queue,queueingTime:histogram,35800,,0,0,0,0,bins,-Inf,-0.5,-0.46666666666667,-0.43333333333333,-0.4,-0.36666666666667,-0.33333333333333,-0.3,-0.26666666666667,-0.23333333333333,-0.2,-0.16666666666667,-0.13333333333333,-0.1,-0.066666666666667,-0.033333333333333,-6.9388939039072e-18,0.033333333333333,0.066666666666667,0.1,0.13333333333333,0.16666666666667,0.2,0.23333333333333,0.26666666666667,0.3,0.33333333333333,0.36666666666667,0.4,0.43333333333333,0.46666666666667,0.5
minStream-9-20180107-14:42:45-9222,9,SmallCompany.router2.ppp[2].queue,queueingTime:histogram,,,,,,,,counters,0,0,0,0,0,0,0,0,0,0,0,0,0,0,0,0,35800,0,0,0,0,0,0,0,0,0,0,0,0,0,0,0
minStream-9-20180107-14:42:45-9222,9,SmallCompany.router3.ppp[0].queue,queueingTime:histogram,0,,NaN,NaN,NaN,NaN,bins,-Inf,-0.5,-0.46666666666667,-0.43333333333333,-0.4,-0.36666666666667,-0.33333333333333,-0.3,-0.26666666666667,-0.23333333333333,-0.2,-0.16666666666667,-0.13333333333333,-0.1,-0.066666666666667,-0.033333333333333,-6.9388939039072e-18,0.033333333333333,0.066666666666667,0.1,0.13333333333333,0.16666666666667,0.2,0.23333333333333,0.26666666666667,0.3,0.33333333333333,0.36666666666667,0.4,0.43333333333333,0.46666666666667,0.5
minStream-9-20180107-14:42:45-9222,9,SmallCompany.router3.ppp[0].queue,queueingTime:histogram,,,,,,,,counters,0,0,0,0,0,0,0,0,0,0,0,0,0,0,0,0,0,0,0,0,0,0,0,0,0,0,0,0,0,0,0,0
minStream-9-20180107-14:42:45-9222,9,SmallCompany.router3.ppp[1].queue,queueingTime:histogram,35800,,0,0,0,0,bins,-Inf,-0.5,-0.46666666666667,-0.43333333333333,-0.4,-0.36666666666667,-0.33333333333333,-0.3,-0.26666666666667,-0.23333333333333,-0.2,-0.16666666666667,-0.13333333333333,-0.1,-0.066666666666667,-0.033333333333333,-6.9388939039072e-18,0.033333333333333,0.066666666666667,0.1,0.13333333333333,0.16666666666667,0.2,0.23333333333333,0.26666666666667,0.3,0.33333333333333,0.36666666666667,0.4,0.43333333333333,0.46666666666667,0.5
minStream-9-20180107-14:42:45-9222,9,SmallCompany.router3.ppp[1].queue,queueingTime:histogram,,,,,,,,counters,0,0,0,0,0,0,0,0,0,0,0,0,0,0,0,0,35800,0,0,0,0,0,0,0,0,0,0,0,0,0,0,0
minStream-9-20180107-14:42:45-9222,9,SmallCompany.router4.ppp[0].queue,queueingTime:histogram,35800,,0,0,0,0,bins,-Inf,-0.5,-0.46666666666667,-0.43333333333333,-0.4,-0.36666666666667,-0.33333333333333,-0.3,-0.26666666666667,-0.23333333333333,-0.2,-0.16666666666667,-0.13333333333333,-0.1,-0.066666666666667,-0.033333333333333,-6.9388939039072e-18,0.033333333333333,0.066666666666667,0.1,0.13333333333333,0.16666666666667,0.2,0.23333333333333,0.26666666666667,0.3,0.33333333333333,0.36666666666667,0.4,0.43333333333333,0.46666666666667,0.5
minStream-9-20180107-14:42:45-9222,9,SmallCompany.router4.ppp[0].queue,queueingTime:histogram,,,,,,,,counters,0,0,0,0,0,0,0,0,0,0,0,0,0,0,0,0,35800,0,0,0,0,0,0,0,0,0,0,0,0,0,0,0
minStream-9-20180107-14:42:45-9222,9,SmallCompany.router4.ppp[1].queue,queueingTime:histogram,0,,NaN,NaN,NaN,NaN,bins,-Inf,-0.5,-0.46666666666667,-0.43333333333333,-0.4,-0.36666666666667,-0.33333333333333,-0.3,-0.26666666666667,-0.23333333333333,-0.2,-0.16666666666667,-0.13333333333333,-0.1,-0.066666666666667,-0.033333333333333,-6.9388939039072e-18,0.033333333333333,0.066666666666667,0.1,0.13333333333333,0.16666666666667,0.2,0.23333333333333,0.26666666666667,0.3,0.33333333333333,0.36666666666667,0.4,0.43333333333333,0.46666666666667,0.5
minStream-9-20180107-14:42:45-9222,9,SmallCompany.router4.ppp[1].queue,queueingTime:histogram,,,,,,,,counters,0,0,0,0,0,0,0,0,0,0,0,0,0,0,0,0,0,0,0,0,0,0,0,0,0,0,0,0,0,0,0,0
minStream-9-20180107-14:42:45-9222,9,SmallCompany.router4.ppp[2].queue,queueingTime:histogram,0,,NaN,NaN,NaN,NaN,bins,-Inf,-0.5,-0.46666666666667,-0.43333333333333,-0.4,-0.36666666666667,-0.33333333333333,-0.3,-0.26666666666667,-0.23333333333333,-0.2,-0.16666666666667,-0.13333333333333,-0.1,-0.066666666666667,-0.033333333333333,-6.9388939039072e-18,0.033333333333333,0.066666666666667,0.1,0.13333333333333,0.16666666666667,0.2,0.23333333333333,0.26666666666667,0.3,0.33333333333333,0.36666666666667,0.4,0.43333333333333,0.46666666666667,0.5
minStream-9-20180107-14:42:45-9222,9,SmallCompany.router4.ppp[2].queue,queueingTime:histogram,,,,,,,,counters,0,0,0,0,0,0,0,0,0,0,0,0,0,0,0,0,0,0,0,0,0,0,0,0,0,0,0,0,0,0,0,0
minStream-9-20180107-14:42:45-9222,9,SmallCompany.router5.ppp[0].queue,queueingTime:histogram,35800,,0,0,0,0,bins,-Inf,-0.5,-0.46666666666667,-0.43333333333333,-0.4,-0.36666666666667,-0.33333333333333,-0.3,-0.26666666666667,-0.23333333333333,-0.2,-0.16666666666667,-0.13333333333333,-0.1,-0.066666666666667,-0.033333333333333,-6.9388939039072e-18,0.033333333333333,0.066666666666667,0.1,0.13333333333333,0.16666666666667,0.2,0.23333333333333,0.26666666666667,0.3,0.33333333333333,0.36666666666667,0.4,0.43333333333333,0.46666666666667,0.5
minStream-9-20180107-14:42:45-9222,9,SmallCompany.router5.ppp[0].queue,queueingTime:histogram,,,,,,,,counters,0,0,0,0,0,0,0,0,0,0,0,0,0,0,0,0,35800,0,0,0,0,0,0,0,0,0,0,0,0,0,0,0
minStream-9-20180107-14:42:45-9222,9,SmallCompany.router5.ppp[1].queue,queueingTime:histogram,0,,NaN,NaN,NaN,NaN,bins,-Inf,-0.5,-0.46666666666667,-0.43333333333333,-0.4,-0.36666666666667,-0.33333333333333,-0.3,-0.26666666666667,-0.23333333333333,-0.2,-0.16666666666667,-0.13333333333333,-0.1,-0.066666666666667,-0.033333333333333,-6.9388939039072e-18,0.033333333333333,0.066666666666667,0.1,0.13333333333333,0.16666666666667,0.2,0.23333333333333,0.26666666666667,0.3,0.33333333333333,0.36666666666667,0.4,0.43333333333333,0.46666666666667,0.5
minStream-9-20180107-14:42:45-9222,9,SmallCompany.router5.ppp[1].queue,queueingTime:histogram,,,,,,,,counters,0,0,0,0,0,0,0,0,0,0,0,0,0,0,0,0,0,0,0,0,0,0,0,0,0,0,0,0,0,0,0,0
minStream-9-20180107-14:42:45-9222,9,SmallCompany.router5.ppp[2].queue,queueingTime:histogram,0,,NaN,NaN,NaN,NaN,bins,-Inf,-0.5,-0.46666666666667,-0.43333333333333,-0.4,-0.36666666666667,-0.33333333333333,-0.3,-0.26666666666667,-0.23333333333333,-0.2,-0.16666666666667,-0.13333333333333,-0.1,-0.066666666666667,-0.033333333333333,-6.9388939039072e-18,0.033333333333333,0.066666666666667,0.1,0.13333333333333,0.16666666666667,0.2,0.23333333333333,0.26666666666667,0.3,0.33333333333333,0.36666666666667,0.4,0.43333333333333,0.46666666666667,0.5
minStream-9-20180107-14:42:45-9222,9,SmallCompany.router5.ppp[2].queue,queueingTime:histogram,,,,,,,,counters,0,0,0,0,0,0,0,0,0,0,0,0,0,0,0,0,0,0,0,0,0,0,0,0,0,0,0,0,0,0,0,0
